# Electrode atom charges in atomic unit
# -------------------------------------
# Charge:   1 au = 1.602176565e-19 C = 1 e
# step        0
-1.077995519126723E-003
-7.075235254394788E-004
-1.219224259938221E-003
+5.383635861095447E-004
+2.774210788075819E-004
+1.890642252181350E-003
+2.053689180873330E-003
+1.085507601534043E-003
+8.679462763923007E-004
+2.449043836906823E-004
+9.300474800089510E-005
-1.248733004068723E-004
+3.799640176513044E-004
+6.189134212654519E-004
+7.946488202191391E-004
+1.402399032396356E-003
+1.530899926841172E-003
+5.661372758093439E-005
+3.508379577269674E-004
-5.551369137556751E-004
-3.715007133659324E-004
+1.062049077437215E-003
+7.625579611397395E-004
+1.561815378451751E-003
+1.427688804078817E-003
+1.033423590022106E-003
+8.128124501642043E-004
+1.090844288034034E-003
+7.053253197653151E-004
-5.448242541722100E-005
-7.787351296955556E-004
+3.879323518519473E-004
+1.566551558469759E-003
+3.438281652433985E-003
+2.734434713352928E-003
+2.766169093889346E-003
+1.429711395945318E-003
-2.382738587509524E-004
+6.928415287020959E-004
-9.616827961189960E-005
+9.503934531055907E-004
-1.002564346356398E-003
-7.057463376262548E-004
-1.119194130384747E-003
+1.793373258348285E-003
+1.760134090979722E-003
+3.412485849666742E-003
+1.852963432750897E-003
+2.221524549929329E-005
-1.323120595408103E-003
-1.900859298701342E-003
-2.306583481275386E-003
-1.410097847859423E-003
-2.537568219965404E-003
-3.116845235854222E-003
-3.199419524292238E-003
-1.022214883903333E-003
-1.840040412790743E-003
+3.211899250493357E-004
-5.068093642350862E-004
-5.937201447868607E-004
-9.848425487311695E-004
-1.612309314946103E-003
-1.713762962060253E-003
-1.739264146877004E-003
+1.577190783355933E-004
-1.817227059997934E-003
+3.500699076253158E-005
-2.548128467987948E-003
-9.106866397513893E-004
-1.440347496624528E-003
-5.401934318215779E-004
-2.696472971774900E-003
+3.769370268175858E-004
+1.016592841840371E-003
-2.436011886424001E-003
-7.632678876127129E-004
-4.589370168673122E-003
-6.536788091579219E-003
+5.353730055384507E-004
-6.923453980639626E-004
-4.249830267909598E-003
-1.185244348884342E-003
+2.509526615281055E-003
+2.897921778671890E-003
-1.898769352899190E-003
-1.535134464195941E-003
+1.418840252791339E-003
+3.246878277934235E-003
+1.792455063956983E-003
-7.593829067844629E-004
+3.545467326334480E-004
+6.934877504207830E-003
+4.531777341338567E-003
-7.106429514797018E-003
-7.416547590090902E-003
-9.797327269462533E-004
+2.535637318505571E-003
-1.414901602741447E-003
+1.207852614176988E-003
-4.454840838619523E-003
-2.937124303263150E-003
+2.060511297906756E-003
-4.255212601294704E-003
-3.643081175827319E-003
-4.196387487058643E-003
+6.479229242810542E-003
-1.425881926583854E-003
-2.898571316020278E-003
-2.065448136016691E-003
-1.841315605968320E-004
-1.150174220804108E-003
-1.203004153165200E-003
-4.247736063621014E-004
+7.127238492785340E-004
+1.662265428637358E-003
-3.752827642616882E-003
-1.002927081936493E-003
-2.421009198770850E-003
-7.252483263879762E-003
-1.110091922743351E-002
-1.612979987728846E-003
+5.012883277007157E-003
-4.258395115893304E-004
+2.441112602125591E-003
-5.028443192000630E-003
+3.846857138132206E-003
+7.888666513435908E-004
-2.473107043996022E-003
-1.643622542647112E-004
+5.279125116751025E-003
+7.024260777068996E-003
+1.686770896338380E-003
+4.408623611706156E-003
+1.360486534819888E-003
-6.394479792864049E-005
+9.396507500013961E-003
-1.337951383698985E-003
-9.692842932897884E-003
+5.581819242111319E-003
+8.464340278482503E-003
-9.160501198780768E-005
-1.763993421537878E-003
-3.451088714160089E-003
+5.370072013289489E-002
-6.706860320971383E-003
-7.586639038746538E-003
-2.708307151280518E-002
-2.730063623748187E-002
-4.852261877858450E-002
-6.044267031134226E-002
-1.224190859537939E-002
-4.578259957030471E-002
-2.978269668270339E-003
-3.348094542282335E-002
+4.741289238539719E-004
-3.677244667455149E-002
+2.766247358608123E-002
-8.823628039808249E-003
+5.747172407291726E-002
+6.341620116169104E-002
-1.291901080104121E-002
-4.042602755586525E-002
-9.281625058492466E-003
+3.773301074843654E-002
-2.627248470131912E-002
-7.912104947204514E-002
-3.012041518601098E-002
-7.310251336443888E-003
-8.930083256635519E-003
+2.369566863213794E-002
-3.553176272741381E-002
-4.072443772975685E-002
-5.692357095936847E-002
-1.720867856695517E-002
+7.561448500910842E-003
-7.902995477674928E-002
-1.761035820632702E-002
-2.481191510557969E-002
-2.860050659718090E-002
-3.354902534764487E-002
-2.689468847872053E-002
-2.848075973056507E-002
+5.460804076240154E-003
-3.430265252626225E-002
-1.037820788031883E-002
+5.490405716777935E-003
+3.541159648908971E-002
-2.872457357787893E-002
-4.074036201738043E-003
-5.378295025248742E-002
-7.014756542452363E-002
-9.199832071658627E-002
-1.670730713331562E-002
+1.045074210925294E-003
+4.563318725564442E-002
-1.661850050992534E-002
-9.518725057053347E-003
+7.625353224445487E-003
+4.228185882262735E-002
-1.015091000359544E-002
-3.733124776390329E-002
+5.720558625897025E-002
-4.876775165681997E-003
-2.312648839618079E-002
+5.819365477566004E-002
+1.089886334828477E-002
+2.601236791218801E-002
+2.262987620298158E-002
+4.948677977408516E-003
-6.836142511289848E-003
-1.107303704547151E-002
+3.072329014345898E-002
-3.233625883656662E-002
-2.106867982593267E-002
-1.422527657510998E-002
-6.534150006578103E-002
-4.968470286086200E-002
-2.758316146118804E-002
+2.456102590942728E-002
+1.325377421909524E-002
+9.160508787325081E-002
+6.875917997273272E-002
+5.621816550407047E-002
+5.818494016135398E-002
+1.425879417984239E-002
+2.079543833842751E-002
-5.362811346969363E-002
+2.646865449513988E-002
-1.797935133323857E-002
+4.472577776731727E-002
+4.256744404521151E-002
+3.103795060881167E-002
-1.023186576299398E-002
-1.946090457068444E-002
-1.160051447717334E-002
-5.732051391356124E-002
-5.418766056156111E-003
-1.232019965588852E-002
+5.637564945693536E-002
-1.588692242026484E-002
-5.308094037086816E-003
-2.639168147752318E-002
-1.866655564179020E-002
-2.881904562173266E-002
-2.303502665683483E-002
-2.808185794961503E-002
+1.345652164208774E-002
+4.484708943379170E-002
+7.773958030674782E-002
+5.376520577945153E-002
+1.976547647895243E-002
+2.506685251169709E-003
-1.582085500066136E-002
-1.181372845960418E-002
+8.870074126297997E-003
+5.443056383104031E-002
-3.225107378999512E-002
-6.783099730567915E-003
-2.698118592368201E-002
+4.128432646043314E-002
+1.969877567457581E-002
+7.931240709945529E-002
+3.246842808289621E-002
+5.654645251139086E-003
-2.765772426714160E-002
-5.233434706070865E-002
-6.699930729433282E-002
-3.046559948891765E-002
-1.819302508680003E-002
-1.260998624796011E-001
-9.411162064273441E-002
+6.888332492403894E-002
-9.647852117113047E-002
+1.711988667201790E-002
+1.177058205299620E-002
-1.439700074841202E-002
+3.722073673441233E-002
-1.614076434573944E-002
-2.573224140023538E-002
-3.426551231756150E-002
+4.612831854296618E-002
-1.736111081957055E-002
+1.729643485979492E-002
-1.026096288068140E-001
-7.608269067268934E-003
-4.828349225765446E-002
-3.157959024707682E-002
-9.479768894402412E-004
-2.928460899600600E-003
+5.518592812659324E-003
-5.949972922502167E-003
-2.186636415636278E-003
+7.730632130815768E-003
+9.336821100547670E-003
+2.167152582966239E-003
+3.037556319579955E-003
+3.748450746798910E-003
+1.508800312175385E-003
-1.619522972056209E-003
+2.751200518101651E-003
-3.632607935938700E-003
-3.132351714137511E-003
+1.007385174113361E-002
+7.619714536923291E-003
-3.768853627934243E-003
-2.640924570547684E-003
-3.251001953746846E-003
+5.415236291581196E-003
-4.257502298458273E-004
-3.325933962150242E-003
+3.610756932432573E-003
-5.170053422840724E-003
+1.654485579958454E-003
+2.753501174595190E-003
-1.521104542647107E-003
+3.923329680298269E-004
-3.148323295828772E-003
-1.685389973884711E-003
-8.558688684805981E-004
-1.992704183243731E-003
+2.980243716789718E-003
+4.946414125104950E-003
-3.294629872009568E-003
+1.808289210748206E-003
+2.149179625864516E-004
-5.024239388565750E-003
+3.205369287381435E-003
+4.617187467559162E-003
+1.705653178178815E-003
-6.376617672674620E-003
+7.919940002193569E-004
+3.756607746009309E-003
+5.318529212153362E-003
-4.199285305687607E-004
+7.886728305008894E-003
-3.004827821359213E-003
-1.945061231321953E-003
-6.887456816053490E-003
-5.472784575498294E-003
+6.520268081375755E-004
-8.130364526015996E-003
-9.383715325488961E-003
+1.575802701623793E-003
-2.440961725122241E-003
+2.360278447818295E-003
+2.032682491821118E-004
+2.454911921223043E-003
-3.226094495552742E-004
+2.768841340561191E-003
-3.663809717679436E-003
+6.601646472282612E-004
-3.340162385610796E-003
+1.022243193989369E-003
+7.014979402609116E-004
+1.571952839720891E-003
-1.315235137268359E-003
-1.196387092105164E-002
+2.131911766796105E-003
-7.187149217745970E-004
+1.536873316045500E-003
+1.075442911236894E-003
+1.326433093869130E-003
+2.229129106733872E-004
-5.136645644092473E-004
-1.263173420374913E-003
-1.461079596593068E-003
-5.189051296368652E-004
-4.126134866226700E-004
-1.081860828458196E-003
-9.104769678472624E-004
-4.833497539901909E-004
-1.382118246956775E-004
+1.258721701388843E-003
+8.677425578302811E-004
+8.578106163523805E-004
+1.211592990013145E-004
-3.105361872855000E-004
-3.145720110267329E-004
-7.312631484539405E-005
+9.934200302458880E-005
-1.601052656548177E-003
-1.979555703129419E-003
-1.741406184307996E-003
+1.123158753319505E-004
+1.300857569640546E-004
+1.212940586628638E-003
-5.168614220989829E-004
-5.058143201271653E-004
-1.031654464296660E-003
-6.736517772644580E-004
-5.360092259922003E-004
-1.328691400856430E-003
-1.991417511131073E-003
-2.349299419482284E-003
-1.744448768995020E-003
-1.792690687728719E-003
-1.403728098964280E-003
-6.697553694954678E-004
-2.895959797376153E-004
-9.078960023519279E-004
+1.021831424406950E-003
+5.228453643774576E-004
+1.435625627672136E-003
-5.685037973915993E-004
-6.347754059902154E-004
-2.086756386064213E-003
-2.072739930985496E-003
-1.531109073076223E-003
+5.178766341532643E-004
+1.341470291676331E-004
+1.741602994786460E-003
+1.216741660368438E-003
+2.001434639458712E-003
+2.716210085109553E-003
+2.767352058722260E-003
+9.960526678685863E-004
+1.056954242543078E-003
-3.249403417250446E-004
-3.589911027485120E-004
+8.765418638782218E-004
+2.023274422080189E-003
+2.026022626363562E-003
+1.263111536925524E-003
+1.631482244031221E-003
-2.898843804652634E-004
+1.561570834157407E-003
+5.563414900283986E-004
+1.800486213927888E-003
-1.963634651498173E-004
+1.037222900460065E-004
+5.380067342585121E-004
# step        1
-1.091721185742283E-003
-7.241577278083408E-004
-1.215966845783834E-003
+5.562732133649468E-004
+3.251864272277421E-004
+1.926666852877957E-003
+2.096273737490147E-003
+1.122142171773538E-003
+8.959849444003300E-004
+2.642685478433182E-004
+1.095070872097626E-004
-1.318825364820081E-004
+3.673690118785737E-004
+6.118455195847118E-004
+7.879884039619797E-004
+1.401668562248307E-003
+1.547774525958066E-003
+7.057505559474229E-005
+3.905768931016768E-004
-5.274465238952937E-004
-3.483018500028338E-004
+1.036720640532017E-003
+7.483134282732595E-004
+1.530438155301579E-003
+1.412408949518094E-003
+1.017996327003295E-003
+8.017725680079213E-004
+1.070133297169127E-003
+6.913016012340299E-004
-6.823048570092395E-005
-7.698727115608028E-004
+3.629872104013015E-004
+1.550721963714497E-003
+3.403067857994390E-003
+2.684599041413647E-003
+2.743058894542202E-003
+1.434639310103007E-003
-2.324531393398890E-004
+6.779200104180355E-004
-9.701317879620350E-005
+9.416896087374651E-004
-9.844724141039808E-004
-7.210634809826066E-004
-1.144852393922606E-003
+1.757226697301004E-003
+1.737917588865883E-003
+3.405972277135600E-003
+1.870422577432159E-003
+3.241039016960778E-005
-1.326581311646874E-003
-1.901908614025904E-003
-2.291055285031492E-003
-1.379266472284235E-003
-2.498025949914362E-003
-3.100707150102394E-003
-3.203461833835817E-003
-1.062218858749209E-003
-1.877193647707642E-003
+3.155897802253716E-004
-5.224751607996254E-004
-6.219286568200204E-004
-9.992159924943234E-004
-1.611114147890858E-003
-1.680851604810863E-003
-1.698251595777759E-003
+2.004580301568351E-004
-1.781562540376450E-003
+6.786801685717970E-005
-2.556539366212870E-003
-9.114575257307702E-004
-1.462382228308848E-003
-5.546262570369270E-004
-2.664824584217356E-003
+3.162873813977347E-004
+9.944398209374705E-004
-2.532895215582318E-003
-8.017575847395119E-004
-4.528345118884808E-003
-6.589844028036962E-003
+5.530367470297672E-004
-6.726319709315476E-004
-4.286832485139443E-003
-1.295358675230002E-003
+2.633964612183013E-003
+2.868643970992022E-003
-1.897653067814321E-003
-1.460006600268772E-003
+1.358419824640186E-003
+3.272723593440306E-003
+1.794372731601465E-003
-7.553359029570808E-004
+3.631381552685722E-004
+6.836380258583535E-003
+4.502500793895727E-003
-7.023933414906754E-003
-7.401526264254442E-003
-9.271943628942608E-004
+2.542338543840463E-003
-1.368906040815905E-003
+1.258383579575888E-003
-4.519169726137788E-003
-2.926450692011140E-003
+2.078013214174630E-003
-4.288577223806737E-003
-3.597768691302816E-003
-4.391847068794072E-003
+6.319386595947623E-003
-1.330152724674780E-003
-2.803559038354283E-003
-1.948373664526787E-003
-1.447546299284859E-004
-1.226593958473881E-003
-1.216909443795219E-003
-4.925116351180875E-004
+6.921442002375857E-004
+1.670731640702338E-003
-3.816566456690809E-003
-9.268141612523683E-004
-2.397061346680885E-003
-7.277623259951813E-003
-1.104341393173818E-002
-1.755726317712067E-003
+4.954464567000974E-003
-4.263402457475536E-004
+2.415814781946154E-003
-4.909155420392917E-003
+3.934359573582043E-003
+7.940433844205321E-004
-2.480489620228814E-003
-2.580751219786494E-004
+5.193003921896436E-003
+7.156304593538448E-003
+1.745798732465453E-003
+4.440487263535563E-003
+1.354576892029042E-003
-3.668944955499706E-005
+9.444224425850960E-003
-1.362708525538588E-003
-9.852212666165415E-003
+5.464677816087689E-003
+8.514163642935162E-003
-6.241642434325317E-005
-1.711621617725930E-003
-3.412292562266799E-003
+5.432553779093589E-002
-7.035655172965455E-003
-7.153450368214022E-003
-2.699776179216464E-002
-2.892851342679829E-002
-4.869131956758432E-002
-6.176637795569127E-002
-1.248676930432186E-002
-4.515563725243801E-002
-4.011940850366132E-003
-3.329171435981319E-002
+5.193309904824419E-004
-3.645826377074540E-002
+2.824411346006978E-002
-9.366423730375981E-003
+5.833902309889850E-002
+6.340625508875569E-002
-1.257796800335281E-002
-3.971774315045171E-002
-1.006163590278203E-002
+3.776992415631784E-002
-2.674443603491626E-002
-7.939941904043825E-002
-2.920643717555731E-002
-7.328255881164446E-003
-8.142031778873394E-003
+2.491012966199439E-002
-3.516597633046669E-002
-3.964844677391435E-002
-5.811906883204936E-002
-1.702527734503249E-002
+8.470324946696957E-003
-8.044039914064437E-002
-1.890459360151044E-002
-2.627370758266637E-002
-2.949990135340827E-002
-3.197217350243355E-002
-2.642477492784340E-002
-2.759639786736252E-002
+4.740758814422088E-003
-3.575097260122369E-002
-1.079387879843315E-002
+4.645524723860791E-003
+3.501414626364212E-002
-2.809840156564526E-002
-3.866599614940312E-003
-5.338936321455957E-002
-6.719673152952335E-002
-9.167633269846001E-002
-1.749716716359135E-002
+1.676791033241220E-004
+4.580444079364190E-002
-1.710708852576926E-002
-9.224739980337269E-003
+8.916657020677945E-003
+4.262488860627729E-002
-1.182887438837524E-002
-3.922065867946199E-002
+5.608190549295434E-002
-4.605429516164460E-003
-2.145495825693516E-002
+5.740601295221677E-002
+1.086632338737812E-002
+2.487733348367315E-002
+2.276699438434496E-002
+5.364598294931327E-003
-8.082991913572625E-003
-1.375478736729062E-002
+3.088019314517733E-002
-3.165338620950579E-002
-2.071464766227386E-002
-1.238227996234469E-002
-6.483390861200304E-002
-5.056364476869530E-002
-2.728157540387365E-002
+2.551295240351928E-002
+1.429179944838158E-002
+9.234584106680607E-002
+6.974921527589183E-002
+5.738744457568212E-002
+5.935361762111802E-002
+1.535980643083454E-002
+2.161223723472416E-002
-5.355680937213642E-002
+2.632600313028978E-002
-1.801159538414668E-002
+4.334027368315305E-002
+4.369568741721575E-002
+3.164348222190076E-002
-9.847026612169168E-003
-1.848032484196004E-002
-9.570586444655244E-003
-5.608834541031450E-002
-5.372816838721447E-003
-1.199955228185920E-002
+5.528826833137344E-002
-1.480469770471864E-002
-4.892960273862625E-003
-2.626961157443456E-002
-1.970329931467213E-002
-2.848124908536788E-002
-2.440894393903342E-002
-2.775984450009483E-002
+1.352706407217474E-002
+4.469125894492199E-002
+7.696242913005236E-002
+5.369730508478455E-002
+1.900962762695404E-002
+3.320921500174300E-003
-1.462554653583657E-002
-1.163750527563893E-002
+8.353540809524621E-003
+5.377434373298026E-002
-3.142806892328489E-002
-8.078518666520013E-003
-2.920650076132341E-002
+4.155014525932151E-002
+2.044726523093986E-002
+8.001671351440286E-002
+3.381026426758488E-002
+6.095216745432267E-003
-2.800187749743241E-002
-5.330768982978812E-002
-6.675768633259103E-002
-3.037594233764415E-002
-1.928212989320981E-002
-1.270139413889903E-001
-9.362405418016975E-002
+6.679651407705339E-002
-9.928549107820805E-002
+1.754322559647440E-002
+1.168731019641242E-002
-1.434442186504935E-002
+3.643016449902770E-002
-1.628894861089923E-002
-2.564218781576268E-002
-3.424469984209118E-002
+4.598340387896883E-002
-1.695385792479366E-002
+1.777695116385493E-002
-1.036499527088975E-001
-7.775573555329930E-003
-4.799788132763622E-002
-3.132820180134659E-002
-9.910608106833208E-004
-2.981588426588065E-003
+5.481396735390454E-003
-5.835122250001778E-003
-2.154091609535557E-003
+7.834836402947123E-003
+9.320852586828687E-003
+2.146285968840090E-003
+3.118129863267949E-003
+3.874992683224701E-003
+1.505796593681386E-003
-1.570227662571189E-003
+2.786351551825536E-003
-3.659170288888195E-003
-3.138833267538073E-003
+9.976344837360951E-003
+7.645864132639657E-003
-3.727070192077697E-003
-2.581762828661759E-003
-3.100515143939058E-003
+5.381012541247050E-003
-4.807745497849502E-004
-3.284652356750462E-003
+3.646963613779053E-003
-5.072028815816899E-003
+1.593133931736049E-003
+2.724584085704770E-003
-1.436536699984130E-003
+3.372487116917835E-004
-3.168654577617878E-003
-1.739071067491681E-003
-7.564898000525642E-004
-2.009997997803039E-003
+2.990598841643978E-003
+4.967815115157080E-003
-3.375860161366360E-003
+1.826915739451919E-003
+2.961450445106073E-004
-5.014393814052751E-003
+3.117708259817388E-003
+4.629120344477103E-003
+1.696492699843192E-003
-6.399290317324931E-003
+7.345413224677026E-004
+3.728916215149948E-003
+5.323829613002879E-003
-3.111954773519165E-004
+7.859656205439252E-003
-3.010614100011825E-003
-1.946820743645247E-003
-6.918796848831367E-003
-5.472652209010542E-003
+6.931399646134638E-004
-8.170556488365881E-003
-9.519500774033100E-003
+1.614579588828480E-003
-2.486679469055934E-003
+2.233469539900142E-003
+2.225546977145920E-004
+2.502950125869622E-003
-3.558068631215896E-004
+2.756160684983911E-003
-3.675352988797252E-003
+6.799340047188800E-004
-3.335873077506124E-003
+9.789228673813568E-004
+7.440315358842699E-004
+1.615116659560299E-003
-1.317616033924087E-003
-1.201509094798031E-002
+2.107821859589796E-003
-7.514273378701653E-004
+1.563515192866834E-003
+1.080157776007196E-003
+1.309417566106515E-003
+2.003420785190980E-004
-5.469201843960332E-004
-1.282698556178535E-003
-1.492918019614516E-003
-5.315832544594964E-004
-4.223186894985704E-004
-1.076410070427401E-003
-8.838114112287054E-004
-4.558984945263430E-004
-1.189514684616768E-004
+1.275354123253015E-003
+8.718029050420343E-004
+8.742953362966403E-004
+1.205468159568415E-004
-3.036490551586197E-004
-3.192872289197363E-004
-8.359674972392401E-005
+9.029646429378344E-005
-1.607793993984885E-003
-1.966846088272234E-003
-1.724076741195513E-003
+1.242054666116761E-004
+1.633878615256886E-004
+1.242530497972088E-003
-5.135428598913636E-004
-5.025917519236688E-004
-1.063351631422989E-003
-6.804529310302467E-004
-5.316219936520136E-004
-1.334293928806110E-003
-1.981445673042998E-003
-2.351144718128785E-003
-1.724345453436176E-003
-1.747619979020365E-003
-1.385882155015823E-003
-6.535261011370602E-004
-3.169416907449298E-004
-9.506128923053474E-004
+9.793135595757988E-004
+4.995460866360887E-004
+1.448234126134934E-003
-5.621119677862179E-004
-6.190154411815646E-004
-2.052512773752479E-003
-2.026576130047945E-003
-1.513850062636481E-003
+5.057774699371762E-004
+1.173506579271363E-004
+1.724320411996805E-003
+1.189345463834010E-003
+1.999250170783069E-003
+2.711760501163148E-003
+2.745685678514514E-003
+9.845367850983397E-004
+1.042018105730103E-003
-3.119701927413330E-004
-3.426462410184667E-004
+8.981008050994176E-004
+2.031417990708593E-003
+2.017499755446351E-003
+1.243833229786251E-003
+1.620521007639179E-003
-3.175662204283477E-004
+1.538598234048935E-003
+5.241926114795733E-004
+1.775829249860426E-003
-1.955641120378793E-004
+1.117689734396409E-004
+5.736160616982579E-004
# step        2
-1.109599559491337E-003
-7.429271403239541E-004
-1.206783070815230E-003
+5.760402791372023E-004
+3.742354806859121E-004
+1.963306928095968E-003
+2.136319344711547E-003
+1.163103878143033E-003
+9.230865602349965E-004
+2.823919153376718E-004
+1.117779538731661E-004
-1.416715388620535E-004
+3.497052483422972E-004
+6.084584504399389E-004
+7.852164746685539E-004
+1.405054680883163E-003
+1.566413068126046E-003
+9.216444014023503E-005
+4.264718897428829E-004
-4.923226138354573E-004
-3.194926383656743E-004
+1.003544985758205E-003
+7.220805463821077E-004
+1.483189385935276E-003
+1.394411855607885E-003
+1.013785464044621E-003
+7.911658360149601E-004
+1.051559761934152E-003
+6.883823240582715E-004
-8.086914967729529E-005
-7.628272270196783E-004
+3.327875903046193E-004
+1.528876940596194E-003
+3.357402859569230E-003
+2.617322865377320E-003
+2.712852246704806E-003
+1.442930964324735E-003
-2.211260111764777E-004
+6.653054073013356E-004
-9.766590864076488E-005
+9.312467329824345E-004
-9.716609894006788E-004
-7.390713996082536E-004
-1.168722323906420E-003
+1.716669474991770E-003
+1.717708961046826E-003
+3.396766100742409E-003
+1.890064634319548E-003
+4.498423379114358E-005
-1.333413215687706E-003
-1.897075107581253E-003
-2.271953636936587E-003
-1.348125553732905E-003
-2.457244535167134E-003
-3.090811590797923E-003
-3.199211174130049E-003
-1.096077665907508E-003
-1.901758266478355E-003
+3.180411390034035E-004
-5.347585344434488E-004
-6.497100261193059E-004
-1.013809195157259E-003
-1.606291660455184E-003
-1.641916614132709E-003
-1.667026076912636E-003
+2.425365356345092E-004
-1.739177005000053E-003
+1.010307042175254E-004
-2.563843161742844E-003
-9.136732484316623E-004
-1.487070649597153E-003
-5.730225446529654E-004
-2.645045001122515E-003
+2.636335178270924E-004
+9.760643663871675E-004
-2.626207511919541E-003
-8.423084035759535E-004
-4.470103002627540E-003
-6.632970762538777E-003
+5.826813855055512E-004
-6.457333499384800E-004
-4.315604792370533E-003
-1.403518960508137E-003
+2.760926954714452E-003
+2.832422057650781E-003
-1.893560851545495E-003
-1.380028711557480E-003
+1.299166822634945E-003
+3.288499168654709E-003
+1.784874526250735E-003
-7.482882317030535E-004
+3.680184299705606E-004
+6.730729307309171E-003
+4.471722727035032E-003
-6.935598855429476E-003
-7.369278207292732E-003
-8.663096950632204E-004
+2.550006988194591E-003
-1.331421964061090E-003
+1.305145380711341E-003
-4.582564857115895E-003
-2.917152458875985E-003
+2.094029904906133E-003
-4.320715166859025E-003
-3.548297747058363E-003
-4.600958223225362E-003
+6.156111646945068E-003
-1.235672455117493E-003
-2.709597006055188E-003
-1.844988086234529E-003
-1.089649736546634E-004
-1.295397920350086E-003
-1.235691861609364E-003
-5.640473747453150E-004
+6.636629775727933E-004
+1.681534719630446E-003
-3.877506278793579E-003
-8.465029149710929E-004
-2.368731501103959E-003
-7.297949156648423E-003
-1.094561890098511E-002
-1.893050102753915E-003
+4.885107236959864E-003
-4.376987885506599E-004
+2.389551822967416E-003
-4.781310939898933E-003
+4.025844066192360E-003
+7.997620517552201E-004
-2.483890494708628E-003
-3.454379942103056E-004
+5.097104846290426E-003
+7.282168344671680E-003
+1.794907492666777E-003
+4.462650730223964E-003
+1.346897842363702E-003
-1.507853535923831E-005
+9.472900791263741E-003
-1.395713314849500E-003
-1.000538866838782E-002
+5.350245648811120E-003
+8.566487342632207E-003
-4.072322181718150E-005
-1.653425436685999E-003
-3.368289777012138E-003
+5.477467303193120E-002
-7.405195889696240E-003
-6.731537865606025E-003
-2.683705553064911E-002
-3.069590501795221E-002
-4.894054655063545E-002
-6.284047692563188E-002
-1.259099296590757E-002
-4.433959121210367E-002
-5.037862083679741E-003
-3.300654685086908E-002
+5.360774901816731E-004
-3.618328382265854E-002
+2.888097099990715E-002
-9.791921374946057E-003
+5.904100162829724E-002
+6.314723892157727E-002
-1.236371859437272E-002
-3.923995850928241E-002
-1.092077246776476E-002
+3.776415706997868E-002
-2.717740276202640E-002
-7.932286867470681E-002
-2.825209003382356E-002
-7.359262979018313E-003
-7.443418289292840E-003
+2.607944729154297E-002
-3.486076198978958E-002
-3.862213298180520E-002
-5.939940833589120E-002
-1.691575290330140E-002
+9.433604328245429E-003
-8.168654122353156E-002
-2.028842000148808E-002
-2.775515339739038E-002
-3.029286974397152E-002
-3.028672107644692E-002
-2.597565977029103E-002
-2.683162631056332E-002
+3.901829562321517E-003
-3.728088835395126E-002
-1.138949834191839E-002
+3.729224731122636E-003
+3.463709667898859E-002
-2.736579310806475E-002
-3.571799803290949E-003
-5.297788569928740E-002
-6.413324480653938E-002
-9.101566219855588E-002
-1.816535130722726E-002
-7.437571447621926E-004
+4.590203246691670E-002
-1.777675542948002E-002
-8.638772624110884E-003
+1.027437892874413E-002
+4.303404326667001E-002
-1.342738964183346E-002
-4.116541965695343E-002
+5.494135374989043E-002
-4.259647154622278E-003
-1.977660791447808E-002
+5.646069555356165E-002
+1.075330477142773E-002
+2.357804746804323E-002
+2.277328055643025E-002
+5.558102381013542E-003
-9.170240778394709E-003
-1.639358766362478E-002
+3.087408689758956E-002
-3.101039338840396E-002
-2.051348037975061E-002
-1.046660015017419E-002
-6.428208795844986E-002
-5.116412026083915E-002
-2.682564675148961E-002
+2.646125882400585E-002
+1.523532918255022E-002
+9.278378978265282E-002
+7.062285722136592E-002
+5.859290411010905E-002
+6.044628977783878E-002
+1.652984967861962E-002
+2.227588867090551E-002
-5.328994376872896E-002
+2.610409774297075E-002
-1.794266085974449E-002
+4.198979317564613E-002
+4.482698730885743E-002
+3.220057008140313E-002
-9.287000989178170E-003
-1.748634947451469E-002
-7.449776621358483E-003
-5.455385581106185E-002
-5.281814411615993E-003
-1.168802219777060E-002
+5.361921775759963E-002
-1.348269130108125E-002
-4.253835644197929E-003
-2.594902990163776E-002
-2.086054108405658E-002
-2.789256603054885E-002
-2.588070117448250E-002
-2.741129559476335E-002
+1.336078091106013E-002
+4.436760923061875E-002
+7.601615104061593E-002
+5.324367096641375E-002
+1.828389346855601E-002
+4.267970694707489E-003
-1.333183390529887E-002
-1.149094737515416E-002
+7.797324552452424E-003
+5.303240843578900E-002
-3.064878034214614E-002
-9.722778485612720E-003
-3.150596097190484E-002
+4.171956960034933E-002
+2.136126002156672E-002
+8.078256116655859E-002
+3.516238652001339E-002
+6.583946512300369E-003
-2.829059266025498E-002
-5.411307186622447E-002
-6.651029371139629E-002
-3.039693478120609E-002
-2.036888984715825E-002
-1.275460313213178E-001
-9.300923358858848E-002
+6.466278794330685E-002
-1.016132328836433E-001
+1.796474386599854E-002
+1.149453764648084E-002
-1.440359980708648E-002
+3.562777569101894E-002
-1.650366247067990E-002
-2.534393204226408E-002
-3.432773744930388E-002
+4.577797156487106E-002
-1.656155357394654E-002
+1.822594235571202E-002
-1.043331550959716E-001
-8.144302950990211E-003
-4.758131453716805E-002
-3.127650071061280E-002
-1.035139319638612E-003
-3.026951845627244E-003
+5.444725642841259E-003
-5.713234262959731E-003
-2.127639491298907E-003
+7.923057247774676E-003
+9.289021648300064E-003
+2.123357093582274E-003
+3.197041227917959E-003
+3.987641329369590E-003
+1.514634916500482E-003
-1.527309207744795E-003
+2.817622809307472E-003
-3.681766767737738E-003
-3.140946983258818E-003
+9.872267678236939E-003
+7.678200814140775E-003
-3.684543955091045E-003
-2.513200640773588E-003
-2.950668777549301E-003
+5.363860964794010E-003
-5.267694310311075E-004
-3.258409962287583E-003
+3.670010608483248E-003
-4.954867609910399E-003
+1.551576750928998E-003
+2.689796691878557E-003
-1.346373858763303E-003
+3.013694904476616E-004
-3.175495926879945E-003
-1.815420392467029E-003
-6.608627764623400E-004
-2.043442456030234E-003
+2.987544704040757E-003
+4.984820389481208E-003
-3.476231287097591E-003
+1.844264301534618E-003
+3.775134428561394E-004
-4.990110757054687E-003
+3.023478201690925E-003
+4.635525903988671E-003
+1.679658098760625E-003
-6.430358654325184E-003
+6.672154417200656E-004
+3.697091858671866E-003
+5.336339999426862E-003
-2.012060040879962E-004
+7.829336608000658E-003
-3.018088957863490E-003
-1.947752660777535E-003
-6.943957887202161E-003
-5.474722824894901E-003
+7.254618435299662E-004
-8.179261420862402E-003
-9.640200293295254E-003
+1.657343159785625E-003
-2.517679877592702E-003
+2.096758354128593E-003
+2.422788540946203E-004
+2.540799459008406E-003
-3.885821170895997E-004
+2.738701999027568E-003
-3.683288598159013E-003
+7.001373216294899E-004
-3.321226996599038E-003
+9.287129276184572E-004
+7.819980498636827E-004
+1.660439021905340E-003
-1.320845382128530E-003
-1.202119441551400E-002
+2.075705206732844E-003
-7.911403270188787E-004
+1.590790240200673E-003
+1.085156197872672E-003
+1.289531928393998E-003
+1.862735128508062E-004
-5.796707621276696E-004
-1.307855670503121E-003
-1.525327050146045E-003
-5.434035915512359E-004
-4.262662639704053E-004
-1.065101234728742E-003
-8.523896408986922E-004
-4.250022979251947E-004
-9.382848035293813E-005
+1.294654731854208E-003
+8.766040010091086E-004
+8.867622932570402E-004
+1.119895520561981E-004
-3.011688470890808E-004
-3.313452779190824E-004
-9.944189511630473E-005
+8.316952811403771E-005
-1.603558418487306E-003
-1.940673029048168E-003
-1.695662270226170E-003
+1.345252421490138E-004
+1.951430225007206E-004
+1.269430402387184E-003
-5.153092965999452E-004
-5.072870624208249E-004
-1.099293971963359E-003
-6.924819022569968E-004
-5.325376230588826E-004
-1.333462544369147E-003
-1.967423676261607E-003
-2.344821761288077E-003
-1.702872804863832E-003
-1.698532675925721E-003
-1.367803356363863E-003
-6.423742977451359E-004
-3.508156151317087E-004
-1.006385780891893E-003
+9.365699757124787E-004
+4.763207179894812E-004
+1.458092684701107E-003
-5.391798470349631E-004
-5.994086235703934E-004
-2.011717345739682E-003
-1.973840382303949E-003
-1.491416413499657E-003
+4.988710810972202E-004
+9.702904920511052E-005
+1.708003023438223E-003
+1.154703645951036E-003
+1.994207742247647E-003
+2.705886067468484E-003
+2.723965082784675E-003
+9.756308021816428E-004
+1.022100302357229E-003
-2.905992953567047E-004
-3.308241925728219E-004
+9.244896818423665E-004
+2.035683782855470E-003
+2.004197849567243E-003
+1.219556019686274E-003
+1.605242496077208E-003
-3.488094304199702E-004
+1.515065420644215E-003
+4.922006622245666E-004
+1.747199733968578E-003
-1.986677139841998E-004
+1.236742788552706E-004
+6.109585231976065E-004
# step        3
-1.131531316512402E-003
-7.544203993869436E-004
-1.192466404134394E-003
+5.978202605447122E-004
+4.246028454211252E-004
+1.998608033458007E-003
+2.173850535495106E-003
+1.206605999342990E-003
+9.491813076939785E-004
+2.983976626583043E-004
+9.938425487403547E-005
-1.603043681490915E-004
+3.258136299555217E-004
+6.034815200108448E-004
+7.831530846486439E-004
+1.409905730948977E-003
+1.586396324498606E-003
+1.209613524844222E-004
+4.796076324491591E-004
-4.447851492406592E-004
-2.846955158151515E-004
+9.654841544373119E-004
+6.860662730055320E-004
+1.422868517607185E-003
+1.372377512210926E-003
+1.011572488416186E-003
+7.873437696141024E-004
+1.033158661349859E-003
+6.906182573287097E-004
-9.164425052201705E-005
-7.569752608342780E-004
+2.980505418877329E-004
+1.508455206802357E-003
+3.304582288940486E-003
+2.538050017753167E-003
+2.677978631882078E-003
+1.453521655112556E-003
-2.051530330695653E-004
+6.539088184233790E-004
-9.835609200897751E-005
+9.186837178574576E-004
-9.563381575103799E-004
-7.616927960477800E-004
-1.194208905428990E-003
+1.671753484932884E-003
+1.699703269384072E-003
+3.386495382614609E-003
+1.911801469621006E-003
+5.981029330904095E-005
-1.338801345470339E-003
-1.888674899483715E-003
-2.253174930319202E-003
-1.324517243860547E-003
-2.417477769236370E-003
-3.068031156870433E-003
-3.188248747271364E-003
-1.123835107779218E-003
-1.923317759560239E-003
+3.190688429677533E-004
-5.470268753332883E-004
-6.808638039047533E-004
-1.028060007682628E-003
-1.600633672930114E-003
-1.599507894659638E-003
-1.630854865078516E-003
+2.838543563101287E-004
-1.701185069065223E-003
+1.348906531156419E-004
-2.563620398262178E-003
-9.169600235270063E-004
-1.511021909969496E-003
-6.050342460659662E-004
-2.632926869829024E-003
+2.111690797846251E-004
+9.614543194749424E-004
-2.721930839996350E-003
-8.825522277207803E-004
-4.414029127690231E-003
-6.669634672480274E-003
+6.241061466715832E-004
-6.195779361876433E-004
-4.337930006141555E-003
-1.486027981513709E-003
+2.894224590954390E-003
+2.800513583264995E-003
-1.888187397424189E-003
-1.294441112989297E-003
+1.237576858486403E-003
+3.297053918186263E-003
+1.763856402935680E-003
-7.494946130591179E-004
+3.670770757744562E-004
+6.610465353810339E-003
+4.438228352323502E-003
-6.841320612467107E-003
-7.332218200911415E-003
-7.966854769172750E-004
+2.552912821072560E-003
-1.300550324438912E-003
+1.349532762928969E-003
-4.641748140275103E-003
-2.912022048431427E-003
+2.109300275627525E-003
-4.343611040950165E-003
-3.496541322768569E-003
-4.824607420213299E-003
+5.965763957083067E-003
-1.129659422565858E-003
-2.616305594943147E-003
-1.753189878929002E-003
-7.586574587887653E-005
-1.366506079690732E-003
-1.259424775465360E-003
-6.409014894776877E-004
+6.356882952772838E-004
+1.694223687725459E-003
-3.935654643423661E-003
-7.624431287572594E-004
-2.336092206871125E-003
-7.300442816624944E-003
-1.080856546193598E-002
-2.024780786073699E-003
+4.814546996863974E-003
-4.495265670988359E-004
+2.360531744464762E-003
-4.647726407300132E-003
+4.119637373093956E-003
+8.036668573008095E-004
-2.483402914113140E-003
-4.246199003210644E-004
+4.994758904446651E-003
+7.402101972666144E-003
+1.836181622676450E-003
+4.475478410209445E-003
+1.336441939719958E-003
+1.623535304171150E-005
+9.481063846413500E-003
-1.437370418856027E-003
-1.015489962836196E-002
+5.240943704135707E-003
+8.621009131024138E-003
-3.088585760303290E-005
-1.588327722868646E-003
-3.316555474907036E-003
+5.504916828950953E-002
-7.814272859297406E-003
-6.319443264786164E-003
-2.661098719511206E-002
-3.259297188007314E-002
-4.928678312927866E-002
-6.366989926766882E-002
-1.256822148941095E-002
-4.334042188303449E-002
-6.040909008545448E-003
-3.264693643519085E-002
+5.333120451747256E-004
-3.594847923017244E-002
+2.956983085289141E-002
-1.010507123409191E-002
+5.958324494689944E-002
+6.264160443564765E-002
-1.227926043824233E-002
-3.900492398327882E-002
-1.186812964504933E-002
+3.773808845984919E-002
-2.754727237741878E-002
-7.889920057409097E-002
-2.725210523160817E-002
-7.402590523717382E-003
-6.850788527772779E-003
+2.720497628871896E-002
-3.461346056342145E-002
-3.765368785798637E-002
-6.075870045391702E-002
-1.687530495318978E-002
+1.043817872822096E-002
-8.275387101218064E-002
-2.175037391569180E-002
-2.923761397361661E-002
-3.095269616974016E-002
-2.849972456679487E-002
-2.556737201381580E-002
-2.619123583627843E-002
+2.945276779989759E-003
-3.889469431414061E-002
-1.215249662909447E-002
+2.743611748764212E-003
+3.427671740209602E-002
-2.653424444438982E-002
-3.195407003784918E-003
-5.255153122138119E-002
-6.097500087424271E-002
-9.001134634245919E-002
-1.871238495514928E-002
-1.682094340983832E-003
+4.591578039713940E-002
-1.861698328999837E-002
-7.770717135500197E-003
+1.168097553206882E-002
+4.350853354430433E-002
-1.494838074771081E-002
-4.315521321690111E-002
+5.379031585168544E-002
-3.839670448849687E-003
-1.811453889103236E-002
+5.536994029597482E-002
+1.054805421451049E-002
+2.211326239049975E-002
+2.263775679016946E-002
+5.526030649523505E-003
-1.008273431667959E-002
-1.895022508992352E-002
+3.072684064416285E-002
-3.042275981986590E-002
-2.046371123843337E-002
-8.490381257286905E-003
-6.368870679164049E-002
-5.149738928542641E-002
-2.620648875737779E-002
+2.739475175161023E-002
+1.608541860822063E-002
+9.292308018948509E-002
+7.137629918392829E-002
+5.983105006690565E-002
+6.145241039316709E-002
+1.777029872017571E-002
+2.278124005859231E-002
-5.282463658567075E-002
+2.582612138584809E-002
-1.789341546908279E-002
+4.065895952206106E-002
+4.593673584122753E-002
+3.270712466284230E-002
-8.557462823382657E-003
-1.647340856199892E-002
-5.233653846737412E-003
-5.272345838804156E-002
-5.112406201748531E-003
-1.137092523288350E-002
+5.151598289140897E-002
-1.194033674287801E-002
-3.485970016162221E-003
-2.552048105100854E-002
-2.215759452591387E-002
-2.706115219915956E-002
-2.744707308386917E-002
-2.702348369709852E-002
+1.301263695953035E-002
+4.392196317942448E-002
+7.490963592996132E-002
+5.248112298160811E-002
+1.766255795079565E-002
+5.342007711482524E-003
-1.195995106444764E-002
-1.140334587297648E-002
+7.201602978798057E-003
+5.221050720136910E-002
-2.993512492392629E-002
-1.169564513659032E-002
-3.385965381983064E-002
+4.174224012073892E-002
+2.239165552181483E-002
+8.159077563134605E-002
+3.651868592316837E-002
+7.113311910573375E-003
-2.852372713049252E-002
-5.474951202089393E-002
-6.627294353762248E-002
-3.053402881421192E-002
-2.142444982352168E-002
-1.276629581083442E-001
-9.226876819532162E-002
+6.247599362576542E-002
-1.034130292768484E-001
+1.835971297660533E-002
+1.118420511778277E-002
-1.457273071313268E-002
+3.481373306443038E-002
-1.679018164105264E-002
-2.484802714589683E-002
-3.451906430494146E-002
+4.552731795769238E-002
-1.618640457145050E-002
+1.864324704760072E-002
-1.046482403006727E-001
-8.707445143667567E-003
-4.703614829348147E-002
-3.141978714748370E-002
-1.082734547340267E-003
-3.059979404589933E-003
+5.409190556371842E-003
-5.578604593293737E-003
-2.105260106854722E-003
+7.995709560489121E-003
+9.240865858687530E-003
+2.098342579022736E-003
+3.285732090631429E-003
+4.085208901749375E-003
+1.533299919835300E-003
-1.496104377524324E-003
+2.842358698406169E-003
-3.702279525518390E-003
-3.134768187918937E-003
+9.758090422085594E-003
+7.711635165448114E-003
-3.630012628750223E-003
-2.435777932975654E-003
-2.801531560074662E-003
+5.355622895995123E-003
-5.693079907574935E-004
-3.246395737352029E-003
+3.689131272660239E-003
-4.821390132153222E-003
+1.516417053262605E-003
+2.647947272816819E-003
-1.251016821165147E-003
+2.847614475173177E-004
-3.168202466570733E-003
-1.905385805239533E-003
-5.665909595726751E-004
-2.087019026375029E-003
+2.975000894087817E-003
+4.992607428509108E-003
-3.583429270233108E-003
+1.859705966611350E-003
+4.602705749942934E-004
-4.962069950884863E-003
+2.923606055151468E-003
+4.628031309743324E-003
+1.654381637038288E-003
-6.458057701636733E-003
+5.883481685450338E-004
+3.659780357594711E-003
+5.351992796393722E-003
-8.907340540149351E-005
+7.796247149966741E-003
-3.027244893684610E-003
-1.934760203512086E-003
-6.961098882083035E-003
-5.469011572720045E-003
+7.515241162127822E-004
-8.175609716854540E-003
-9.742761395056851E-003
+1.704209621376036E-003
-2.543168332788895E-003
+1.953519025072898E-003
+2.647417166369288E-004
+2.575516811534537E-003
-4.189948959659969E-004
+2.717604844615317E-003
-3.689385622082729E-003
+7.215956692646232E-004
-3.290142486523913E-003
+8.716722148510829E-004
+8.164138058784181E-004
+1.708275246854319E-003
-1.325279821024327E-003
-1.198067699886810E-002
+2.037770534009115E-003
-8.409645381458015E-004
+1.618239294163565E-003
+1.090030009711540E-003
+1.267508428754323E-003
+1.665704805337834E-004
-6.217800975427875E-004
-1.332881984285618E-003
-1.558577694561957E-003
-5.559211148795611E-004
-4.263756684878777E-004
-1.043988138646768E-003
-8.120444600477580E-004
-3.814593831575067E-004
-6.512602266430336E-005
+1.315920135386185E-003
+8.841501411054124E-004
+8.971517470967357E-004
+9.818670613955027E-005
-3.135886883414588E-004
-3.516009949233776E-004
-1.189750435565478E-004
+7.870630628908268E-005
-1.597016451745258E-003
-1.902281120457538E-003
-1.658424769021945E-003
+1.530972478029329E-004
+2.249252904848974E-004
+1.294120577184450E-003
-5.216379767811719E-004
-5.177640257624719E-004
-1.139958554607251E-003
-7.101324300221755E-004
-5.273249532742621E-004
-1.335773565708875E-003
-1.947529018035173E-003
-2.330130210582454E-003
-1.670141685501899E-003
-1.646365869174855E-003
-1.349011787813860E-003
-6.348626753391759E-004
-3.897279547963560E-004
-1.067309263874283E-003
+8.843050400285553E-004
+4.508907565387685E-004
+1.470041406472218E-003
-5.115709394432861E-004
-5.739607016925451E-004
-1.964562860338510E-003
-1.914259688936443E-003
-1.464704263053462E-003
+4.922962789631679E-004
+7.445412886662336E-005
+1.682458598599008E-003
+1.116737537212438E-003
+1.988369510399141E-003
+2.699359905231363E-003
+2.703099924620974E-003
+9.702981917682412E-004
+1.000159663713887E-003
-2.715257857309253E-004
-3.093941470818110E-004
+9.463818981327326E-004
+2.036943699896701E-003
+1.987799098141161E-003
+1.191371465739239E-003
+1.580972996490001E-003
-3.825805785674356E-004
+1.491312127926042E-003
+4.606971759423225E-004
+1.715733353323371E-003
-1.998171914159685E-004
+1.295288998030077E-004
+6.467694470925647E-004
# step        4
-1.155954374130411E-003
-7.636138313481483E-004
-1.172239225246228E-003
+6.222338706164491E-004
+4.764708949775244E-004
+2.033946291362485E-003
+2.209036887560953E-003
+1.254420822006367E-003
+9.743333908443985E-004
+3.132715159406442E-004
+8.474989072208506E-005
-1.858016040890743E-004
+2.971840812141546E-004
+5.946556331387023E-004
+7.812590190686608E-004
+1.415644922364692E-003
+1.602416160621306E-003
+1.559699393295656E-004
+5.403155827372789E-004
-3.940545970535858E-004
-2.422223826143661E-004
+9.255164932784364E-004
+6.433363944470839E-004
+1.354262552641809E-003
+1.347526924161329E-003
+1.008354026448282E-003
+7.803732044637894E-004
+1.011966238937523E-003
+6.958521001568064E-004
-1.019835050109267E-004
-7.403417440955037E-004
+2.608550778191119E-004
+1.481465720111836E-003
+3.247021751515218E-003
+2.451999267413625E-003
+2.636202201657149E-003
+1.467118464572412E-003
-1.850045416427081E-004
+6.408187156081467E-004
-1.011397715532992E-004
+9.025387217927785E-004
-9.432332964590242E-004
-7.868575603163247E-004
-1.220215933408185E-003
+1.622178380072196E-003
+1.686871473823857E-003
+3.375244314245928E-003
+1.935813971758560E-003
+7.704190460304659E-005
-1.342034897843359E-003
-1.876057475985361E-003
-2.234087216195280E-003
-1.297424916746153E-003
-2.379269153193692E-003
-3.042266571533306E-003
-3.170952673894284E-003
-1.147836243852220E-003
-1.938248876279127E-003
+3.161588917307314E-004
-5.600064958319365E-004
-7.154825602121946E-004
-1.041254780539411E-003
-1.593079721931031E-003
-1.552755835102679E-003
-1.594859709101775E-003
+3.240072340590068E-004
-1.656920763275849E-003
+1.685424440630016E-004
-2.556773653747354E-003
-9.222819916248405E-004
-1.536196285949760E-003
-6.451146086857454E-004
-2.626784605845237E-003
+1.555383728510665E-004
+9.527941443191115E-004
-2.819535528963701E-003
-9.211170155059353E-004
-4.361199521888367E-003
-6.701930042311672E-003
+6.747464310849188E-004
-5.935918187753354E-004
-4.360536158344269E-003
-1.559625938831304E-003
+3.022363350125023E-003
+2.767095175630101E-003
-1.880167599382059E-003
-1.202809520805897E-003
+1.169515490714590E-003
+3.297243009745764E-003
+1.737669611112428E-003
-7.539058352563719E-004
+3.554282316242167E-004
+6.489628751162432E-003
+4.403077478655869E-003
-6.740780482702683E-003
-7.290556804240364E-003
-7.178871973450692E-004
+2.561859136637037E-003
-1.271633994611671E-003
+1.390469707544056E-003
-4.694011830537274E-003
-2.902872923416762E-003
+2.120625803739854E-003
-4.358964207562803E-003
-3.443862679534011E-003
-5.061223174961201E-003
+5.763752705978550E-003
-1.022040979691665E-003
-2.522875160528411E-003
-1.673720300817958E-003
-4.494955997197698E-005
-1.430653011921675E-003
-1.289475860144892E-003
-7.238940928442322E-004
+6.041592785273950E-004
+1.706740679453556E-003
-3.986187914096154E-003
-6.756531217419292E-004
-2.298810518896691E-003
-7.289263482682194E-003
-1.063449759754991E-002
-2.155135492405749E-003
+4.739942245597546E-003
-4.669119692288203E-004
+2.330800004140182E-003
-4.506325088893014E-003
+4.215631821513855E-003
+8.062902404529124E-004
-2.479984687888250E-003
-4.912192257606931E-004
+4.891289115102056E-003
+7.516664422869779E-003
+1.864453157771976E-003
+4.478778658582585E-003
+1.324711037664878E-003
+4.716732378951995E-005
+9.469700364310996E-003
-1.487511186092224E-003
-1.030021011337452E-002
+5.138617838621767E-003
+8.677075784325236E-003
-3.458586779975874E-005
-1.518416009379022E-003
-3.258431271732814E-003
+5.515244865915379E-002
-8.271498152250350E-003
-5.938286526867873E-003
-2.632561701018399E-002
-3.460944132820541E-002
-4.974306484092072E-002
-6.425015545293437E-002
-1.243695550357096E-002
-4.216372563744420E-002
-7.002020265003020E-003
-3.223522156162850E-002
+5.276148271389233E-004
-3.575427703124045E-002
+3.030400822308962E-002
-1.030698282526000E-002
+5.997115185096827E-002
+6.189469128870540E-002
-1.232539850614017E-002
-3.902214541931064E-002
-1.290138140906695E-002
+3.768013053229480E-002
-2.784675105629880E-002
-7.810702617580671E-002
-2.619791508856579E-002
-7.441311401944832E-003
-6.379361836326587E-003
+2.828486307177362E-002
-3.442650767971197E-002
-3.673216535852199E-002
-6.219553252127900E-002
-1.690504210804615E-002
+1.150183434271626E-002
-8.363283072428465E-002
-2.331165454367228E-002
-3.070969650215749E-002
-3.144986158250805E-002
-2.662180928697292E-002
-2.519667823062309E-002
-2.568289733704140E-002
+1.872684050818283E-003
-4.057994040340215E-002
-1.307301041063978E-002
+1.690008249496418E-003
+3.392741853461664E-002
-2.560707331029519E-002
-2.750521043906637E-003
-5.210943114120560E-002
-5.773831762858343E-002
-8.866330218838613E-002
-1.913585823408465E-002
-2.655483098079404E-003
+4.584567512493432E-002
-1.960955053206535E-002
-6.655818875991471E-003
+1.312571886753534E-002
+4.404504513257160E-002
-1.639667541707034E-002
-4.517033493272690E-002
+5.262360418856296E-002
-3.359016726770057E-003
-1.647549811053671E-002
+5.414611014567075E-002
+1.025181468079906E-002
+2.048434610715704E-002
+2.235719974572840E-002
+5.265837258213197E-003
-1.081029108612586E-002
-2.138210607948394E-002
+3.044308544970168E-002
-2.988860371158812E-002
-2.054619006019696E-002
-6.469302237039048E-003
-6.305757191919749E-002
-5.157348233197990E-002
-2.543293658940021E-002
+2.831947531941836E-002
+1.684467469541043E-002
+9.277834975153121E-002
+7.202155973969743E-002
+6.109511248733094E-002
+6.237112454907059E-002
+1.907628798493573E-002
+2.314302572038803E-002
-5.216937384131966E-002
+2.547367019710079E-002
-1.794499787987183E-002
+3.933582242743157E-002
+4.700404407999987E-002
+3.315970968262320E-002
-7.648951817952017E-003
-1.545041216097805E-002
-2.907175749904140E-003
-5.060433801934300E-002
-4.855168552840988E-003
-1.103915911913238E-002
+4.910295389331033E-002
-1.023619040537467E-002
-2.663628039726199E-003
-2.505212508441257E-002
-2.360467502749813E-002
-2.599913185170476E-002
-2.910253600926455E-002
-2.658396866212027E-002
+1.254133544404379E-002
+4.341673332641046E-002
+7.364581331483519E-002
+5.148422061807552E-002
+1.722354812576959E-002
+6.522314823002102E-003
-1.051744387694373E-002
-1.138546954666171E-002
+6.562966723262243E-003
+5.131422431991920E-002
-2.929318487399158E-002
-1.399142067916987E-002
-3.625800781110974E-002
+4.156754530154345E-002
+2.348153103349835E-002
+8.241479776532942E-002
+3.786906323582055E-002
+7.674777129690404E-003
-2.870654064250117E-002
-5.520314532464878E-002
-6.605647142257570E-002
-3.078904205745569E-002
-2.243915287044869E-002
-1.273341473822526E-001
-9.141321683035714E-002
+6.024408451032889E-002
-1.046491198758451E-001
+1.873304494533840E-002
+1.074474858897570E-002
-1.485108801152987E-002
+3.398830108593293E-002
-1.715971059504404E-002
-2.416690771072632E-002
-3.482175252174080E-002
+4.524839366170716E-002
-1.582777050384115E-002
+1.902597117687703E-002
-1.045907076026855E-001
-9.456567337251027E-003
-4.636799287508457E-002
-3.175477282525063E-002
-1.132045725315199E-003
-3.080797116199980E-003
+5.374741789420427E-003
-5.433760645384109E-003
-2.087276012423545E-003
+8.051995687055591E-003
+9.173129685522512E-003
+2.070773285093256E-003
+3.376856752617630E-003
+4.165570238839512E-003
+1.558639410162614E-003
-1.467787499304883E-003
+2.861939605642126E-003
-3.725451072785798E-003
-3.122834221374696E-003
+9.644862192511339E-003
+7.743821490544887E-003
-3.575530783509315E-003
-2.340989814972226E-003
-2.654340520015208E-003
+5.358179913549542E-003
-5.989503799320058E-004
-3.243103829016725E-003
+3.699973532764645E-003
-4.671426237563140E-003
+1.478894456683879E-003
+2.600904477865788E-003
-1.152459260595852E-003
+2.867028792390001E-004
-3.149204906659621E-003
-2.012674000158838E-003
-4.742750146440384E-004
-2.137069565204788E-003
+2.951357911165884E-003
+5.002560752228899E-003
-3.685839562772125E-003
+1.867949088079900E-003
+5.470050150615610E-004
-4.911066346882651E-003
+2.813980890614210E-003
+4.609842540968420E-003
+1.620365379634166E-003
-6.487565424190204E-003
+5.021468385762310E-004
+3.620436371253416E-003
+5.363876849845842E-003
+2.258528800352157E-005
+7.755264977110273E-003
-3.037886371799305E-003
-1.914746673366939E-003
-6.974320974161167E-003
-5.469553428674832E-003
+7.694762105296349E-004
-8.148531596789486E-003
-9.825174862482406E-003
+1.755430662332129E-003
-2.557841887877313E-003
+1.800415744772958E-003
+2.868977996811659E-004
+2.606371595150328E-003
-4.503890027081065E-004
+2.693579304778219E-003
-3.692916938416587E-003
+7.429921025286958E-004
-3.239176816489123E-003
+8.129375147196144E-004
+8.465691644013138E-004
+1.757923567223573E-003
-1.332317051891267E-003
-1.189599566045839E-002
+1.989790024678832E-003
-8.910156793552331E-004
+1.649228912923378E-003
+1.095257063205235E-003
+1.243145580279878E-003
+1.401822963247335E-004
-6.625993440033824E-004
-1.368355090267249E-003
-1.592270391886136E-003
-5.691849930324126E-004
-4.234234307476426E-004
-1.014797188940879E-003
-7.657831459982513E-004
-3.320646275410560E-004
-3.146695400315048E-005
+1.340193068984650E-003
+8.888924304196310E-004
+9.046899320215062E-004
+7.902647965564277E-005
-3.306914762569128E-004
-3.800311058351114E-004
-1.451442103969469E-004
+7.983245694614540E-005
-1.580526796151196E-003
-1.853557815920410E-003
-1.612284265554347E-003
+1.753543628210129E-004
+2.519714301917978E-004
+1.321279639866723E-003
-5.283657425820920E-004
-5.354306940988930E-004
-1.185561947893705E-003
-7.349168881250021E-004
-5.219530203757831E-004
-1.337616933906322E-003
-1.923537563342274E-003
-2.309042015447005E-003
-1.631345801032626E-003
-1.590222132183834E-003
-1.330940288457567E-003
-6.343209842131590E-004
-4.358166726129239E-004
-1.135016919990935E-003
+8.265206749826935E-004
+4.238464963802389E-004
+1.483677893608507E-003
-4.799482019941248E-004
-5.441780161897368E-004
-1.911466697751887E-003
-1.847547891873553E-003
-1.432737804862633E-003
+4.863895517659645E-004
+4.866961003467055E-005
+1.657946686177144E-003
+1.078648452371104E-003
+1.978625108997307E-003
+2.690986065198458E-003
+2.682519944124842E-003
+9.670950722803457E-004
+9.743266366333603E-004
-2.497717355052825E-004
-2.860645332201904E-004
+9.671675188648582E-004
+2.033853698214504E-003
+1.967633356790764E-003
+1.156781198353369E-003
+1.555929618765941E-003
-4.218031449614237E-004
+1.466340343226947E-003
+4.291848110907778E-004
+1.680314277270904E-003
-1.950402572924947E-004
+1.321563118955518E-004
+6.877234644292663E-004
# step        5
-1.183579201489018E-003
-7.722485325016604E-004
-1.147174495242907E-003
+6.476627014355161E-004
+5.304564632813854E-004
+2.070717209149815E-003
+2.242985135759969E-003
+1.306506825895376E-003
+9.983733149043789E-004
+3.266024495450894E-004
+6.181317947372356E-005
-2.195869837153603E-004
+2.674457166483619E-004
+5.804440054844692E-004
+7.773583634280473E-004
+1.420211211855239E-003
+1.619814086171356E-003
+1.992853481910999E-004
+6.037207767510798E-004
-3.329220100861573E-004
-1.917403015240361E-004
+8.856693754852339E-004
+5.938610131276059E-004
+1.278030415713782E-003
+1.320006331165184E-003
+1.003672069006259E-003
+7.701293018464000E-004
+9.892827166126301E-004
+7.049982667114030E-004
-1.098397473496129E-004
-7.164839496185947E-004
+2.237368724325689E-004
+1.455821868267795E-003
+3.185141579601286E-003
+2.367346357225385E-003
+2.598985632847994E-003
+1.481526799424363E-003
-1.623582443411654E-004
+6.267033619427235E-004
-1.055741107329385E-004
+8.896754698937706E-004
-9.326553435899786E-004
-8.194115491628981E-004
-1.245464624536409E-003
+1.569437663135985E-003
+1.673424405047744E-003
+3.361406771702438E-003
+1.959474788054790E-003
+9.480522628010105E-005
-1.344976402995293E-003
-1.860871287478890E-003
-2.215344358057869E-003
-1.272950342055846E-003
-2.341283881803162E-003
-3.014415845344291E-003
-3.140711339150348E-003
-1.173104178881710E-003
-1.940191146826846E-003
+3.202537328616947E-004
-5.743065423001317E-004
-7.540774144033802E-004
-1.054758613308578E-003
-1.579033825234055E-003
-1.502348161509300E-003
-1.557965017939043E-003
+3.594800127106517E-004
-1.615917188952149E-003
+2.034850796466813E-004
-2.543092754453879E-003
-9.293065424126288E-004
-1.561904084850079E-003
-6.926741809945831E-004
-2.629729740828250E-003
+1.010935748250698E-004
+9.465809938914737E-004
-2.920648715441990E-003
-9.572520340656066E-004
-4.309389574072143E-003
-6.729004720932386E-003
+7.353280338146805E-004
-5.683428095673717E-004
-4.372509562140606E-003
-1.613508300044505E-003
+3.149619987572882E-003
+2.732479074362301E-003
-1.871238226848301E-003
-1.109840292061307E-003
+1.106370728519493E-003
+3.290743174322289E-003
+1.690544875577418E-003
-7.603029820276461E-004
+3.377607682180139E-004
+6.361888980757077E-003
+4.367179564116431E-003
-6.634625368290522E-003
-7.228804604131735E-003
-6.300832856636808E-004
+2.567365777000252E-003
-1.253529114415135E-003
+1.431856897320091E-003
-4.747769375856751E-003
-2.892520347511369E-003
+2.130545204707010E-003
-4.371729202696546E-003
-3.389481420647543E-003
-5.311327677262907E-003
+5.549782820487776E-003
-9.236175089024115E-004
-2.430793795485152E-003
-1.606430458390406E-003
-1.598203515837866E-005
-1.496163898278729E-003
-1.324221463398559E-003
-8.118557498442273E-004
+5.691627604108749E-004
+1.722091442124048E-003
-4.037570777684158E-003
-5.855549268466949E-004
-2.259024454718411E-003
-7.259457890916497E-003
-1.042689188920138E-002
-2.272348019172121E-003
+4.661046892356582E-003
-4.900067210976462E-004
+2.300296462340567E-003
-4.351115738460243E-003
+4.313093564536628E-003
+8.085968763958080E-004
-2.477193859626541E-003
-5.549368695565157E-004
+4.776535228299366E-003
+7.623351892583833E-003
+1.885405721465142E-003
+4.473271055107469E-003
+1.310746595180289E-003
+7.644080462995226E-005
+9.439139200931415E-003
-1.551344608055969E-003
-1.043485715677138E-002
+5.041076881747751E-003
+8.728949400738237E-003
-4.866213975012865E-005
-1.444815107610615E-003
-3.194303422187984E-003
+5.508631018620552E-002
-8.773384508847867E-003
-5.590003836344827E-003
-2.599230972690851E-002
-3.673330288612910E-002
-5.031122650968432E-002
-6.461046622081076E-002
-1.221668817407994E-002
-4.083291514399741E-002
-7.906942473185387E-003
-3.179482651037350E-002
+5.179308677429016E-004
-3.559561622017653E-002
+3.107805918942025E-002
-1.040334583911657E-002
+6.021466147918267E-002
+6.091736582848800E-002
-1.249516964580407E-002
-3.929465341353302E-002
-1.400666698452586E-002
+3.758828122290685E-002
-2.806433115122535E-002
-7.695287037863571E-002
-2.508702438888791E-002
-7.474302551688213E-003
-6.023799943594305E-003
+2.931485408664242E-002
-3.429290759642666E-002
-3.586224122204842E-002
-6.369993653187478E-002
-1.699959322684699E-002
+1.261324130023275E-002
-8.431869280483488E-002
-2.497002013196579E-002
-3.214359783371080E-002
-3.175440756044254E-002
-2.466784356625263E-002
-2.487240989461814E-002
-2.530930749095613E-002
+6.831525622671325E-004
-4.233387434122424E-002
-1.413841758248384E-002
+5.743741341422718E-004
+3.358565794723654E-002
-2.460831609809036E-002
-2.233795561454688E-003
-5.165393120763598E-002
-5.443266694015793E-002
-8.697722964010467E-002
-1.945961850912681E-002
-3.649196761159262E-003
+4.568826571063585E-002
-2.073320498475128E-002
-5.321728261643494E-003
+1.459377190495519E-002
+4.463707753872269E-002
-1.777633451196538E-002
-4.720059045179963E-002
+5.145113074486193E-002
-2.813796207148980E-003
-1.486339085045260E-002
+5.278321191852216E-002
+9.867454886599682E-003
+1.869068967070853E-002
+2.193698646015910E-002
+4.780186419885376E-003
-1.134811170752997E-002
-2.363675103142315E-002
+3.003720937670342E-002
-2.940661667674876E-002
-2.075232653319352E-002
-4.419674514136275E-003
-6.239030920918942E-002
-5.140614287039307E-002
-2.450766049018283E-002
+2.922423769975856E-002
+1.752308700026277E-002
+9.236165218379740E-002
+7.255540410729253E-002
+6.237735733249052E-002
+6.318164978514393E-002
+2.044595076528045E-002
+2.334812024838156E-002
-5.134135253719339E-002
+2.504418432644325E-002
-1.816541552120282E-002
+3.801893198362166E-002
+4.801234780767564E-002
+3.356328608731825E-002
-6.583348186141372E-003
-1.440487947983837E-002
-4.761962229805028E-004
-4.820473739046938E-002
-4.496598814846185E-003
-1.068967434243303E-002
+4.647022853361080E-002
-8.431406876416693E-003
-1.836398812262933E-003
-2.458486244136017E-002
-2.519759321924762E-002
-2.471087693596750E-002
-3.084322139893085E-002
-2.607377841398124E-002
+1.200224220514943E-002
+4.290977685606763E-002
+7.222317161636960E-002
+5.032148785208066E-002
+1.701658679981621E-002
+7.802630815579642E-003
-9.024522987106114E-003
-1.144332965380483E-002
+5.886249967975971E-003
+5.034159166951729E-002
-2.873297426074882E-002
-1.658810956460502E-002
-3.867115414701259E-002
+4.114803343768857E-002
+2.457979177718702E-002
+8.322522032800295E-002
+3.919960759760410E-002
+8.256522209811790E-003
-2.883150801696088E-002
-5.546853307841821E-002
-6.585918067295261E-002
-3.116706095279843E-002
-2.340156266584325E-002
-1.265364601095985E-001
-9.043746139768707E-002
+5.797082701875111E-002
-1.053062548495777E-001
+1.906951240489406E-002
+1.018543454023356E-002
-1.524492479971987E-002
+3.314824364593187E-002
-1.761278164076625E-002
-2.331658171584192E-002
-3.523651787399931E-002
+4.496546249679157E-002
-1.548221935734406E-002
+1.937500778914464E-002
-1.041592699888803E-001
-1.037195406248898E-002
-4.559020893508890E-002
-3.226755660754432E-002
-1.181593632190690E-003
-3.093879970002866E-003
+5.341238561151366E-003
-5.277318394294708E-003
-2.071612367378125E-003
+8.093494387301772E-003
+9.096976647401148E-003
+2.041503928548030E-003
+3.472648021254499E-003
+4.232157022131823E-003
+1.591954560299408E-003
-1.444013533295773E-003
+2.874221652066337E-003
-3.741518179858289E-003
-3.105291904624778E-003
+9.527996553059127E-003
+7.771218360631832E-003
-3.513478492863709E-003
-2.249506264154071E-003
-2.507715961863835E-003
+5.374195850718327E-003
-6.185254151777928E-004
-3.256930233165498E-003
+3.702605273816027E-003
-4.506873639477834E-003
+1.436419483505376E-003
+2.539809806616945E-003
-1.048375750525669E-003
+3.073340816074016E-004
-3.109667942888823E-003
-2.137261334508507E-003
-3.801642767622227E-004
-2.189770167088742E-003
+2.920088479434166E-003
+5.009051829096590E-003
-3.773486344597165E-003
+1.879947879259069E-003
+6.269314737911106E-004
-4.848473925295246E-003
+2.697080842041910E-003
+4.580958205160717E-003
+1.582564424764198E-003
-6.519654876928569E-003
+4.103520658337492E-004
+3.566552442357223E-003
+5.368115750269764E-003
+1.326643925473688E-004
+7.716017166107052E-003
-3.051405064082527E-003
-1.888691767248549E-003
-6.974992121877693E-003
-5.470817794210704E-003
+7.811856103402774E-004
-8.095834130912524E-003
-9.884570072885686E-003
+1.810570354363277E-003
-2.561057518412620E-003
+1.640318094661789E-003
+3.101265389832462E-004
+2.632209948178543E-003
-4.800304756294702E-004
+2.669967964145806E-003
-3.694876767282544E-003
+7.627651534788390E-004
-3.171001738115172E-003
+7.447389474917351E-004
+8.745798363124040E-004
+1.808421631615059E-003
-1.340589544028183E-003
-1.176625125529076E-002
+1.936063662279009E-003
-9.453081306145881E-004
+1.668980573452824E-003
+1.100390881568957E-003
+1.216583768654116E-003
+1.133793356595598E-004
-7.177289505372552E-004
-1.408221812808426E-003
-1.627009492297305E-003
-5.831894492206252E-004
-4.160773832037394E-004
-9.813308731600240E-004
-7.117286869408829E-004
-2.752747154258539E-004
+6.086517679177561E-006
+1.367186369683533E-003
+9.006398912571278E-004
+9.114109390154908E-004
+5.584674986214314E-005
-3.604875365615192E-004
-4.153650673303563E-004
-1.747233017704274E-004
+7.781977347574495E-005
-1.562394506526522E-003
-1.792054349269421E-003
-1.556473230237557E-003
+2.021589590084602E-004
+2.792612948135163E-004
+1.343083574429365E-003
-5.434568090511436E-004
-5.568666926799300E-004
-1.235286639790355E-003
-7.638725909614395E-004
-5.161304982986412E-004
-1.337884011639553E-003
-1.894837314108894E-003
-2.279555217740268E-003
-1.586958118719320E-003
-1.531009814880137E-003
-1.312564372877176E-003
-6.318291693428440E-004
-4.823828646314354E-004
-1.208107503795714E-003
+7.640052380430250E-004
+3.953980624790382E-004
+1.500111105401494E-003
-4.427689546342607E-004
-5.139534023533803E-004
-1.852594887208419E-003
-1.774990500859968E-003
-1.401484963154033E-003
+4.807733443669577E-004
+2.031262211832412E-005
+1.624115758017713E-003
+1.036177196699455E-003
+1.967270440702745E-003
+2.681081694561906E-003
+2.662594261672962E-003
+9.677535960419408E-004
+9.457153154638221E-004
-2.245105469311840E-004
-2.596237833253478E-004
+9.879356952275998E-004
+2.027919319285486E-003
+1.943587128955892E-003
+1.118377072694027E-003
+1.527829064109751E-003
-4.630184865423468E-004
+1.441485046823166E-003
+3.983714362282114E-004
+1.642249722407350E-003
-1.888834659493267E-004
+1.335529329048354E-004
+7.308832180358112E-004
