# Total charges on electrodes in atomic unit
# ------------------------------------------
# Charge:   1 au = 1.602176565e-19 C = 1 e
      +0 -8.197919516668080E-001 -1.802080483331099E-001
      +1 -8.242342849425661E-001 -1.757657150573426E-001
      +2 -8.292193821573104E-001 -1.707806178426234E-001
      +3 -8.347347146771364E-001 -1.652652853228007E-001
      +4 -8.407627592475425E-001 -1.592372407524015E-001
      +5 -8.472794642189398E-001 -1.527205357810255E-001
