# Energy in atomic unit (1 Eh = 2625.499640 kJ/mol)
# -------------------------------------------------
# step         Hamiltonian             Total energy           Kinetic energy         Potential energy       Thermostat energy      External field energy
       0 -1.395723264458767E+002 -1.395723264458767E+002  1.061878991688794E+001 -1.501911163627647E+002  0.000000000000000E+000  0.000000000000000E+000
       1 -1.395723549476951E+002 -1.395723549476951E+002  1.074591542714953E+001 -1.503182703748446E+002  0.000000000000000E+000  0.000000000000000E+000
