# Stress tensor of the system
# ----------------
# Pressure:   1 bar = 3.3988273773641905e-09 ua
# step        xx component            yy component            zz component            xy component            xz component            yz component      
       0 -2.408637302555170E-005 -1.359875746518774E-005 -1.538510995078270E-005  7.285207435001669E-008  7.073420106622673E-007  1.707634921835510E-006
