# Energy in atomic unit (1 Eh = 2625.499640 kJ/mol)
# -------------------------------------------------
# step         Total energy            Kinetic energy          Potential energy          Coulomb energy        van_der_Waals energy      Coulomb LR energy       Coulomb keq0 energy       Coulomb SR energy       Coulomb self energy     Coulomb molecule energy
      0  -2.797288607447503E+000   6.072770847732111E-001  -3.404565692220714E+000  -3.877374220583363E+000   4.728085283626487E-001   5.289735618260859E-002   0.000000000000000E+000  -8.968706777525342E+001  -3.480333376547482E+001   1.205601299639623E+002
      1  -2.985191191673975E+000   4.206713314101089E-001  -3.405862523084084E+000  -3.876842336853983E+000   4.709798137698990E-001   5.283206068564565E-002   0.000000000000000E+000  -8.968644824273512E+001  -3.480333376547482E+001   1.205601076106703E+002
      2  -2.985208125458163E+000   4.251998105287881E-001  -3.410407935986952E+000  -3.879782738794020E+000   4.693748028070684E-001   5.209219698355971E-002   0.000000000000000E+000  -8.968864523132817E+001  -3.480333376547482E+001   1.205601040610254E+002
      3  -2.985164780159160E+000   4.327261713501185E-001  -3.417890951509278E+000  -3.885889478076848E+000   4.679985265675702E-001   5.070699905712615E-002   0.000000000000000E+000  -8.969336657054821E+001  -3.480333376547482E+001   1.205601038588891E+002
      4  -2.985139029539156E+000   4.428136330056031E-001  -3.427952662544759E+000  -3.894810356104060E+000   4.668576935593010E-001   4.873721994272455E-002   0.000000000000000E+000  -8.970031770294513E+001  -3.480333376547482E+001   1.205601038923732E+002
      5  -2.985086153895564E+000   4.548412585495089E-001  -3.439927412445073E+000  -3.905887115563260E+000   4.659597031181871E-001   4.627138312510778E-002   0.000000000000000E+000  -8.970892852457079E+001  -3.480333376547482E+001   1.205601037913572E+002
      6  -2.985023999584822E+000   4.680540101343929E-001  -3.453078009719215E+000  -3.918389652236257E+000   4.653116425170426E-001   4.341998110326778E-002   0.000000000000000E+000  -8.971857985412785E+001  -3.480333376547482E+001   1.205601039862631E+002
      7  -2.984924402566508E+000   4.816255363879023E-001  -3.466549938954411E+000  -3.931469179253625E+000   4.649192402992143E-001   4.030793890029447E-002   0.000000000000000E+000  -8.972854728203856E+001  -3.480333376547482E+001   1.205601039293595E+002
      8  -2.984826976457123E+000   4.947323100515729E-001  -3.479559286508696E+000  -3.944345091701365E+000   4.647858051926696E-001   3.706588551868308E-002   0.000000000000000E+000  -8.973818119345935E+001  -3.480333376547482E+001   1.205601039817141E+002
      9  -2.984640507944983E+000   5.066245162817055E-001  -3.491265024226688E+000  -3.956176502332227E+000   4.649114781055383E-001   3.382127167808018E-002   0.000000000000000E+000  -8.974676782259020E+001  -3.480333376547482E+001   1.205601038140547E+002
     10  -2.984465339442628E+000   5.166900983575108E-001  -3.501155437800139E+000  -3.966447841977782E+000   4.652924041776434E-001   3.069029186418790E-002   0.000000000000000E+000  -8.975390827458719E+001  -3.480333376547482E+001   1.205601039062200E+002
