# Stress tensor of the system
# ----------------
# Pressure:   1 bar = 3.3988273773641905e-09 ua
# step        xx component            yy component            zz component            xy component            xz component            yz component      
       0 -3.111419087829243E-005 -3.775537928961481E-005 -6.311454471603795E-006  1.612873580833911E-005 -2.983707717557623E-005  1.473153825583910E-006
       1 -3.101767720081836E-005 -3.826685257945185E-005 -6.446658072931694E-006  1.607769421889448E-005 -2.989450011261927E-005  1.500017841062233E-006
       2 -2.032442592926311E-005 -2.398155652907296E-005 -1.973098195501291E-005 -3.984973867132490E-007  6.189257695479566E-007  6.560320540992429E-007
       3 -2.039233927829560E-005 -2.448675495341250E-005 -2.003354073084597E-005 -4.433074455205050E-007  6.374143850275793E-007  4.853538974788777E-007
       4 -2.059956676693052E-005 -2.507236478426291E-005 -2.043091431246157E-005 -4.754341615944534E-007  6.647080789957934E-007  2.950451866095386E-007
       5 -2.093141533773637E-005 -2.570254057257296E-005 -2.089255881935990E-005 -4.999834739530592E-007  7.001935460172238E-007  9.860927147447197E-008
       6 -2.137567327842869E-005 -2.633568052090758E-005 -2.139323637841507E-005 -5.051314061362387E-007  7.388926208534880E-007 -1.160661597698760E-007
       7 -2.189617326108341E-005 -2.692146160213090E-005 -2.190900651012672E-005 -4.928930962852091E-007  7.821021731460659E-007 -3.440796612377097E-007
       8 -2.247542174339588E-005 -2.742680636268783E-005 -2.239893998497099E-005 -4.596713401242542E-007  8.275209903112532E-007 -5.805712103455873E-007
       9 -2.304739273435868E-005 -2.779448587260788E-005 -2.284637922182562E-005 -4.054674049177725E-007  8.718565305636166E-007 -8.250585754426767E-007
      10 -2.359550896714818E-005 -2.801309470260542E-005 -2.323306033998699E-005 -3.078049617561017E-007  9.081861863948667E-007 -1.069512387218885E-006
