# Energy in atomic unit (1 Eh = 2625.499640 kJ/mol)
# -------------------------------------------------
# step        Hamiltonian             Total energy           Kinetic energy         Potential energy     Thermostat/barostat en.  External field energy 
       0  1.200925727548580E+001  7.627846458245658E+000  1.388717676119552E+001 -6.259330302949861E+000  4.381410817240147E+000  0.000000000000000E+000
