ITEM: TIMESTEP
0
ITEM: NUMBER OF ATOMS
768
ITEM: BOX BOUNDS pp pp ff
-9.8379999999999992e+00 9.8379999999999992e+00
-8.5199999999999996e+00 8.5199999999999996e+00
-1.4019999999999999e+02 1.4019999999999999e+02
ITEM: ATOMS id element fx fy fz 
961 CG  -0.0782532241861031  -0.0586971893163252     23.9882937554717 
962 CG  -0.0782532241861031  -0.0586971893163252     23.9882937554717 
963 CG  -0.0782532241861031  -0.0586971893163252     23.9882937554717 
964 CG  -0.0782532241861031  -0.0586971893163252     23.9882937554717 
965 CG  -0.0782532241861031  -0.0586971893163252     23.9882937554717 
966 CG  -0.0782532241861031  -0.0586971893163252     23.9882937554717 
967 CG  -0.0782532241861031  -0.0586971893163252     23.9882937554717 
968 CG  -0.0782532241861031  -0.0586971893163252     23.9882937554717 
969 CG  -0.0782532241861031  -0.0586971893163252     23.9882937554717 
970 CG  -0.0782532241861031  -0.0586971893163252     23.9882937554717 
971 CG  -0.0782532241861031  -0.0586971893163252     23.9882937554717 
972 CG  -0.0782532241861031  -0.0586971893163252     23.9882937554717 
973 CG  -0.0782532241861031  -0.0586971893163252     23.9882937554717 
974 CG  -0.0782532241861031  -0.0586971893163252     23.9882937554717 
975 CG  -0.0782532241861031  -0.0586971893163252     23.9882937554717 
976 CG  -0.0782532241861031  -0.0586971893163252     23.9882937554717 
977 CG  -0.0782532241861031  -0.0586971893163252     23.9882937554717 
978 CG  -0.0782532241861031  -0.0586971893163252     23.9882937554717 
979 CG  -0.0782532241861031  -0.0586971893163252     23.9882937554717 
980 CG  -0.0782532241861031  -0.0586971893163252     23.9882937554717 
981 CG  -0.0782532241861031  -0.0586971893163252     23.9882937554717 
982 CG  -0.0782532241861031  -0.0586971893163252     23.9882937554717 
983 CG  -0.0782532241861031  -0.0586971893163252     23.9882937554717 
984 CG  -0.0782532241861031  -0.0586971893163252     23.9882937554717 
985 CG  -0.0782532241861031  -0.0586971893163252     23.9882937554717 
986 CG  -0.0782532241861031  -0.0586971893163252     23.9882937554717 
987 CG  -0.0782532241861031  -0.0586971893163252     23.9882937554717 
988 CG  -0.0782532241861031  -0.0586971893163252     23.9882937554717 
989 CG  -0.0782532241861031  -0.0586971893163252     23.9882937554717 
990 CG  -0.0782532241861031  -0.0586971893163252     23.9882937554717 
991 CG  -0.0782532241861031  -0.0586971893163252     23.9882937554717 
992 CG  -0.0782532241861031  -0.0586971893163252     23.9882937554717 
993 CG  -0.0782532241861031  -0.0586971893163252     23.9882937554717 
994 CG  -0.0782532241861031  -0.0586971893163252     23.9882937554717 
995 CG  -0.0782532241861031  -0.0586971893163252     23.9882937554717 
996 CG  -0.0782532241861031  -0.0586971893163252     23.9882937554717 
997 CG  -0.0782532241861031  -0.0586971893163252     23.9882937554717 
998 CG  -0.0782532241861031  -0.0586971893163252     23.9882937554717 
999 CG  -0.0782532241861031  -0.0586971893163252     23.9882937554717 
1000 CG  -0.0782532241861031  -0.0586971893163252     23.9882937554717 
1001 CG  -0.0782532241861031  -0.0586971893163252     23.9882937554717 
1002 CG  -0.0782532241861031  -0.0586971893163252     23.9882937554717 
1003 CG  -0.0782532241861031  -0.0586971893163252     23.9882937554717 
1004 CG  -0.0782532241861031  -0.0586971893163252     23.9882937554717 
1005 CG  -0.0782532241861031  -0.0586971893163252     23.9882937554717 
1006 CG  -0.0782532241861031  -0.0586971893163252     23.9882937554717 
1007 CG  -0.0782532241861031  -0.0586971893163252     23.9882937554717 
1008 CG  -0.0782532241861031  -0.0586971893163252     23.9882937554717 
1009 CG  -0.0782532241861031  -0.0586971893163252     23.9882937554717 
1010 CG  -0.0782532241861031  -0.0586971893163252     23.9882937554717 
1011 CG  -0.0782532241861031  -0.0586971893163252     23.9882937554717 
1012 CG  -0.0782532241861031  -0.0586971893163252     23.9882937554717 
1013 CG  -0.0782532241861031  -0.0586971893163252     23.9882937554717 
1014 CG  -0.0782532241861031  -0.0586971893163252     23.9882937554717 
1015 CG  -0.0782532241861031  -0.0586971893163252     23.9882937554717 
1016 CG  -0.0782532241861031  -0.0586971893163252     23.9882937554717 
1017 CG  -0.0782532241861031  -0.0586971893163252     23.9882937554717 
1018 CG  -0.0782532241861031  -0.0586971893163252     23.9882937554717 
1019 CG  -0.0782532241861031  -0.0586971893163252     23.9882937554717 
1020 CG  -0.0782532241861031  -0.0586971893163252     23.9882937554717 
1021 CG  -0.0782532241861031  -0.0586971893163252     23.9882937554717 
1022 CG  -0.0782532241861031  -0.0586971893163252     23.9882937554717 
1023 CG  -0.0782532241861031  -0.0586971893163252     23.9882937554717 
1024 CG  -0.0782532241861031  -0.0586971893163252     23.9882937554717 
1025 CG  -0.0782532241861031  -0.0586971893163252     23.9882937554717 
1026 CG  -0.0782532241861031  -0.0586971893163252     23.9882937554717 
1027 CG  -0.0782532241861031  -0.0586971893163252     23.9882937554717 
1028 CG  -0.0782532241861031  -0.0586971893163252     23.9882937554717 
1029 CG  -0.0782532241861031  -0.0586971893163252     23.9882937554717 
1030 CG  -0.0782532241861031  -0.0586971893163252     23.9882937554717 
1031 CG  -0.0782532241861031  -0.0586971893163252     23.9882937554717 
1032 CG  -0.0782532241861031  -0.0586971893163252     23.9882937554717 
1033 CG  -0.0782532241861031  -0.0586971893163252     23.9882937554717 
1034 CG  -0.0782532241861031  -0.0586971893163252     23.9882937554717 
1035 CG  -0.0782532241861031  -0.0586971893163252     23.9882937554717 
1036 CG  -0.0782532241861031  -0.0586971893163252     23.9882937554717 
1037 CG  -0.0782532241861031  -0.0586971893163252     23.9882937554717 
1038 CG  -0.0782532241861031  -0.0586971893163252     23.9882937554717 
1039 CG  -0.0782532241861031  -0.0586971893163252     23.9882937554717 
1040 CG  -0.0782532241861031  -0.0586971893163252     23.9882937554717 
1041 CG  -0.0782532241861031  -0.0586971893163252     23.9882937554717 
1042 CG  -0.0782532241861031  -0.0586971893163252     23.9882937554717 
1043 CG  -0.0782532241861031  -0.0586971893163252     23.9882937554717 
1044 CG  -0.0782532241861031  -0.0586971893163252     23.9882937554717 
1045 CG  -0.0782532241861031  -0.0586971893163252     23.9882937554717 
1046 CG  -0.0782532241861031  -0.0586971893163252     23.9882937554717 
1047 CG  -0.0782532241861031  -0.0586971893163252     23.9882937554717 
1048 CG  -0.0782532241861031  -0.0586971893163252     23.9882937554717 
1049 CG  -0.0782532241861031  -0.0586971893163252     23.9882937554717 
1050 CG  -0.0782532241861031  -0.0586971893163252     23.9882937554717 
1051 CG  -0.0782532241861031  -0.0586971893163252     23.9882937554717 
1052 CG  -0.0782532241861031  -0.0586971893163252     23.9882937554717 
1053 CG  -0.0782532241861031  -0.0586971893163252     23.9882937554717 
1054 CG  -0.0782532241861031  -0.0586971893163252     23.9882937554717 
1055 CG  -0.0782532241861031  -0.0586971893163252     23.9882937554717 
1056 CG  -0.0782532241861031  -0.0586971893163252     23.9882937554717 
1057 CG  -0.0782532241861031  -0.0586971893163252     23.9882937554717 
1058 CG  -0.0782532241861031  -0.0586971893163252     23.9882937554717 
1059 CG  -0.0782532241861031  -0.0586971893163252     23.9882937554717 
1060 CG  -0.0782532241861031  -0.0586971893163252     23.9882937554717 
1061 CG  -0.0782532241861031  -0.0586971893163252     23.9882937554717 
1062 CG  -0.0782532241861031  -0.0586971893163252     23.9882937554717 
1063 CG  -0.0782532241861031  -0.0586971893163252     23.9882937554717 
1064 CG  -0.0782532241861031  -0.0586971893163252     23.9882937554717 
1065 CG  -0.0782532241861031  -0.0586971893163252     23.9882937554717 
1066 CG  -0.0782532241861031  -0.0586971893163252     23.9882937554717 
1067 CG  -0.0782532241861031  -0.0586971893163252     23.9882937554717 
1068 CG  -0.0782532241861031  -0.0586971893163252     23.9882937554717 
1069 CG  -0.0782532241861031  -0.0586971893163252     23.9882937554717 
1070 CG  -0.0782532241861031  -0.0586971893163252     23.9882937554717 
1071 CG  -0.0782532241861031  -0.0586971893163252     23.9882937554717 
1072 CG  -0.0782532241861031  -0.0586971893163252     23.9882937554717 
1073 CG  -0.0782532241861031  -0.0586971893163252     23.9882937554717 
1074 CG  -0.0782532241861031  -0.0586971893163252     23.9882937554717 
1075 CG  -0.0782532241861031  -0.0586971893163252     23.9882937554717 
1076 CG  -0.0782532241861031  -0.0586971893163252     23.9882937554717 
1077 CG  -0.0782532241861031  -0.0586971893163252     23.9882937554717 
1078 CG  -0.0782532241861031  -0.0586971893163252     23.9882937554717 
1079 CG  -0.0782532241861031  -0.0586971893163252     23.9882937554717 
1080 CG  -0.0782532241861031  -0.0586971893163252     23.9882937554717 
1081 CG  -0.0782532241861031  -0.0586971893163252     23.9882937554717 
1082 CG  -0.0782532241861031  -0.0586971893163252     23.9882937554717 
1083 CG  -0.0782532241861031  -0.0586971893163252     23.9882937554717 
1084 CG  -0.0782532241861031  -0.0586971893163252     23.9882937554717 
1085 CG  -0.0782532241861031  -0.0586971893163252     23.9882937554717 
1086 CG  -0.0782532241861031  -0.0586971893163252     23.9882937554717 
1087 CG  -0.0782532241861031  -0.0586971893163252     23.9882937554717 
1088 CG  -0.0782532241861031  -0.0586971893163252     23.9882937554717 
1089 CG  -0.0782532241861031  -0.0586971893163252     23.9882937554717 
1090 CG  -0.0782532241861031  -0.0586971893163252     23.9882937554717 
1091 CG  -0.0782532241861031  -0.0586971893163252     23.9882937554717 
1092 CG  -0.0782532241861031  -0.0586971893163252     23.9882937554717 
1093 CG  -0.0782532241861031  -0.0586971893163252     23.9882937554717 
1094 CG  -0.0782532241861031  -0.0586971893163252     23.9882937554717 
1095 CG  -0.0782532241861031  -0.0586971893163252     23.9882937554717 
1096 CG  -0.0782532241861031  -0.0586971893163252     23.9882937554717 
1097 CG  -0.0782532241861031  -0.0586971893163252     23.9882937554717 
1098 CG  -0.0782532241861031  -0.0586971893163252     23.9882937554717 
1099 CG  -0.0782532241861031  -0.0586971893163252     23.9882937554717 
1100 CG  -0.0782532241861031  -0.0586971893163252     23.9882937554717 
1101 CG  -0.0782532241861031  -0.0586971893163252     23.9882937554717 
1102 CG  -0.0782532241861031  -0.0586971893163252     23.9882937554717 
1103 CG  -0.0782532241861031  -0.0586971893163252     23.9882937554717 
1104 CG  -0.0782532241861031  -0.0586971893163252     23.9882937554717 
1105 CG  -0.0782532241861031  -0.0586971893163252     23.9882937554717 
1106 CG  -0.0782532241861031  -0.0586971893163252     23.9882937554717 
1107 CG  -0.0782532241861031  -0.0586971893163252     23.9882937554717 
1108 CG  -0.0782532241861031  -0.0586971893163252     23.9882937554717 
1109 CG  -0.0782532241861031  -0.0586971893163252     23.9882937554717 
1110 CG  -0.0782532241861031  -0.0586971893163252     23.9882937554717 
1111 CG  -0.0782532241861031  -0.0586971893163252     23.9882937554717 
1112 CG  -0.0782532241861031  -0.0586971893163252     23.9882937554717 
1113 CG  -0.0782532241861031  -0.0586971893163252     23.9882937554717 
1114 CG  -0.0782532241861031  -0.0586971893163252     23.9882937554717 
1115 CG  -0.0782532241861031  -0.0586971893163252     23.9882937554717 
1116 CG  -0.0782532241861031  -0.0586971893163252     23.9882937554717 
1117 CG  -0.0782532241861031  -0.0586971893163252     23.9882937554717 
1118 CG  -0.0782532241861031  -0.0586971893163252     23.9882937554717 
1119 CG  -0.0782532241861031  -0.0586971893163252     23.9882937554717 
1120 CG  -0.0782532241861031  -0.0586971893163252     23.9882937554717 
1121 CG  -0.0782532241861031  -0.0586971893163252     23.9882937554717 
1122 CG  -0.0782532241861031  -0.0586971893163252     23.9882937554717 
1123 CG  -0.0782532241861031  -0.0586971893163252     23.9882937554717 
1124 CG  -0.0782532241861031  -0.0586971893163252     23.9882937554717 
1125 CG  -0.0782532241861031  -0.0586971893163252     23.9882937554717 
1126 CG  -0.0782532241861031  -0.0586971893163252     23.9882937554717 
1127 CG  -0.0782532241861031  -0.0586971893163252     23.9882937554717 
1128 CG  -0.0782532241861031  -0.0586971893163252     23.9882937554717 
1129 CG  -0.0782532241861031  -0.0586971893163252     23.9882937554717 
1130 CG  -0.0782532241861031  -0.0586971893163252     23.9882937554717 
1131 CG  -0.0782532241861031  -0.0586971893163252     23.9882937554717 
1132 CG  -0.0782532241861031  -0.0586971893163252     23.9882937554717 
1133 CG  -0.0782532241861031  -0.0586971893163252     23.9882937554717 
1134 CG  -0.0782532241861031  -0.0586971893163252     23.9882937554717 
1135 CG  -0.0782532241861031  -0.0586971893163252     23.9882937554717 
1136 CG  -0.0782532241861031  -0.0586971893163252     23.9882937554717 
1137 CG  -0.0782532241861031  -0.0586971893163252     23.9882937554717 
1138 CG  -0.0782532241861031  -0.0586971893163252     23.9882937554717 
1139 CG  -0.0782532241861031  -0.0586971893163252     23.9882937554717 
1140 CG  -0.0782532241861031  -0.0586971893163252     23.9882937554717 
1141 CG  -0.0782532241861031  -0.0586971893163252     23.9882937554717 
1142 CG  -0.0782532241861031  -0.0586971893163252     23.9882937554717 
1143 CG  -0.0782532241861031  -0.0586971893163252     23.9882937554717 
1144 CG  -0.0782532241861031  -0.0586971893163252     23.9882937554717 
1145 CG  -0.0782532241861031  -0.0586971893163252     23.9882937554717 
1146 CG  -0.0782532241861031  -0.0586971893163252     23.9882937554717 
1147 CG  -0.0782532241861031  -0.0586971893163252     23.9882937554717 
1148 CG  -0.0782532241861031  -0.0586971893163252     23.9882937554717 
1149 CG  -0.0782532241861031  -0.0586971893163252     23.9882937554717 
1150 CG  -0.0782532241861031  -0.0586971893163252     23.9882937554717 
1151 CG  -0.0782532241861031  -0.0586971893163252     23.9882937554717 
1152 CG  -0.0782532241861031  -0.0586971893163252     23.9882937554717 
1153 CG  -0.0782532241861031  -0.0586971893163252     23.9882937554717 
1154 CG  -0.0782532241861031  -0.0586971893163252     23.9882937554717 
1155 CG  -0.0782532241861031  -0.0586971893163252     23.9882937554717 
1156 CG  -0.0782532241861031  -0.0586971893163252     23.9882937554717 
1157 CG  -0.0782532241861031  -0.0586971893163252     23.9882937554717 
1158 CG  -0.0782532241861031  -0.0586971893163252     23.9882937554717 
1159 CG  -0.0782532241861031  -0.0586971893163252     23.9882937554717 
1160 CG  -0.0782532241861031  -0.0586971893163252     23.9882937554717 
1161 CG  -0.0782532241861031  -0.0586971893163252     23.9882937554717 
1162 CG  -0.0782532241861031  -0.0586971893163252     23.9882937554717 
1163 CG  -0.0782532241861031  -0.0586971893163252     23.9882937554717 
1164 CG  -0.0782532241861031  -0.0586971893163252     23.9882937554717 
1165 CG  -0.0782532241861031  -0.0586971893163252     23.9882937554717 
1166 CG  -0.0782532241861031  -0.0586971893163252     23.9882937554717 
1167 CG  -0.0782532241861031  -0.0586971893163252     23.9882937554717 
1168 CG  -0.0782532241861031  -0.0586971893163252     23.9882937554717 
1169 CG  -0.0782532241861031  -0.0586971893163252     23.9882937554717 
1170 CG  -0.0782532241861031  -0.0586971893163252     23.9882937554717 
1171 CG  -0.0782532241861031  -0.0586971893163252     23.9882937554717 
1172 CG  -0.0782532241861031  -0.0586971893163252     23.9882937554717 
1173 CG  -0.0782532241861031  -0.0586971893163252     23.9882937554717 
1174 CG  -0.0782532241861031  -0.0586971893163252     23.9882937554717 
1175 CG  -0.0782532241861031  -0.0586971893163252     23.9882937554717 
1176 CG  -0.0782532241861031  -0.0586971893163252     23.9882937554717 
1177 CG  -0.0782532241861031  -0.0586971893163252     23.9882937554717 
1178 CG  -0.0782532241861031  -0.0586971893163252     23.9882937554717 
1179 CG  -0.0782532241861031  -0.0586971893163252     23.9882937554717 
1180 CG  -0.0782532241861031  -0.0586971893163252     23.9882937554717 
1181 CG  -0.0782532241861031  -0.0586971893163252     23.9882937554717 
1182 CG  -0.0782532241861031  -0.0586971893163252     23.9882937554717 
1183 CG  -0.0782532241861031  -0.0586971893163252     23.9882937554717 
1184 CG  -0.0782532241861031  -0.0586971893163252     23.9882937554717 
1185 CG  -0.0782532241861031  -0.0586971893163252     23.9882937554717 
1186 CG  -0.0782532241861031  -0.0586971893163252     23.9882937554717 
1187 CG  -0.0782532241861031  -0.0586971893163252     23.9882937554717 
1188 CG  -0.0782532241861031  -0.0586971893163252     23.9882937554717 
1189 CG  -0.0782532241861031  -0.0586971893163252     23.9882937554717 
1190 CG  -0.0782532241861031  -0.0586971893163252     23.9882937554717 
1191 CG  -0.0782532241861031  -0.0586971893163252     23.9882937554717 
1192 CG  -0.0782532241861031  -0.0586971893163252     23.9882937554717 
1193 CG  -0.0782532241861031  -0.0586971893163252     23.9882937554717 
1194 CG  -0.0782532241861031  -0.0586971893163252     23.9882937554717 
1195 CG  -0.0782532241861031  -0.0586971893163252     23.9882937554717 
1196 CG  -0.0782532241861031  -0.0586971893163252     23.9882937554717 
1197 CG  -0.0782532241861031  -0.0586971893163252     23.9882937554717 
1198 CG  -0.0782532241861031  -0.0586971893163252     23.9882937554717 
1199 CG  -0.0782532241861031  -0.0586971893163252     23.9882937554717 
1200 CG  -0.0782532241861031  -0.0586971893163252     23.9882937554717 
1201 CG  -0.0782532241861031  -0.0586971893163252     23.9882937554717 
1202 CG  -0.0782532241861031  -0.0586971893163252     23.9882937554717 
1203 CG  -0.0782532241861031  -0.0586971893163252     23.9882937554717 
1204 CG  -0.0782532241861031  -0.0586971893163252     23.9882937554717 
1205 CG  -0.0782532241861031  -0.0586971893163252     23.9882937554717 
1206 CG  -0.0782532241861031  -0.0586971893163252     23.9882937554717 
1207 CG  -0.0782532241861031  -0.0586971893163252     23.9882937554717 
1208 CG  -0.0782532241861031  -0.0586971893163252     23.9882937554717 
1209 CG  -0.0782532241861031  -0.0586971893163252     23.9882937554717 
1210 CG  -0.0782532241861031  -0.0586971893163252     23.9882937554717 
1211 CG  -0.0782532241861031  -0.0586971893163252     23.9882937554717 
1212 CG  -0.0782532241861031  -0.0586971893163252     23.9882937554717 
1213 CG  -0.0782532241861031  -0.0586971893163252     23.9882937554717 
1214 CG  -0.0782532241861031  -0.0586971893163252     23.9882937554717 
1215 CG  -0.0782532241861031  -0.0586971893163252     23.9882937554717 
1216 CG  -0.0782532241861031  -0.0586971893163252     23.9882937554717 
1217 CG  -0.0782532241861031  -0.0586971893163252     23.9882937554717 
1218 CG  -0.0782532241861031  -0.0586971893163252     23.9882937554717 
1219 CG  -0.0782532241861031  -0.0586971893163252     23.9882937554717 
1220 CG  -0.0782532241861031  -0.0586971893163252     23.9882937554717 
1221 CG  -0.0782532241861031  -0.0586971893163252     23.9882937554717 
1222 CG  -0.0782532241861031  -0.0586971893163252     23.9882937554717 
1223 CG  -0.0782532241861031  -0.0586971893163252     23.9882937554717 
1224 CG  -0.0782532241861031  -0.0586971893163252     23.9882937554717 
1225 CG  -0.0782532241861031  -0.0586971893163252     23.9882937554717 
1226 CG  -0.0782532241861031  -0.0586971893163252     23.9882937554717 
1227 CG  -0.0782532241861031  -0.0586971893163252     23.9882937554717 
1228 CG  -0.0782532241861031  -0.0586971893163252     23.9882937554717 
1229 CG  -0.0782532241861031  -0.0586971893163252     23.9882937554717 
1230 CG  -0.0782532241861031  -0.0586971893163252     23.9882937554717 
1231 CG  -0.0782532241861031  -0.0586971893163252     23.9882937554717 
1232 CG  -0.0782532241861031  -0.0586971893163252     23.9882937554717 
1233 CG  -0.0782532241861031  -0.0586971893163252     23.9882937554717 
1234 CG  -0.0782532241861031  -0.0586971893163252     23.9882937554717 
1235 CG  -0.0782532241861031  -0.0586971893163252     23.9882937554717 
1236 CG  -0.0782532241861031  -0.0586971893163252     23.9882937554717 
1237 CG  -0.0782532241861031  -0.0586971893163252     23.9882937554717 
1238 CG  -0.0782532241861031  -0.0586971893163252     23.9882937554717 
1239 CG  -0.0782532241861031  -0.0586971893163252     23.9882937554717 
1240 CG  -0.0782532241861031  -0.0586971893163252     23.9882937554717 
1241 CG  -0.0782532241861031  -0.0586971893163252     23.9882937554717 
1242 CG  -0.0782532241861031  -0.0586971893163252     23.9882937554717 
1243 CG  -0.0782532241861031  -0.0586971893163252     23.9882937554717 
1244 CG  -0.0782532241861031  -0.0586971893163252     23.9882937554717 
1245 CG  -0.0782532241861031  -0.0586971893163252     23.9882937554717 
1246 CG  -0.0782532241861031  -0.0586971893163252     23.9882937554717 
1247 CG  -0.0782532241861031  -0.0586971893163252     23.9882937554717 
1248 CG  -0.0782532241861031  -0.0586971893163252     23.9882937554717 
1249 CG  -0.0782532241861031  -0.0586971893163252     23.9882937554717 
1250 CG  -0.0782532241861031  -0.0586971893163252     23.9882937554717 
1251 CG  -0.0782532241861031  -0.0586971893163252     23.9882937554717 
1252 CG  -0.0782532241861031  -0.0586971893163252     23.9882937554717 
1253 CG  -0.0782532241861031  -0.0586971893163252     23.9882937554717 
1254 CG  -0.0782532241861031  -0.0586971893163252     23.9882937554717 
1255 CG  -0.0782532241861031  -0.0586971893163252     23.9882937554717 
1256 CG  -0.0782532241861031  -0.0586971893163252     23.9882937554717 
1257 CG  -0.0782532241861031  -0.0586971893163252     23.9882937554717 
1258 CG  -0.0782532241861031  -0.0586971893163252     23.9882937554717 
1259 CG  -0.0782532241861031  -0.0586971893163252     23.9882937554717 
1260 CG  -0.0782532241861031  -0.0586971893163252     23.9882937554717 
1261 CG  -0.0782532241861031  -0.0586971893163252     23.9882937554717 
1262 CG  -0.0782532241861031  -0.0586971893163252     23.9882937554717 
1263 CG  -0.0782532241861031  -0.0586971893163252     23.9882937554717 
1264 CG  -0.0782532241861031  -0.0586971893163252     23.9882937554717 
1265 CG  -0.0782532241861031  -0.0586971893163252     23.9882937554717 
1266 CG  -0.0782532241861031  -0.0586971893163252     23.9882937554717 
1267 CG  -0.0782532241861031  -0.0586971893163252     23.9882937554717 
1268 CG  -0.0782532241861031  -0.0586971893163252     23.9882937554717 
1269 CG  -0.0782532241861031  -0.0586971893163252     23.9882937554717 
1270 CG  -0.0782532241861031  -0.0586971893163252     23.9882937554717 
1271 CG  -0.0782532241861031  -0.0586971893163252     23.9882937554717 
1272 CG  -0.0782532241861031  -0.0586971893163252     23.9882937554717 
1273 CG  -0.0782532241861031  -0.0586971893163252     23.9882937554717 
1274 CG  -0.0782532241861031  -0.0586971893163252     23.9882937554717 
1275 CG  -0.0782532241861031  -0.0586971893163252     23.9882937554717 
1276 CG  -0.0782532241861031  -0.0586971893163252     23.9882937554717 
1277 CG  -0.0782532241861031  -0.0586971893163252     23.9882937554717 
1278 CG  -0.0782532241861031  -0.0586971893163252     23.9882937554717 
1279 CG  -0.0782532241861031  -0.0586971893163252     23.9882937554717 
1280 CG  -0.0782532241861031  -0.0586971893163252     23.9882937554717 
1281 CG  -0.0782532241861031  -0.0586971893163252     23.9882937554717 
1282 CG  -0.0782532241861031  -0.0586971893163252     23.9882937554717 
1283 CG  -0.0782532241861031  -0.0586971893163252     23.9882937554717 
1284 CG  -0.0782532241861031  -0.0586971893163252     23.9882937554717 
1285 CG  -0.0782532241861031  -0.0586971893163252     23.9882937554717 
1286 CG  -0.0782532241861031  -0.0586971893163252     23.9882937554717 
1287 CG  -0.0782532241861031  -0.0586971893163252     23.9882937554717 
1288 CG  -0.0782532241861031  -0.0586971893163252     23.9882937554717 
1289 CG  -0.0782532241861031  -0.0586971893163252     23.9882937554717 
1290 CG  -0.0782532241861031  -0.0586971893163252     23.9882937554717 
1291 CG  -0.0782532241861031  -0.0586971893163252     23.9882937554717 
1292 CG  -0.0782532241861031  -0.0586971893163252     23.9882937554717 
1293 CG  -0.0782532241861031  -0.0586971893163252     23.9882937554717 
1294 CG  -0.0782532241861031  -0.0586971893163252     23.9882937554717 
1295 CG  -0.0782532241861031  -0.0586971893163252     23.9882937554717 
1296 CG  -0.0782532241861031  -0.0586971893163252     23.9882937554717 
1297 CG  -0.0782532241861031  -0.0586971893163252     23.9882937554717 
1298 CG  -0.0782532241861031  -0.0586971893163252     23.9882937554717 
1299 CG  -0.0782532241861031  -0.0586971893163252     23.9882937554717 
1300 CG  -0.0782532241861031  -0.0586971893163252     23.9882937554717 
1301 CG  -0.0782532241861031  -0.0586971893163252     23.9882937554717 
1302 CG  -0.0782532241861031  -0.0586971893163252     23.9882937554717 
1303 CG  -0.0782532241861031  -0.0586971893163252     23.9882937554717 
1304 CG  -0.0782532241861031  -0.0586971893163252     23.9882937554717 
1305 CG  -0.0782532241861031  -0.0586971893163252     23.9882937554717 
1306 CG  -0.0782532241861031  -0.0586971893163252     23.9882937554717 
1307 CG  -0.0782532241861031  -0.0586971893163252     23.9882937554717 
1308 CG  -0.0782532241861031  -0.0586971893163252     23.9882937554717 
1309 CG  -0.0782532241861031  -0.0586971893163252     23.9882937554717 
1310 CG  -0.0782532241861031  -0.0586971893163252     23.9882937554717 
1311 CG  -0.0782532241861031  -0.0586971893163252     23.9882937554717 
1312 CG  -0.0782532241861031  -0.0586971893163252     23.9882937554717 
1313 CG  -0.0782532241861031  -0.0586971893163252     23.9882937554717 
1314 CG  -0.0782532241861031  -0.0586971893163252     23.9882937554717 
1315 CG  -0.0782532241861031  -0.0586971893163252     23.9882937554717 
1316 CG  -0.0782532241861031  -0.0586971893163252     23.9882937554717 
1317 CG  -0.0782532241861031  -0.0586971893163252     23.9882937554717 
1318 CG  -0.0782532241861031  -0.0586971893163252     23.9882937554717 
1319 CG  -0.0782532241861031  -0.0586971893163252     23.9882937554717 
1320 CG  -0.0782532241861031  -0.0586971893163252     23.9882937554717 
1321 CG  -0.0782532241861031  -0.0586971893163252     23.9882937554717 
1322 CG  -0.0782532241861031  -0.0586971893163252     23.9882937554717 
1323 CG  -0.0782532241861031  -0.0586971893163252     23.9882937554717 
1324 CG  -0.0782532241861031  -0.0586971893163252     23.9882937554717 
1325 CG  -0.0782532241861031  -0.0586971893163252     23.9882937554717 
1326 CG  -0.0782532241861031  -0.0586971893163252     23.9882937554717 
1327 CG  -0.0782532241861031  -0.0586971893163252     23.9882937554717 
1328 CG  -0.0782532241861031  -0.0586971893163252     23.9882937554717 
1329 CG  -0.0782532241861031  -0.0586971893163252     23.9882937554717 
1330 CG  -0.0782532241861031  -0.0586971893163252     23.9882937554717 
1331 CG  -0.0782532241861031  -0.0586971893163252     23.9882937554717 
1332 CG  -0.0782532241861031  -0.0586971893163252     23.9882937554717 
1333 CG  -0.0782532241861031  -0.0586971893163252     23.9882937554717 
1334 CG  -0.0782532241861031  -0.0586971893163252     23.9882937554717 
1335 CG  -0.0782532241861031  -0.0586971893163252     23.9882937554717 
1336 CG  -0.0782532241861031  -0.0586971893163252     23.9882937554717 
1337 CG  -0.0782532241861031  -0.0586971893163252     23.9882937554717 
1338 CG  -0.0782532241861031  -0.0586971893163252     23.9882937554717 
1339 CG  -0.0782532241861031  -0.0586971893163252     23.9882937554717 
1340 CG  -0.0782532241861031  -0.0586971893163252     23.9882937554717 
1341 CG  -0.0782532241861031  -0.0586971893163252     23.9882937554717 
1342 CG  -0.0782532241861031  -0.0586971893163252     23.9882937554717 
1343 CG  -0.0782532241861031  -0.0586971893163252     23.9882937554717 
1344 CG  -0.0782532241861031  -0.0586971893163252     23.9882937554717 
1345 CG   0.0117006428332888 -0.00139865567115181    -6.69242001410161 
1346 CG   0.0117006428332888 -0.00139865567115181    -6.69242001410161 
1347 CG   0.0117006428332888 -0.00139865567115181    -6.69242001410161 
1348 CG   0.0117006428332888 -0.00139865567115181    -6.69242001410161 
1349 CG   0.0117006428332888 -0.00139865567115181    -6.69242001410161 
1350 CG   0.0117006428332888 -0.00139865567115181    -6.69242001410161 
1351 CG   0.0117006428332888 -0.00139865567115181    -6.69242001410161 
1352 CG   0.0117006428332888 -0.00139865567115181    -6.69242001410161 
1353 CG   0.0117006428332888 -0.00139865567115181    -6.69242001410161 
1354 CG   0.0117006428332888 -0.00139865567115181    -6.69242001410161 
1355 CG   0.0117006428332888 -0.00139865567115181    -6.69242001410161 
1356 CG   0.0117006428332888 -0.00139865567115181    -6.69242001410161 
1357 CG   0.0117006428332888 -0.00139865567115181    -6.69242001410161 
1358 CG   0.0117006428332888 -0.00139865567115181    -6.69242001410161 
1359 CG   0.0117006428332888 -0.00139865567115181    -6.69242001410161 
1360 CG   0.0117006428332888 -0.00139865567115181    -6.69242001410161 
1361 CG   0.0117006428332888 -0.00139865567115181    -6.69242001410161 
1362 CG   0.0117006428332888 -0.00139865567115181    -6.69242001410161 
1363 CG   0.0117006428332888 -0.00139865567115181    -6.69242001410161 
1364 CG   0.0117006428332888 -0.00139865567115181    -6.69242001410161 
1365 CG   0.0117006428332888 -0.00139865567115181    -6.69242001410161 
1366 CG   0.0117006428332888 -0.00139865567115181    -6.69242001410161 
1367 CG   0.0117006428332888 -0.00139865567115181    -6.69242001410161 
1368 CG   0.0117006428332888 -0.00139865567115181    -6.69242001410161 
1369 CG   0.0117006428332888 -0.00139865567115181    -6.69242001410161 
1370 CG   0.0117006428332888 -0.00139865567115181    -6.69242001410161 
1371 CG   0.0117006428332888 -0.00139865567115181    -6.69242001410161 
1372 CG   0.0117006428332888 -0.00139865567115181    -6.69242001410161 
1373 CG   0.0117006428332888 -0.00139865567115181    -6.69242001410161 
1374 CG   0.0117006428332888 -0.00139865567115181    -6.69242001410161 
1375 CG   0.0117006428332888 -0.00139865567115181    -6.69242001410161 
1376 CG   0.0117006428332888 -0.00139865567115181    -6.69242001410161 
1377 CG   0.0117006428332888 -0.00139865567115181    -6.69242001410161 
1378 CG   0.0117006428332888 -0.00139865567115181    -6.69242001410161 
1379 CG   0.0117006428332888 -0.00139865567115181    -6.69242001410161 
1380 CG   0.0117006428332888 -0.00139865567115181    -6.69242001410161 
1381 CG   0.0117006428332888 -0.00139865567115181    -6.69242001410161 
1382 CG   0.0117006428332888 -0.00139865567115181    -6.69242001410161 
1383 CG   0.0117006428332888 -0.00139865567115181    -6.69242001410161 
1384 CG   0.0117006428332888 -0.00139865567115181    -6.69242001410161 
1385 CG   0.0117006428332888 -0.00139865567115181    -6.69242001410161 
1386 CG   0.0117006428332888 -0.00139865567115181    -6.69242001410161 
1387 CG   0.0117006428332888 -0.00139865567115181    -6.69242001410161 
1388 CG   0.0117006428332888 -0.00139865567115181    -6.69242001410161 
1389 CG   0.0117006428332888 -0.00139865567115181    -6.69242001410161 
1390 CG   0.0117006428332888 -0.00139865567115181    -6.69242001410161 
1391 CG   0.0117006428332888 -0.00139865567115181    -6.69242001410161 
1392 CG   0.0117006428332888 -0.00139865567115181    -6.69242001410161 
1393 CG   0.0117006428332888 -0.00139865567115181    -6.69242001410161 
1394 CG   0.0117006428332888 -0.00139865567115181    -6.69242001410161 
1395 CG   0.0117006428332888 -0.00139865567115181    -6.69242001410161 
1396 CG   0.0117006428332888 -0.00139865567115181    -6.69242001410161 
1397 CG   0.0117006428332888 -0.00139865567115181    -6.69242001410161 
1398 CG   0.0117006428332888 -0.00139865567115181    -6.69242001410161 
1399 CG   0.0117006428332888 -0.00139865567115181    -6.69242001410161 
1400 CG   0.0117006428332888 -0.00139865567115181    -6.69242001410161 
1401 CG   0.0117006428332888 -0.00139865567115181    -6.69242001410161 
1402 CG   0.0117006428332888 -0.00139865567115181    -6.69242001410161 
1403 CG   0.0117006428332888 -0.00139865567115181    -6.69242001410161 
1404 CG   0.0117006428332888 -0.00139865567115181    -6.69242001410161 
1405 CG   0.0117006428332888 -0.00139865567115181    -6.69242001410161 
1406 CG   0.0117006428332888 -0.00139865567115181    -6.69242001410161 
1407 CG   0.0117006428332888 -0.00139865567115181    -6.69242001410161 
1408 CG   0.0117006428332888 -0.00139865567115181    -6.69242001410161 
1409 CG   0.0117006428332888 -0.00139865567115181    -6.69242001410161 
1410 CG   0.0117006428332888 -0.00139865567115181    -6.69242001410161 
1411 CG   0.0117006428332888 -0.00139865567115181    -6.69242001410161 
1412 CG   0.0117006428332888 -0.00139865567115181    -6.69242001410161 
1413 CG   0.0117006428332888 -0.00139865567115181    -6.69242001410161 
1414 CG   0.0117006428332888 -0.00139865567115181    -6.69242001410161 
1415 CG   0.0117006428332888 -0.00139865567115181    -6.69242001410161 
1416 CG   0.0117006428332888 -0.00139865567115181    -6.69242001410161 
1417 CG   0.0117006428332888 -0.00139865567115181    -6.69242001410161 
1418 CG   0.0117006428332888 -0.00139865567115181    -6.69242001410161 
1419 CG   0.0117006428332888 -0.00139865567115181    -6.69242001410161 
1420 CG   0.0117006428332888 -0.00139865567115181    -6.69242001410161 
1421 CG   0.0117006428332888 -0.00139865567115181    -6.69242001410161 
1422 CG   0.0117006428332888 -0.00139865567115181    -6.69242001410161 
1423 CG   0.0117006428332888 -0.00139865567115181    -6.69242001410161 
1424 CG   0.0117006428332888 -0.00139865567115181    -6.69242001410161 
1425 CG   0.0117006428332888 -0.00139865567115181    -6.69242001410161 
1426 CG   0.0117006428332888 -0.00139865567115181    -6.69242001410161 
1427 CG   0.0117006428332888 -0.00139865567115181    -6.69242001410161 
1428 CG   0.0117006428332888 -0.00139865567115181    -6.69242001410161 
1429 CG   0.0117006428332888 -0.00139865567115181    -6.69242001410161 
1430 CG   0.0117006428332888 -0.00139865567115181    -6.69242001410161 
1431 CG   0.0117006428332888 -0.00139865567115181    -6.69242001410161 
1432 CG   0.0117006428332888 -0.00139865567115181    -6.69242001410161 
1433 CG   0.0117006428332888 -0.00139865567115181    -6.69242001410161 
1434 CG   0.0117006428332888 -0.00139865567115181    -6.69242001410161 
1435 CG   0.0117006428332888 -0.00139865567115181    -6.69242001410161 
1436 CG   0.0117006428332888 -0.00139865567115181    -6.69242001410161 
1437 CG   0.0117006428332888 -0.00139865567115181    -6.69242001410161 
1438 CG   0.0117006428332888 -0.00139865567115181    -6.69242001410161 
1439 CG   0.0117006428332888 -0.00139865567115181    -6.69242001410161 
1440 CG   0.0117006428332888 -0.00139865567115181    -6.69242001410161 
1441 CG   0.0117006428332888 -0.00139865567115181    -6.69242001410161 
1442 CG   0.0117006428332888 -0.00139865567115181    -6.69242001410161 
1443 CG   0.0117006428332888 -0.00139865567115181    -6.69242001410161 
1444 CG   0.0117006428332888 -0.00139865567115181    -6.69242001410161 
1445 CG   0.0117006428332888 -0.00139865567115181    -6.69242001410161 
1446 CG   0.0117006428332888 -0.00139865567115181    -6.69242001410161 
1447 CG   0.0117006428332888 -0.00139865567115181    -6.69242001410161 
1448 CG   0.0117006428332888 -0.00139865567115181    -6.69242001410161 
1449 CG   0.0117006428332888 -0.00139865567115181    -6.69242001410161 
1450 CG   0.0117006428332888 -0.00139865567115181    -6.69242001410161 
1451 CG   0.0117006428332888 -0.00139865567115181    -6.69242001410161 
1452 CG   0.0117006428332888 -0.00139865567115181    -6.69242001410161 
1453 CG   0.0117006428332888 -0.00139865567115181    -6.69242001410161 
1454 CG   0.0117006428332888 -0.00139865567115181    -6.69242001410161 
1455 CG   0.0117006428332888 -0.00139865567115181    -6.69242001410161 
1456 CG   0.0117006428332888 -0.00139865567115181    -6.69242001410161 
1457 CG   0.0117006428332888 -0.00139865567115181    -6.69242001410161 
1458 CG   0.0117006428332888 -0.00139865567115181    -6.69242001410161 
1459 CG   0.0117006428332888 -0.00139865567115181    -6.69242001410161 
1460 CG   0.0117006428332888 -0.00139865567115181    -6.69242001410161 
1461 CG   0.0117006428332888 -0.00139865567115181    -6.69242001410161 
1462 CG   0.0117006428332888 -0.00139865567115181    -6.69242001410161 
1463 CG   0.0117006428332888 -0.00139865567115181    -6.69242001410161 
1464 CG   0.0117006428332888 -0.00139865567115181    -6.69242001410161 
1465 CG   0.0117006428332888 -0.00139865567115181    -6.69242001410161 
1466 CG   0.0117006428332888 -0.00139865567115181    -6.69242001410161 
1467 CG   0.0117006428332888 -0.00139865567115181    -6.69242001410161 
1468 CG   0.0117006428332888 -0.00139865567115181    -6.69242001410161 
1469 CG   0.0117006428332888 -0.00139865567115181    -6.69242001410161 
1470 CG   0.0117006428332888 -0.00139865567115181    -6.69242001410161 
1471 CG   0.0117006428332888 -0.00139865567115181    -6.69242001410161 
1472 CG   0.0117006428332888 -0.00139865567115181    -6.69242001410161 
1473 CG   0.0117006428332888 -0.00139865567115181    -6.69242001410161 
1474 CG   0.0117006428332888 -0.00139865567115181    -6.69242001410161 
1475 CG   0.0117006428332888 -0.00139865567115181    -6.69242001410161 
1476 CG   0.0117006428332888 -0.00139865567115181    -6.69242001410161 
1477 CG   0.0117006428332888 -0.00139865567115181    -6.69242001410161 
1478 CG   0.0117006428332888 -0.00139865567115181    -6.69242001410161 
1479 CG   0.0117006428332888 -0.00139865567115181    -6.69242001410161 
1480 CG   0.0117006428332888 -0.00139865567115181    -6.69242001410161 
1481 CG   0.0117006428332888 -0.00139865567115181    -6.69242001410161 
1482 CG   0.0117006428332888 -0.00139865567115181    -6.69242001410161 
1483 CG   0.0117006428332888 -0.00139865567115181    -6.69242001410161 
1484 CG   0.0117006428332888 -0.00139865567115181    -6.69242001410161 
1485 CG   0.0117006428332888 -0.00139865567115181    -6.69242001410161 
1486 CG   0.0117006428332888 -0.00139865567115181    -6.69242001410161 
1487 CG   0.0117006428332888 -0.00139865567115181    -6.69242001410161 
1488 CG   0.0117006428332888 -0.00139865567115181    -6.69242001410161 
1489 CG   0.0117006428332888 -0.00139865567115181    -6.69242001410161 
1490 CG   0.0117006428332888 -0.00139865567115181    -6.69242001410161 
1491 CG   0.0117006428332888 -0.00139865567115181    -6.69242001410161 
1492 CG   0.0117006428332888 -0.00139865567115181    -6.69242001410161 
1493 CG   0.0117006428332888 -0.00139865567115181    -6.69242001410161 
1494 CG   0.0117006428332888 -0.00139865567115181    -6.69242001410161 
1495 CG   0.0117006428332888 -0.00139865567115181    -6.69242001410161 
1496 CG   0.0117006428332888 -0.00139865567115181    -6.69242001410161 
1497 CG   0.0117006428332888 -0.00139865567115181    -6.69242001410161 
1498 CG   0.0117006428332888 -0.00139865567115181    -6.69242001410161 
1499 CG   0.0117006428332888 -0.00139865567115181    -6.69242001410161 
1500 CG   0.0117006428332888 -0.00139865567115181    -6.69242001410161 
1501 CG   0.0117006428332888 -0.00139865567115181    -6.69242001410161 
1502 CG   0.0117006428332888 -0.00139865567115181    -6.69242001410161 
1503 CG   0.0117006428332888 -0.00139865567115181    -6.69242001410161 
1504 CG   0.0117006428332888 -0.00139865567115181    -6.69242001410161 
1505 CG   0.0117006428332888 -0.00139865567115181    -6.69242001410161 
1506 CG   0.0117006428332888 -0.00139865567115181    -6.69242001410161 
1507 CG   0.0117006428332888 -0.00139865567115181    -6.69242001410161 
1508 CG   0.0117006428332888 -0.00139865567115181    -6.69242001410161 
1509 CG   0.0117006428332888 -0.00139865567115181    -6.69242001410161 
1510 CG   0.0117006428332888 -0.00139865567115181    -6.69242001410161 
1511 CG   0.0117006428332888 -0.00139865567115181    -6.69242001410161 
1512 CG   0.0117006428332888 -0.00139865567115181    -6.69242001410161 
1513 CG   0.0117006428332888 -0.00139865567115181    -6.69242001410161 
1514 CG   0.0117006428332888 -0.00139865567115181    -6.69242001410161 
1515 CG   0.0117006428332888 -0.00139865567115181    -6.69242001410161 
1516 CG   0.0117006428332888 -0.00139865567115181    -6.69242001410161 
1517 CG   0.0117006428332888 -0.00139865567115181    -6.69242001410161 
1518 CG   0.0117006428332888 -0.00139865567115181    -6.69242001410161 
1519 CG   0.0117006428332888 -0.00139865567115181    -6.69242001410161 
1520 CG   0.0117006428332888 -0.00139865567115181    -6.69242001410161 
1521 CG   0.0117006428332888 -0.00139865567115181    -6.69242001410161 
1522 CG   0.0117006428332888 -0.00139865567115181    -6.69242001410161 
1523 CG   0.0117006428332888 -0.00139865567115181    -6.69242001410161 
1524 CG   0.0117006428332888 -0.00139865567115181    -6.69242001410161 
1525 CG   0.0117006428332888 -0.00139865567115181    -6.69242001410161 
1526 CG   0.0117006428332888 -0.00139865567115181    -6.69242001410161 
1527 CG   0.0117006428332888 -0.00139865567115181    -6.69242001410161 
1528 CG   0.0117006428332888 -0.00139865567115181    -6.69242001410161 
1529 CG   0.0117006428332888 -0.00139865567115181    -6.69242001410161 
1530 CG   0.0117006428332888 -0.00139865567115181    -6.69242001410161 
1531 CG   0.0117006428332888 -0.00139865567115181    -6.69242001410161 
1532 CG   0.0117006428332888 -0.00139865567115181    -6.69242001410161 
1533 CG   0.0117006428332888 -0.00139865567115181    -6.69242001410161 
1534 CG   0.0117006428332888 -0.00139865567115181    -6.69242001410161 
1535 CG   0.0117006428332888 -0.00139865567115181    -6.69242001410161 
1536 CG   0.0117006428332888 -0.00139865567115181    -6.69242001410161 
1537 CG   0.0117006428332888 -0.00139865567115181    -6.69242001410161 
1538 CG   0.0117006428332888 -0.00139865567115181    -6.69242001410161 
1539 CG   0.0117006428332888 -0.00139865567115181    -6.69242001410161 
1540 CG   0.0117006428332888 -0.00139865567115181    -6.69242001410161 
1541 CG   0.0117006428332888 -0.00139865567115181    -6.69242001410161 
1542 CG   0.0117006428332888 -0.00139865567115181    -6.69242001410161 
1543 CG   0.0117006428332888 -0.00139865567115181    -6.69242001410161 
1544 CG   0.0117006428332888 -0.00139865567115181    -6.69242001410161 
1545 CG   0.0117006428332888 -0.00139865567115181    -6.69242001410161 
1546 CG   0.0117006428332888 -0.00139865567115181    -6.69242001410161 
1547 CG   0.0117006428332888 -0.00139865567115181    -6.69242001410161 
1548 CG   0.0117006428332888 -0.00139865567115181    -6.69242001410161 
1549 CG   0.0117006428332888 -0.00139865567115181    -6.69242001410161 
1550 CG   0.0117006428332888 -0.00139865567115181    -6.69242001410161 
1551 CG   0.0117006428332888 -0.00139865567115181    -6.69242001410161 
1552 CG   0.0117006428332888 -0.00139865567115181    -6.69242001410161 
1553 CG   0.0117006428332888 -0.00139865567115181    -6.69242001410161 
1554 CG   0.0117006428332888 -0.00139865567115181    -6.69242001410161 
1555 CG   0.0117006428332888 -0.00139865567115181    -6.69242001410161 
1556 CG   0.0117006428332888 -0.00139865567115181    -6.69242001410161 
1557 CG   0.0117006428332888 -0.00139865567115181    -6.69242001410161 
1558 CG   0.0117006428332888 -0.00139865567115181    -6.69242001410161 
1559 CG   0.0117006428332888 -0.00139865567115181    -6.69242001410161 
1560 CG   0.0117006428332888 -0.00139865567115181    -6.69242001410161 
1561 CG   0.0117006428332888 -0.00139865567115181    -6.69242001410161 
1562 CG   0.0117006428332888 -0.00139865567115181    -6.69242001410161 
1563 CG   0.0117006428332888 -0.00139865567115181    -6.69242001410161 
1564 CG   0.0117006428332888 -0.00139865567115181    -6.69242001410161 
1565 CG   0.0117006428332888 -0.00139865567115181    -6.69242001410161 
1566 CG   0.0117006428332888 -0.00139865567115181    -6.69242001410161 
1567 CG   0.0117006428332888 -0.00139865567115181    -6.69242001410161 
1568 CG   0.0117006428332888 -0.00139865567115181    -6.69242001410161 
1569 CG   0.0117006428332888 -0.00139865567115181    -6.69242001410161 
1570 CG   0.0117006428332888 -0.00139865567115181    -6.69242001410161 
1571 CG   0.0117006428332888 -0.00139865567115181    -6.69242001410161 
1572 CG   0.0117006428332888 -0.00139865567115181    -6.69242001410161 
1573 CG   0.0117006428332888 -0.00139865567115181    -6.69242001410161 
1574 CG   0.0117006428332888 -0.00139865567115181    -6.69242001410161 
1575 CG   0.0117006428332888 -0.00139865567115181    -6.69242001410161 
1576 CG   0.0117006428332888 -0.00139865567115181    -6.69242001410161 
1577 CG   0.0117006428332888 -0.00139865567115181    -6.69242001410161 
1578 CG   0.0117006428332888 -0.00139865567115181    -6.69242001410161 
1579 CG   0.0117006428332888 -0.00139865567115181    -6.69242001410161 
1580 CG   0.0117006428332888 -0.00139865567115181    -6.69242001410161 
1581 CG   0.0117006428332888 -0.00139865567115181    -6.69242001410161 
1582 CG   0.0117006428332888 -0.00139865567115181    -6.69242001410161 
1583 CG   0.0117006428332888 -0.00139865567115181    -6.69242001410161 
1584 CG   0.0117006428332888 -0.00139865567115181    -6.69242001410161 
1585 CG   0.0117006428332888 -0.00139865567115181    -6.69242001410161 
1586 CG   0.0117006428332888 -0.00139865567115181    -6.69242001410161 
1587 CG   0.0117006428332888 -0.00139865567115181    -6.69242001410161 
1588 CG   0.0117006428332888 -0.00139865567115181    -6.69242001410161 
1589 CG   0.0117006428332888 -0.00139865567115181    -6.69242001410161 
1590 CG   0.0117006428332888 -0.00139865567115181    -6.69242001410161 
1591 CG   0.0117006428332888 -0.00139865567115181    -6.69242001410161 
1592 CG   0.0117006428332888 -0.00139865567115181    -6.69242001410161 
1593 CG   0.0117006428332888 -0.00139865567115181    -6.69242001410161 
1594 CG   0.0117006428332888 -0.00139865567115181    -6.69242001410161 
1595 CG   0.0117006428332888 -0.00139865567115181    -6.69242001410161 
1596 CG   0.0117006428332888 -0.00139865567115181    -6.69242001410161 
1597 CG   0.0117006428332888 -0.00139865567115181    -6.69242001410161 
1598 CG   0.0117006428332888 -0.00139865567115181    -6.69242001410161 
1599 CG   0.0117006428332888 -0.00139865567115181    -6.69242001410161 
1600 CG   0.0117006428332888 -0.00139865567115181    -6.69242001410161 
1601 CG   0.0117006428332888 -0.00139865567115181    -6.69242001410161 
1602 CG   0.0117006428332888 -0.00139865567115181    -6.69242001410161 
1603 CG   0.0117006428332888 -0.00139865567115181    -6.69242001410161 
1604 CG   0.0117006428332888 -0.00139865567115181    -6.69242001410161 
1605 CG   0.0117006428332888 -0.00139865567115181    -6.69242001410161 
1606 CG   0.0117006428332888 -0.00139865567115181    -6.69242001410161 
1607 CG   0.0117006428332888 -0.00139865567115181    -6.69242001410161 
1608 CG   0.0117006428332888 -0.00139865567115181    -6.69242001410161 
1609 CG   0.0117006428332888 -0.00139865567115181    -6.69242001410161 
1610 CG   0.0117006428332888 -0.00139865567115181    -6.69242001410161 
1611 CG   0.0117006428332888 -0.00139865567115181    -6.69242001410161 
1612 CG   0.0117006428332888 -0.00139865567115181    -6.69242001410161 
1613 CG   0.0117006428332888 -0.00139865567115181    -6.69242001410161 
1614 CG   0.0117006428332888 -0.00139865567115181    -6.69242001410161 
1615 CG   0.0117006428332888 -0.00139865567115181    -6.69242001410161 
1616 CG   0.0117006428332888 -0.00139865567115181    -6.69242001410161 
1617 CG   0.0117006428332888 -0.00139865567115181    -6.69242001410161 
1618 CG   0.0117006428332888 -0.00139865567115181    -6.69242001410161 
1619 CG   0.0117006428332888 -0.00139865567115181    -6.69242001410161 
1620 CG   0.0117006428332888 -0.00139865567115181    -6.69242001410161 
1621 CG   0.0117006428332888 -0.00139865567115181    -6.69242001410161 
1622 CG   0.0117006428332888 -0.00139865567115181    -6.69242001410161 
1623 CG   0.0117006428332888 -0.00139865567115181    -6.69242001410161 
1624 CG   0.0117006428332888 -0.00139865567115181    -6.69242001410161 
1625 CG   0.0117006428332888 -0.00139865567115181    -6.69242001410161 
1626 CG   0.0117006428332888 -0.00139865567115181    -6.69242001410161 
1627 CG   0.0117006428332888 -0.00139865567115181    -6.69242001410161 
1628 CG   0.0117006428332888 -0.00139865567115181    -6.69242001410161 
1629 CG   0.0117006428332888 -0.00139865567115181    -6.69242001410161 
1630 CG   0.0117006428332888 -0.00139865567115181    -6.69242001410161 
1631 CG   0.0117006428332888 -0.00139865567115181    -6.69242001410161 
1632 CG   0.0117006428332888 -0.00139865567115181    -6.69242001410161 
1633 CG   0.0117006428332888 -0.00139865567115181    -6.69242001410161 
1634 CG   0.0117006428332888 -0.00139865567115181    -6.69242001410161 
1635 CG   0.0117006428332888 -0.00139865567115181    -6.69242001410161 
1636 CG   0.0117006428332888 -0.00139865567115181    -6.69242001410161 
1637 CG   0.0117006428332888 -0.00139865567115181    -6.69242001410161 
1638 CG   0.0117006428332888 -0.00139865567115181    -6.69242001410161 
1639 CG   0.0117006428332888 -0.00139865567115181    -6.69242001410161 
1640 CG   0.0117006428332888 -0.00139865567115181    -6.69242001410161 
1641 CG   0.0117006428332888 -0.00139865567115181    -6.69242001410161 
1642 CG   0.0117006428332888 -0.00139865567115181    -6.69242001410161 
1643 CG   0.0117006428332888 -0.00139865567115181    -6.69242001410161 
1644 CG   0.0117006428332888 -0.00139865567115181    -6.69242001410161 
1645 CG   0.0117006428332888 -0.00139865567115181    -6.69242001410161 
1646 CG   0.0117006428332888 -0.00139865567115181    -6.69242001410161 
1647 CG   0.0117006428332888 -0.00139865567115181    -6.69242001410161 
1648 CG   0.0117006428332888 -0.00139865567115181    -6.69242001410161 
1649 CG   0.0117006428332888 -0.00139865567115181    -6.69242001410161 
1650 CG   0.0117006428332888 -0.00139865567115181    -6.69242001410161 
1651 CG   0.0117006428332888 -0.00139865567115181    -6.69242001410161 
1652 CG   0.0117006428332888 -0.00139865567115181    -6.69242001410161 
1653 CG   0.0117006428332888 -0.00139865567115181    -6.69242001410161 
1654 CG   0.0117006428332888 -0.00139865567115181    -6.69242001410161 
1655 CG   0.0117006428332888 -0.00139865567115181    -6.69242001410161 
1656 CG   0.0117006428332888 -0.00139865567115181    -6.69242001410161 
1657 CG   0.0117006428332888 -0.00139865567115181    -6.69242001410161 
1658 CG   0.0117006428332888 -0.00139865567115181    -6.69242001410161 
1659 CG   0.0117006428332888 -0.00139865567115181    -6.69242001410161 
1660 CG   0.0117006428332888 -0.00139865567115181    -6.69242001410161 
1661 CG   0.0117006428332888 -0.00139865567115181    -6.69242001410161 
1662 CG   0.0117006428332888 -0.00139865567115181    -6.69242001410161 
1663 CG   0.0117006428332888 -0.00139865567115181    -6.69242001410161 
1664 CG   0.0117006428332888 -0.00139865567115181    -6.69242001410161 
1665 CG   0.0117006428332888 -0.00139865567115181    -6.69242001410161 
1666 CG   0.0117006428332888 -0.00139865567115181    -6.69242001410161 
1667 CG   0.0117006428332888 -0.00139865567115181    -6.69242001410161 
1668 CG   0.0117006428332888 -0.00139865567115181    -6.69242001410161 
1669 CG   0.0117006428332888 -0.00139865567115181    -6.69242001410161 
1670 CG   0.0117006428332888 -0.00139865567115181    -6.69242001410161 
1671 CG   0.0117006428332888 -0.00139865567115181    -6.69242001410161 
1672 CG   0.0117006428332888 -0.00139865567115181    -6.69242001410161 
1673 CG   0.0117006428332888 -0.00139865567115181    -6.69242001410161 
1674 CG   0.0117006428332888 -0.00139865567115181    -6.69242001410161 
1675 CG   0.0117006428332888 -0.00139865567115181    -6.69242001410161 
1676 CG   0.0117006428332888 -0.00139865567115181    -6.69242001410161 
1677 CG   0.0117006428332888 -0.00139865567115181    -6.69242001410161 
1678 CG   0.0117006428332888 -0.00139865567115181    -6.69242001410161 
1679 CG   0.0117006428332888 -0.00139865567115181    -6.69242001410161 
1680 CG   0.0117006428332888 -0.00139865567115181    -6.69242001410161 
1681 CG   0.0117006428332888 -0.00139865567115181    -6.69242001410161 
1682 CG   0.0117006428332888 -0.00139865567115181    -6.69242001410161 
1683 CG   0.0117006428332888 -0.00139865567115181    -6.69242001410161 
1684 CG   0.0117006428332888 -0.00139865567115181    -6.69242001410161 
1685 CG   0.0117006428332888 -0.00139865567115181    -6.69242001410161 
1686 CG   0.0117006428332888 -0.00139865567115181    -6.69242001410161 
1687 CG   0.0117006428332888 -0.00139865567115181    -6.69242001410161 
1688 CG   0.0117006428332888 -0.00139865567115181    -6.69242001410161 
1689 CG   0.0117006428332888 -0.00139865567115181    -6.69242001410161 
1690 CG   0.0117006428332888 -0.00139865567115181    -6.69242001410161 
1691 CG   0.0117006428332888 -0.00139865567115181    -6.69242001410161 
1692 CG   0.0117006428332888 -0.00139865567115181    -6.69242001410161 
1693 CG   0.0117006428332888 -0.00139865567115181    -6.69242001410161 
1694 CG   0.0117006428332888 -0.00139865567115181    -6.69242001410161 
1695 CG   0.0117006428332888 -0.00139865567115181    -6.69242001410161 
1696 CG   0.0117006428332888 -0.00139865567115181    -6.69242001410161 
1697 CG   0.0117006428332888 -0.00139865567115181    -6.69242001410161 
1698 CG   0.0117006428332888 -0.00139865567115181    -6.69242001410161 
1699 CG   0.0117006428332888 -0.00139865567115181    -6.69242001410161 
1700 CG   0.0117006428332888 -0.00139865567115181    -6.69242001410161 
1701 CG   0.0117006428332888 -0.00139865567115181    -6.69242001410161 
1702 CG   0.0117006428332888 -0.00139865567115181    -6.69242001410161 
1703 CG   0.0117006428332888 -0.00139865567115181    -6.69242001410161 
1704 CG   0.0117006428332888 -0.00139865567115181    -6.69242001410161 
1705 CG   0.0117006428332888 -0.00139865567115181    -6.69242001410161 
1706 CG   0.0117006428332888 -0.00139865567115181    -6.69242001410161 
1707 CG   0.0117006428332888 -0.00139865567115181    -6.69242001410161 
1708 CG   0.0117006428332888 -0.00139865567115181    -6.69242001410161 
1709 CG   0.0117006428332888 -0.00139865567115181    -6.69242001410161 
1710 CG   0.0117006428332888 -0.00139865567115181    -6.69242001410161 
1711 CG   0.0117006428332888 -0.00139865567115181    -6.69242001410161 
1712 CG   0.0117006428332888 -0.00139865567115181    -6.69242001410161 
1713 CG   0.0117006428332888 -0.00139865567115181    -6.69242001410161 
1714 CG   0.0117006428332888 -0.00139865567115181    -6.69242001410161 
1715 CG   0.0117006428332888 -0.00139865567115181    -6.69242001410161 
1716 CG   0.0117006428332888 -0.00139865567115181    -6.69242001410161 
1717 CG   0.0117006428332888 -0.00139865567115181    -6.69242001410161 
1718 CG   0.0117006428332888 -0.00139865567115181    -6.69242001410161 
1719 CG   0.0117006428332888 -0.00139865567115181    -6.69242001410161 
1720 CG   0.0117006428332888 -0.00139865567115181    -6.69242001410161 
1721 CG   0.0117006428332888 -0.00139865567115181    -6.69242001410161 
1722 CG   0.0117006428332888 -0.00139865567115181    -6.69242001410161 
1723 CG   0.0117006428332888 -0.00139865567115181    -6.69242001410161 
1724 CG   0.0117006428332888 -0.00139865567115181    -6.69242001410161 
1725 CG   0.0117006428332888 -0.00139865567115181    -6.69242001410161 
1726 CG   0.0117006428332888 -0.00139865567115181    -6.69242001410161 
1727 CG   0.0117006428332888 -0.00139865567115181    -6.69242001410161 
1728 CG   0.0117006428332888 -0.00139865567115181    -6.69242001410161 
