# Electrode atom charges in atomic unit
# -------------------------------------
# Charge:   1 au = 1.602176565e-19 C = 1 e
# step        0
-1.253216170750795E-003
-7.088363792646055E-004
-1.075928941392343E-003
+6.569760607445138E-004
+4.611139490474252E-004
+1.960479939308483E-003
+1.999747100822103E-003
+1.676335688188819E-003
+1.253814842329635E-003
+8.480568390118968E-004
+1.730083182022920E-004
-1.366693179145246E-004
+1.265571900969248E-004
+2.652634067041798E-004
+5.843286986979807E-004
+1.189339784709938E-003
+1.547877242338000E-003
+4.595707699738403E-004
+1.002282865738941E-003
+2.770689295024344E-004
+6.110526832939229E-004
+1.340434391175934E-003
+8.114112776129275E-004
+1.119865061119456E-003
+1.096018473852373E-003
+8.844254227630286E-004
+4.995971621113746E-004
+9.092075561128343E-004
+6.956526349762266E-004
+1.543776386747849E-004
-4.126652928138353E-004
+3.052940471587722E-004
+1.664834446456695E-003
+3.058834420702897E-003
+2.390559826570882E-003
+2.587960186122420E-003
+1.638669645288397E-003
+4.679283480334060E-006
+6.509800549042374E-004
+4.831609024091608E-006
+1.156282460436713E-003
-3.494495251980630E-004
-2.929433465680857E-004
-1.187087936395550E-003
+1.229693191108913E-003
+1.247647571565122E-003
+3.345961679177841E-003
+2.220245315036245E-003
+2.606782444454151E-004
-1.851108333466396E-003
-2.081347256880931E-003
-2.856702892330351E-003
-1.326486185781546E-003
-2.694214795598752E-003
-2.778869433222038E-003
-3.257664772415571E-003
-1.603003215992009E-003
-1.975092973764413E-003
+3.397293450150719E-004
-5.665832673601352E-004
-1.269815055398525E-003
-1.447412888393919E-003
-2.288730476408657E-003
-1.706352861753373E-003
-2.164476956541948E-003
-5.518378574078656E-005
-1.911660017512350E-003
+1.916078618494952E-004
-2.388231258133948E-003
-7.368889594854905E-004
-1.511264180329909E-003
-9.599076322144328E-004
-2.826418503890637E-003
-4.386131689432199E-005
+1.398638055783367E-003
-2.333395499622515E-003
-1.572154391707932E-003
-3.643745872807495E-003
-5.694149663317426E-003
+1.013565284570155E-003
-3.336478601214980E-004
-3.481476445346681E-003
-8.845424140811562E-004
+3.409404533759604E-003
+2.545030371324343E-003
-1.683911804419572E-003
-5.770454332048982E-004
+1.198690509024568E-003
+3.459343558972930E-003
+1.502391252767681E-003
-9.176551518795276E-004
+6.033118980960910E-005
+4.883876363467596E-003
+3.971695028128333E-003
-6.267361502929294E-003
-6.232414730994501E-003
-7.185778487398934E-006
+2.568770396093753E-003
-1.309974860922964E-003
+1.503616369479510E-003
-4.606651386562928E-003
-2.758133548293647E-003
+1.974281446096947E-003
-4.122802092399067E-003
-2.946069909480411E-003
-7.640707714959183E-003
+3.101530463211215E-003
-1.081542710815606E-003
-1.882036734362989E-003
-1.454077728724835E-003
+2.224386796621453E-004
-1.168195882635500E-003
-1.542022990389607E-003
-1.152067261222838E-003
+7.071459845696732E-004
+2.086123676842978E-003
-3.699478804172763E-003
+1.086301793907094E-004
-1.206947847588063E-003
-6.586664979571524E-003
-5.426353982594549E-003
-1.713178622515482E-003
+3.636419745245826E-003
-8.141350692638970E-004
+2.354065248809490E-003
-3.427625264990517E-003
+4.465089967742575E-003
+9.229832309514444E-004
-1.837855498140943E-003
+8.259929501297584E-005
+4.226693629983587E-003
+7.343313665244476E-003
+1.095006116610752E-003
+3.825142673760302E-003
+1.536791333290079E-003
+3.888651225335213E-004
+1.040186177843861E-002
-1.482346322537045E-003
-9.914162675262203E-003
+4.425728161480587E-003
+8.654011162744025E-003
+9.315173425509242E-006
-7.774108872394585E-004
-2.384507993308304E-003
+4.324885296969876E-002
-1.017777526536313E-002
+3.088589461953674E-003
-3.035080854024784E-002
-3.305096439691307E-002
-4.242530163273421E-002
-5.125814243504236E-002
-9.358628160555837E-003
-2.452031500779968E-002
-2.252271172227382E-003
-1.558876518238444E-002
+9.740620787015488E-003
-3.328113640348748E-002
+3.432344107729210E-002
-5.336908732717019E-004
+6.135395210715043E-002
+5.538034206678911E-002
-9.769945751242723E-003
-4.110808694370370E-002
-2.205955719878101E-002
+3.485264516464508E-002
-4.063263995162248E-002
-5.554716059991534E-002
-2.410542562484103E-002
-1.124151832360081E-002
-8.044437874810791E-003
+2.862993899466559E-002
-3.296079566772649E-002
-2.922924864638515E-002
-6.691893796280791E-002
-1.820141988634135E-002
+2.054325560053846E-002
-9.081865241108468E-002
-3.230900908415769E-002
-4.917584447655381E-002
-3.462781154932781E-002
-7.876504364124650E-003
-1.142148432749759E-002
-1.705521916868430E-002
-3.561243395361997E-003
-4.396869322066697E-002
-1.762082782362813E-002
-9.788234636521887E-004
+3.914971695617447E-002
-9.464023071476500E-003
+1.305222528389198E-002
-5.642515239736757E-002
-3.717283435095342E-002
-5.578828002658984E-002
-3.550841471795906E-003
-8.383021196709219E-003
+4.173290459998715E-002
-2.620932178675069E-002
+7.057474222026945E-003
+2.215925438959110E-002
+4.573213058355782E-002
-1.108250891138106E-002
-3.232169049095521E-002
+5.993841719084404E-002
+1.317260370636996E-002
+1.953541858576319E-003
+3.725398353573578E-002
-8.565401887770516E-004
+2.803348374083164E-002
+2.889046789767169E-002
+1.360396279504058E-002
-7.781354831854687E-003
-3.320810209562826E-002
+2.674074545336008E-002
-1.806815661836430E-002
-1.440774621478802E-002
+6.610323830245709E-003
-4.505214885786930E-002
-2.676518485493165E-002
-8.124843719267198E-003
+3.443449339469178E-002
+2.539669687131569E-002
+8.123121627837923E-002
+6.613912282645938E-002
+7.676151242747042E-002
+7.160531682175891E-002
+4.247110370464013E-002
+3.806108564818438E-002
-1.223823886061575E-002
+2.531313982133722E-002
-1.621794090428663E-002
+3.711506504577982E-002
+5.952810040317227E-002
+4.414993887453291E-002
+1.716807222014577E-002
+1.435722045676590E-003
+1.973918494866405E-002
-9.096995251901469E-003
+1.766812558792192E-002
+1.044845201987058E-002
+3.894044284161605E-002
+8.641250451583567E-003
+8.880349276681734E-003
-1.281534367931961E-002
-2.662281289261287E-002
-5.430958038710739E-003
-3.462884598828725E-002
-1.444583744221080E-002
+1.522585686683927E-002
+5.086165086182144E-002
+7.874263233786902E-002
+6.355811322109783E-002
+3.232602010371551E-002
+2.525683886665342E-002
+9.739473560276891E-003
+5.602140405961833E-003
+2.485154251253654E-002
+5.746951190078863E-002
+5.746673827525690E-003
+2.232945680870817E-002
+8.309575543263658E-003
+2.251115733306015E-002
+2.679381823221730E-002
+9.379453728828722E-002
+5.514310521613616E-002
+2.788532056436319E-002
-2.770700074729529E-002
-6.801217449960237E-002
-7.310028193968514E-002
-2.224695021573702E-002
-3.440737150438036E-002
-9.876465932186831E-002
-8.388948773880062E-002
+2.354820814223951E-002
-8.619134681539227E-002
+2.827701230757403E-002
+1.712095483365576E-002
-1.871907487425903E-002
+2.839328165549338E-002
-2.803218545234437E-002
-9.924085782149115E-003
-4.419341485403042E-002
+3.702248311275149E-002
-1.394225408455133E-002
+2.141626365049226E-002
-7.659275723763306E-002
-3.572775237467035E-003
-2.557361149137571E-002
-2.927905706872955E-002
-9.286048553258957E-004
-1.998067465032998E-003
+5.072542407007362E-003
-3.689535144979260E-003
-1.789081211144938E-003
+7.067563289234120E-003
+7.354230746786008E-003
+1.959965274319521E-003
+4.437837591951553E-003
+3.929821295733008E-003
+2.995492883056574E-003
-8.799630854863713E-004
+2.492160399835105E-003
-3.587180280718164E-003
-2.366651688844458E-003
+8.612772332001124E-003
+8.240698413891800E-003
-2.306664600154672E-003
-1.134439289489849E-003
-1.478722769182358E-003
+6.232280635104643E-003
+1.494942512681085E-004
-2.883220254110305E-003
+3.291463875648071E-003
-2.886580079830453E-003
+1.638080512749538E-003
+2.153125238568033E-003
-5.018602902103222E-004
+6.785771001104223E-004
-2.179743333294844E-003
-3.265074546156300E-003
-1.505223606963001E-004
-2.290668030099119E-003
+3.617381122837529E-003
+5.547548116004595E-003
-2.902479761032854E-003
+2.271522933874830E-003
+1.273110200503234E-003
-3.173854266928275E-003
+3.036511463951753E-003
+4.975656829977859E-003
+1.662327857924020E-003
-3.871866781235787E-005
+1.974537325294965E-003
+1.841536442545294E-003
+4.690311921078138E-003
+7.899195071819357E-004
+7.211659630891112E-003
-2.564173745128842E-003
-1.364697562071100E-003
-6.833272347134239E-003
-4.976993405033671E-003
+1.845387777133157E-004
-6.522092334117292E-003
-9.993407545476138E-003
+1.686974359041984E-003
-2.567938376514686E-003
+1.615270724932965E-004
+6.133981569217218E-004
+3.100921836370778E-003
-5.395027226486818E-004
+2.332871569431513E-003
-3.266858775043804E-003
+7.329554971075723E-004
-1.791275742060095E-003
-1.112247153496852E-004
+6.352885493951104E-004
+2.515896969199872E-003
-9.904325455225985E-004
-8.748197619989352E-003
+1.946309724803144E-003
-1.220619076456521E-003
+1.531771193265043E-003
+9.328914634662847E-004
+1.036060717719851E-003
+1.283875076109392E-004
-6.352568080950780E-004
-1.546173257394565E-003
-1.789755321946513E-003
-9.168560939710498E-004
-3.746026831954670E-004
-4.813584654305374E-004
-4.210497411782161E-005
+1.399100949427002E-004
+7.901015893223789E-005
+1.304446700016311E-003
+9.407026447549633E-004
+9.058249221851299E-004
-4.113776867696288E-005
-7.141920791530558E-004
-9.477296038598768E-004
-8.531496964270552E-004
-3.061862873132912E-004
-1.893360620131721E-003
-1.353371465702362E-003
-1.494180116451630E-003
+5.860032579410544E-005
+2.800306930069200E-004
+1.252172673565255E-003
-7.000943689435059E-004
-7.677953239330642E-004
-1.587488372039113E-003
-1.206203212589451E-003
-6.488110059645974E-004
-1.819528389047821E-003
-2.020136110078472E-003
-2.600617522276749E-003
-1.642038729451593E-003
-1.158430074592744E-003
-9.562650588359923E-004
-6.378913882038220E-004
-8.199647430355284E-004
-1.643514659873787E-003
+2.504070333484143E-004
+9.430899178868181E-005
+1.607265694206902E-003
-5.308550211485346E-005
+1.337494586847915E-004
-1.565537939661256E-003
-1.163335713170846E-003
-8.775265143307753E-004
+4.935041130648641E-004
-2.436294779354740E-005
+1.381925045651583E-003
+5.993102807984695E-004
+1.805233482158665E-003
+2.443483419971774E-003
+2.441542659470369E-003
+1.374912841326758E-003
+1.127022211279192E-003
+3.675662249269726E-004
+1.868856809564501E-004
+9.924766557150957E-004
+1.679980386005521E-003
+1.677658987306438E-003
+1.126575379951251E-003
+1.571425243000723E-003
-4.352017334665076E-004
+1.162123254208864E-003
+1.914533948561856E-005
+1.351485913932919E-003
+4.375020420505895E-005
+4.032435808421654E-004
+9.433330963788941E-004

# step        1
-1.281494509924517E-003
-7.157253384993816E-004
-1.044334841715623E-003
+6.864343933703334E-004
+5.309476703705022E-004
+1.996457761344255E-003
+2.028307277363451E-003
+1.747808092117026E-003
+1.281155373280065E-003
+8.928884378796303E-004
+1.566118006254394E-004
-1.624409582859096E-004
+6.187524336456460E-005
+1.900656649796518E-004
+5.422873826031818E-004
+1.155490501785871E-003
+1.567740644149165E-003
+5.281082297782993E-004
+1.097324897210132E-003
+3.979031280268808E-004
+7.284926473328858E-004
+1.369078161971450E-003
+7.997435831268140E-004
+1.048838495736879E-003
+1.054042050457857E-003
+8.564854030840392E-004
+4.388266648183848E-004
+8.764000447829926E-004
+7.017457000425345E-004
+1.794498640659516E-004
-3.441555017364123E-004
+2.941082571597619E-004
+1.687212886369546E-003
+3.002830771711248E-003
+2.348847467852455E-003
+2.569335885616846E-003
+1.665251642663655E-003
+4.669080148058036E-005
+6.481396546547678E-004
+1.652572925837004E-005
+1.160904479327652E-003
-2.937117219361878E-004
-2.696671664090551E-004
-1.202087644006419E-003
+1.142642623062027E-003
+1.160961659032910E-003
+3.316680664713933E-003
+2.242566657879985E-003
+2.649416515914701E-004
-1.892605031774727E-003
-2.071252239335634E-003
-2.884772552475324E-003
-1.308468783811712E-003
-2.669223338257509E-003
-2.718270547640395E-003
-3.234186485586020E-003
-1.660296239250655E-003
-1.998460592038257E-003
+3.122487468668466E-004
-6.011515120517989E-004
-1.355849097753468E-003
-1.493029054799713E-003
-2.336741704521642E-003
-1.663474451690715E-003
-2.157469602420090E-003
-1.585418887278780E-005
-1.871834971257979E-003
+2.259265608696220E-004
-2.362501827553463E-003
-7.367118759606750E-004
-1.541189819575895E-003
-1.026266108711241E-003
-2.853839144302011E-003
-1.019268698622676E-004
+1.426832529750565E-003
-2.383243725710939E-003
-1.684894940648107E-003
-3.561554925377923E-003
-5.640712716928406E-003
+1.068830653756069E-003
-3.112025578614564E-004
-3.429963815352316E-003
-9.030281690949384E-004
+3.500417332566920E-003
+2.472329267982005E-003
-1.654823872148864E-003
-4.421945724804474E-004
+1.126376511429878E-003
+3.450223311700120E-003
+1.435933768576144E-003
-9.507801730931151E-004
+9.835615656976335E-007
+4.623424582804945E-003
+3.914990231994128E-003
-6.130160286351621E-003
-6.081713376971247E-003
+1.140031984939297E-004
+2.553827950780555E-003
-1.322252703612785E-003
+1.538762566580911E-003
-4.638509702572926E-003
-2.732798340080160E-003
+1.965185992236266E-003
-4.106225974138186E-003
-2.892782120688865E-003
-8.165423930951004E-003
+2.706785788765344E-003
-9.792150578762000E-004
-1.746817307720419E-003
-1.414009094645088E-003
+2.671056845383712E-004
-1.203787356907777E-003
-1.602708752431154E-003
-1.299580595559300E-003
+6.677590003919174E-004
+2.122078927131237E-003
-3.701136258569203E-003
+2.325660275923078E-004
-1.093037596976156E-003
-6.448024995921226E-003
-5.037216444626011E-003
-1.795347437841955E-003
+3.476918326889278E-003
-8.928654973622349E-004
+2.311682777627243E-003
-3.202767186375088E-003
+4.542643975948567E-003
+9.041305920744625E-004
-1.796751684601978E-003
+9.910431190642929E-005
+4.081696992463955E-003
+7.371014809249711E-003
+1.067638819753723E-003
+3.731886818881135E-003
+1.518648472772558E-003
+4.084757988484544E-004
+1.039482834123466E-002
-1.563360322191817E-003
-9.967870198241798E-003
+4.297631122232989E-003
+8.681354275300195E-003
-1.035573320404945E-005
-6.713258528832440E-004
-2.265858457247368E-003
+4.181503474538661E-002
-1.106367532585522E-002
+3.607626110762621E-003
-3.065555301645930E-002
-3.517576293471366E-002
-4.285242002997491E-002
-5.119087321823970E-002
-9.610442204791731E-003
-2.250141064389385E-002
-2.667629765562827E-003
-1.472264035183732E-002
+1.010192618021375E-002
-3.307326775817258E-002
+3.493312848947690E-002
-1.023480248448733E-004
+6.121270414806296E-002
+5.332001116328178E-002
-9.970885592803043E-003
-4.198243256389324E-002
-2.426996535437633E-002
+3.409164336132273E-002
-4.164205609308162E-002
-5.266712264832264E-002
-2.277072623663248E-002
-1.187801018995261E-002
-8.661442827321866E-003
+2.911007863580304E-002
-3.299838266113004E-002
-2.800224977097395E-002
-6.887831941604056E-002
-1.863079578892281E-002
+2.198209032504885E-002
-9.232376576012978E-002
-3.521410110350161E-002
-5.167478951763132E-002
-3.436508448394007E-002
-5.129135211233303E-003
-1.043957329418824E-002
-1.668344759788212E-002
-5.450357317676236E-003
-4.612211280055881E-002
-1.913867771107173E-002
-2.567320840431518E-003
+3.880662545242502E-002
-7.464605904148085E-003
+1.476680388190678E-002
-5.606805713733999E-002
-3.291425831126191E-002
-5.193601733550354E-002
-3.955011346871283E-003
-1.011539414366087E-002
+4.055015098080454E-002
-2.782620268482831E-002
+8.196032087892166E-003
+2.356011304233634E-002
+4.591258995500124E-002
-1.247088704391464E-002
-3.343114378769837E-002
+5.929816732411246E-002
+1.473626496084898E-002
+4.052172150501180E-003
+3.452328356091265E-002
-2.675980860005263E-003
+2.674791531993463E-002
+2.811249861555421E-002
+1.284967524154878E-002
-8.324758051419752E-003
-3.657204378490109E-002
+2.564169256075190E-002
-1.694470598819611E-002
-1.420020038797941E-002
+8.895986187364599E-003
-4.337200947410472E-002
-2.576002421343102E-002
-6.572227941988977E-003
+3.505266690216045E-002
+2.639904050977573E-002
+7.959144845148138E-002
+6.531307528240243E-002
+7.792098326487519E-002
+7.172532710223153E-002
+4.444522083492126E-002
+3.840385877974516E-002
-1.032159959326673E-002
+2.379561405791316E-002
-1.822788819095548E-002
+3.494698489050637E-002
+6.023393893163059E-002
+4.483269133778779E-002
+1.933270159705935E-002
+2.875483537132414E-003
+2.313678955009951E-002
-4.528025290146258E-003
+1.933136498883355E-002
+1.141954320368397E-002
+3.634004985581870E-002
+1.010510916581002E-002
+9.318611718524264E-003
-1.285207784541236E-002
-2.913761761341812E-002
-3.254822331014327E-003
-3.692001868636927E-002
-1.322647202679167E-002
+1.498054763138087E-002
+5.117769353870125E-002
+7.711141890974633E-002
+6.392917380596903E-002
+3.354815720808246E-002
+2.722251317965685E-002
+1.203951784537544E-002
+6.370259333047367E-003
+2.532581305825868E-002
+5.637697650609420E-002
+7.786381977370064E-003
+2.117642120411549E-002
+9.404583766423299E-003
+1.945097238263473E-002
+2.664202064149128E-002
+9.402899195747925E-002
+5.658193404290162E-002
+2.892679115704151E-002
-2.801031318213859E-002
-6.870815626543642E-002
-7.430853262133939E-002
-2.277884821379879E-002
-3.670812326207869E-002
-9.530899046323761E-002
-8.262318580673751E-002
+1.880600517440527E-002
-8.567960726243209E-002
+2.803090975417473E-002
+1.594517695972456E-002
-2.021938010634372E-002
+2.659068533917769E-002
-3.029713708235033E-002
-8.814537164562508E-003
-4.564180393786395E-002
+3.663213536560775E-002
-1.370059286693686E-002
+2.110961142604419E-002
-7.447151464388141E-002
-4.368484445499963E-003
-2.411997472485610E-002
-3.012767664625512E-002
-9.425460188220286E-004
-1.932222758640363E-003
+4.989704226847006E-003
-3.445092391056339E-003
-1.755336239741874E-003
+6.998084485439196E-003
+7.140403012636689E-003
+1.885641472741084E-003
+4.560042749605955E-003
+3.930881893576233E-003
+3.048200902727542E-003
-8.193779705305816E-004
+2.401543065032528E-003
-3.619067652682127E-003
-2.332345897385222E-003
+8.412291948100701E-003
+8.271660713787838E-003
-2.177492399564621E-003
-9.815264083870400E-004
-1.276698888817892E-003
+6.286699051317261E-003
+1.680537145685944E-004
-2.864774300399327E-003
+3.221952529831549E-003
-2.656737057777259E-003
+1.524163620329284E-003
+2.032937989741705E-003
-4.008060776241424E-004
+7.327708859189866E-004
-2.059115153596052E-003
-3.482660022729390E-003
-5.177704433847843E-005
-2.328688510558410E-003
+3.630157018859445E-003
+5.550758487313990E-003
-2.831787662443021E-003
+2.281088677655497E-003
+1.382949934738795E-003
-2.995100293996330E-003
+2.945444603258658E-003
+4.947597362238430E-003
+1.558652050095871E-003
+3.317333009011359E-004
+1.973693599480330E-003
+1.595712529633595E-003
+4.535202543156949E-003
+8.922239121242215E-004
+7.087632452284012E-003
-2.581520040646787E-003
-1.288886259442068E-003
-6.806657757790965E-003
-4.960477394054706E-003
+9.182362819283280E-005
-6.349823942955999E-003
-1.005328410273039E-002
+1.759877541062285E-003
-2.568952605226572E-003
-1.338245338443001E-004
+6.301691128932436E-004
+3.116792207253288E-003
-5.886759400323484E-004
+2.244759452394680E-003
-3.246884776609725E-003
+7.058822967730636E-004
-1.609970765698130E-003
-2.060275608685250E-004
+6.585424437515654E-004
+2.587739507550921E-003
-1.006443094420252E-003
-8.423492488983981E-003
+1.875829288301823E-003
-1.322722944187115E-003
+1.540697719171003E-003
+9.281906863792763E-004
+9.971551128412702E-004
+1.048121736931322E-004
-6.894210505142157E-004
-1.607727098938035E-003
-1.855366898904417E-003
-9.694995898236805E-004
-3.707552748968109E-004
-4.074163113769137E-004
+5.595723348172499E-005
+2.246099104435364E-004
+1.281358484060013E-004
+1.335076411851038E-003
+9.640816532971234E-004
+9.188193067571492E-004
-7.122223785451496E-005
-7.666462843553734E-004
-1.031719402469684E-003
-9.368239751318828E-004
-3.414370107862591E-004
-1.890523294885987E-003
-1.258134605238181E-003
-1.420373977240414E-003
+8.697547479110990E-005
+3.045296638048776E-004
+1.267515172820395E-003
-7.228663902070310E-004
-7.937541534664647E-004
-1.652901057840146E-003
-1.262100684940684E-003
-6.424468533476563E-004
-1.851581961477989E-003
-1.985210292504364E-003
-2.569244526610218E-003
-1.575354743129673E-003
-1.061469900219408E-003
-9.079882820555936E-004
-6.458687371113504E-004
-8.967826838601060E-004
-1.745880828374772E-003
+1.531436193682547E-004
+5.044416875485455E-005
+1.632531011792102E-003
+2.585017313380987E-005
+2.345716056174844E-004
-1.458042426452842E-003
-1.019169082413639E-003
-7.822743022192554E-004
+4.856926538372142E-004
-6.090952850755669E-005
+1.318912149861882E-003
+5.144651431802210E-004
+1.762024560715236E-003
+2.402741866237350E-003
+2.399442796287544E-003
+1.410445303657367E-003
+1.123508491098295E-003
+4.628190883176834E-004
+2.710018309316443E-004
+1.024932917608638E-003
+1.647212649204191E-003
+1.628541630156428E-003
+1.080218872467495E-003
+1.525581997313147E-003
-4.981550647703213E-004
+1.093790067104195E-003
-5.187204460024394E-005
+1.288245001633979E-003
+6.887786833032702E-005
+4.398728239045141E-004
+1.004192640269516E-003

