# Electrode atom charges in atomic unit
# -------------------------------------
# Charge:   1 au = 1.602176565e-19 C = 1 e
# step        0
-7.667210429769183E-004
-3.381692696760509E-004
-1.344394444909977E-003
+1.565474081832558E-004
-4.756039658637685E-004
+9.638382779683101E-004
+6.936156315627361E-004
+6.551651401713284E-004
+6.255762620355280E-004
+5.679208535564769E-004
+2.908049118709331E-004
+1.891921342000803E-004
+6.174892022281256E-004
+7.243643091022508E-004
+7.153546673326101E-004
+1.124116199000504E-003
+1.183028168222078E-003
+2.298373784039297E-004
+3.350891826435260E-004
-2.025260593099142E-004
+7.698015870583683E-005
+1.009147595166732E-003
+8.345005325097851E-004
+1.343778774498881E-003
+1.265073904526625E-003
+7.539476325385924E-004
+6.230142054620186E-004
+5.697692194016845E-004
+4.623791135771913E-004
-1.172054917267103E-004
-5.184110661861735E-004
+4.947722810451637E-004
+1.239740211835815E-003
+2.694354260320067E-003
+2.108283859856102E-003
+2.088517065441213E-003
+9.624302579290296E-004
-4.309353870441196E-004
+2.994123387550863E-004
-1.748338896878451E-004
+5.893575899620876E-004
-2.747418724965840E-004
-6.136653783245986E-005
+2.367172843724211E-005
+1.798929328856470E-003
+1.636518738819142E-003
+2.625114790863140E-003
+1.352481727467260E-003
-1.997580305595963E-004
-1.621261091514401E-003
-1.803512395096075E-003
-2.309002807705464E-003
-9.100719683316213E-004
-1.773391392698725E-003
-1.499810918117807E-003
-1.830966006199815E-003
-8.287100906815691E-005
-9.587911245871743E-004
+3.766842390623610E-004
-5.140970339907175E-004
-8.908557934676367E-004
-1.369703767264488E-003
-2.237605156604681E-003
-2.207639625416216E-003
-1.947321173691571E-003
-6.360898565867609E-004
-1.510196212927263E-003
-3.120445771014530E-004
-1.610477632447994E-003
-5.533318693740423E-004
-9.802970877087411E-004
-4.217573674448050E-004
-2.903643515835837E-003
+3.941975339469634E-004
+1.208984571525919E-003
-1.020677012171359E-003
+3.992968244268641E-004
-3.948278818983712E-003
-5.962104383936879E-003
+3.569212078199868E-004
-6.527374384645256E-004
-2.695053124686352E-003
-7.569584080436391E-004
+1.481660545681073E-004
+2.970994868204125E-003
-1.682877837640217E-003
-8.328014820361304E-004
+1.157554698507742E-003
+1.315559178254941E-003
+1.032972188346483E-003
-2.313035431978374E-004
-5.697705239472997E-006
+6.030847477137700E-003
+2.253580194769654E-003
-6.046672834008726E-003
-5.212054084984688E-003
-4.931731715372827E-004
+1.704515136222410E-003
-1.746480967900925E-003
+1.357130903408632E-003
-2.920916322613413E-003
-2.342533490078523E-003
+1.038037292752893E-003
-3.223680667474299E-003
-2.887209962209919E-003
-2.389416413140827E-003
+4.342389987959523E-003
-8.339392254500003E-004
-2.711109419363545E-003
-2.114728697960764E-003
+5.945285888703400E-005
-9.180910132193965E-004
-7.215378481311059E-004
-4.908996998324724E-005
+5.186938976593037E-004
+1.378934798304907E-003
-3.291756652112402E-003
-1.331068721541112E-003
-1.942748304076962E-003
-6.061149013492988E-003
-8.918353247600671E-003
-2.850947986433919E-004
+5.554954698547930E-003
-7.024637418094329E-005
+2.664408497085530E-004
-5.034078637165967E-003
+3.309381037134167E-003
+7.626473588676105E-005
-2.098670626610299E-003
-1.864946866437105E-004
+3.790274856948381E-003
+5.817237772102316E-003
+8.140742473447311E-004
+4.971169667324300E-003
+7.602764089278224E-004
-2.122529500358489E-004
+8.879819599400299E-003
-1.427615395797514E-003
-8.077481948892786E-003
+5.372306125786099E-003
+8.792463536279958E-003
+2.934391754396766E-004
-1.128402243670189E-003
-2.774594665504458E-003
+3.465579044853027E-002
-6.079510476262516E-003
-5.687903210745670E-003
-2.903612742932684E-003
+2.678793466358587E-004
-3.293633789812521E-002
-3.356666206561024E-002
-1.544825778511495E-002
-3.543288716880232E-002
-2.473362712653210E-002
-3.353968957291167E-002
-7.050730951512901E-003
-2.970026221326590E-002
+2.121713793507942E-002
-1.825928034671148E-004
+1.971868095316710E-002
+3.623442148043764E-002
-1.186546751435188E-002
-4.431335187039993E-002
-5.848482115446448E-003
+1.769592437797776E-002
-3.687604290108064E-003
-5.756145336666934E-002
+4.889539795422860E-004
-7.913530456839016E-004
-1.129449663314568E-002
+1.183140421786111E-002
-2.559541918635435E-002
-3.335806008202767E-002
-3.990993686319175E-002
-7.593949270628679E-003
-5.628201428448779E-004
-3.849559079982524E-002
-1.652652408289239E-002
-3.481136526456755E-003
+3.177889097786831E-003
-1.487751602001971E-002
-9.465496922010413E-003
-2.412012024049374E-002
+6.555040205800893E-003
-1.816084345759002E-002
+1.056392611366330E-004
+3.284246789583065E-003
+1.876740865116622E-002
-2.535396784853733E-002
-7.441497032074459E-003
-5.168809433161282E-002
-5.903402087583795E-002
-5.979305888615619E-002
+9.326766441452436E-003
+1.929699834963783E-002
+4.682251078714603E-002
-1.373138692947849E-002
+6.299744913164204E-003
+3.605026016337591E-004
+2.917274409601401E-002
-8.255521393138362E-003
-3.033631461341222E-002
+3.277614492429781E-002
-1.145095644219780E-002
-2.034205270493537E-002
+6.335982273486608E-002
+2.204836024379673E-002
+3.791304559782228E-002
+2.226650523909377E-002
+9.464287686192549E-003
+1.250809291186356E-002
+4.832093993482869E-003
+2.176439026127585E-002
-1.400074540680282E-002
-1.776334876363484E-002
-2.165093067490668E-002
-3.203294998463568E-002
-2.814473244737019E-002
-2.196267787704086E-002
+2.163339909308575E-002
+3.520082639348295E-002
+5.185409649023303E-002
+2.104463846747190E-002
+2.997972794372576E-002
+3.374781486784521E-002
+2.309537113494188E-002
+2.348381264088779E-002
-3.489471430040048E-002
+3.461686590661114E-002
+6.091954968055465E-003
+6.196934052862525E-002
+2.567773613608428E-002
+2.466680795687461E-002
+2.708869239345843E-002
+1.254716524632308E-002
+3.622076659686614E-003
-2.484343408185078E-002
+5.110147653630505E-003
+4.861047266700478E-003
+6.867396827924856E-002
+5.229882019117642E-003
-6.818187106328526E-004
-1.495414946842014E-002
-7.459116155280283E-003
-1.400855500585454E-002
-2.087296507416994E-002
-1.750243170331304E-002
+1.375325980051227E-002
+3.591798446021371E-002
+7.280457390450666E-002
+5.509002501902278E-002
+3.022672301181771E-002
+1.393800937994028E-002
-1.394895185787030E-002
-9.316128775723112E-003
+1.809026991052193E-002
+3.853967532560356E-002
-1.182818387590842E-002
+1.892448648119760E-002
+1.212704218993613E-003
+4.714527084144721E-002
+2.124689317044182E-002
+6.516702284899942E-002
+2.860871550116826E-002
+9.654311462853688E-003
-3.835992536370470E-003
-2.435266203208081E-002
-5.111759931152859E-002
+1.584611952673694E-003
+1.261438214609732E-002
-5.951159005367011E-002
-6.846941325125978E-002
+7.283590609284195E-002
-4.305221728199637E-002
+1.393955063197369E-002
+4.026706478668543E-003
-1.415500086153663E-002
+3.389860340381590E-002
-3.033895237669463E-002
-1.593174135339315E-002
-3.258144834281992E-002
+1.258159888994222E-002
-7.550489019454350E-003
+1.649104019040919E-002
-6.952021252691053E-002
+7.645871242486868E-003
-3.441618394086435E-002
-2.202294719848055E-002
+1.288494876287369E-004
-8.301398178421821E-004
+3.750973809759685E-003
-5.207887697754738E-003
-1.386120026953673E-003
+3.541540440349358E-003
+5.611704741623786E-003
+9.875449684176910E-004
+1.809533507376113E-003
+2.845758896422269E-003
+2.057264872464914E-003
-1.161909580366105E-003
+3.234208934404357E-003
-2.991212571995168E-003
-2.228524440232047E-003
+8.730309471401593E-003
+7.514788377925463E-003
-1.496653086537703E-003
-2.059181033550988E-003
-3.067381437878840E-003
+5.375718204781325E-003
+9.050137012988226E-004
-3.299236081765222E-003
+3.080608569990294E-003
-5.112396465117488E-003
+3.066857689754152E-003
+2.946341227535992E-003
-1.472603694510842E-003
+4.036916270796202E-004
-2.229988941060260E-003
-1.657378324880872E-003
-1.132280389861321E-003
-1.484497725402188E-003
+2.327280916431855E-003
+4.104381833199906E-003
-2.876362583431471E-003
+2.077599041876386E-003
-1.785060145492376E-004
-5.196707937032263E-003
+3.315357672161214E-003
+3.848728857411165E-003
+9.867218466541620E-004
-3.494443704236908E-003
+1.813632274648011E-003
+3.262858452209412E-003
+4.472574725442232E-003
-7.835356063838108E-004
+7.543485225874460E-003
-2.190590308421319E-003
-1.813040047430930E-003
-5.893487942895558E-003
-3.837494243538196E-003
-1.746362229624382E-004
-5.669456007472432E-003
-6.135749249303119E-003
+7.809541060219914E-005
-7.179036990722729E-004
+3.999322323857864E-003
-3.114764891114452E-004
+1.578916982011897E-003
+6.135191439325707E-004
+1.649749081108054E-003
-4.185977366473224E-003
-4.782511353840773E-004
-2.060944914001745E-003
-3.047475136963884E-004
-5.982543090806183E-005
+2.090450302577789E-003
-5.239247375483214E-004
-9.321134227985743E-003
+2.262143544128650E-003
-3.569152239177372E-004
+7.237885747333027E-004
+5.899265449449602E-004
+1.436946863387326E-003
+5.924037888536565E-004
+1.970216260693299E-004
-8.624889210669053E-004
-1.038718646215972E-003
-8.076494447681582E-004
-4.749563627614967E-004
-1.150349176813910E-003
-1.103633051276545E-003
-7.307358051123605E-004
-2.981168613359100E-004
+6.537152667259919E-004
+4.946720043369167E-004
+4.713675332418853E-004
+1.495794653835866E-004
-5.693152798813125E-004
-7.249718716683512E-004
-2.462000905827843E-004
-2.522592383559607E-004
-1.018810284101671E-003
-1.510283956360050E-003
-1.099005239398988E-003
+1.621442588798083E-004
-5.852054180270464E-005
+5.351708673932770E-004
-5.482090325061234E-004
-5.365750354824986E-004
-7.456223189252268E-004
-5.625044852482901E-004
-5.372116650921504E-004
-8.662561547472282E-004
-1.545698403243232E-003
-1.375506785043876E-003
-1.068796355078003E-003
-1.238601956890335E-003
-6.636405546993371E-004
-4.894372952143865E-004
+4.604407036722584E-005
-5.678553289908953E-004
+6.739476907580605E-004
+1.463336574860489E-004
+4.265872049385091E-004
-9.361899654387973E-004
-1.114862345657459E-003
-1.798298491300112E-003
-1.667978166984372E-003
-8.017064318744722E-004
+1.121142937693166E-003
+7.280633726085181E-004
+2.010062682707818E-003
+1.068505682333380E-003
+1.428740824270447E-003
+1.583889414454851E-003
+1.697754717108061E-003
+1.557307885891451E-005
+2.981898354251213E-004
-6.934013775218625E-004
-3.427390957903750E-004
+8.238651017617705E-004
+1.821590290438088E-003
+2.411115494408349E-003
+1.750946228990654E-003
+1.792961210383680E-003
+2.331667471704336E-004
+1.166247321030614E-003
+4.464723458111271E-004
+1.202620053736689E-003
-3.111461092843773E-004
-2.335434174867240E-004
-7.640771939379512E-006
# step        1
-7.667210429769183E-004
-3.381692696760509E-004
-1.344394444909977E-003
+1.565474081832558E-004
-4.756039658637685E-004
+9.638382779683101E-004
+6.936156315627361E-004
+6.551651401713284E-004
+6.255762620355280E-004
+5.679208535564769E-004
+2.908049118709331E-004
+1.891921342000803E-004
+6.174892022281256E-004
+7.243643091022508E-004
+7.153546673326101E-004
+1.124116199000504E-003
+1.183028168222078E-003
+2.298373784039297E-004
+3.350891826435260E-004
-2.025260593099142E-004
+7.698015870583683E-005
+1.009147595166732E-003
+8.345005325097851E-004
+1.343778774498881E-003
+1.265073904526625E-003
+7.539476325385924E-004
+6.230142054620186E-004
+5.697692194016845E-004
+4.623791135771913E-004
-1.172054917267103E-004
-5.184110661861735E-004
+4.947722810451637E-004
+1.239740211835815E-003
+2.694354260320067E-003
+2.108283859856102E-003
+2.088517065441213E-003
+9.624302579290296E-004
-4.309353870441196E-004
+2.994123387550863E-004
-1.748338896878451E-004
+5.893575899620876E-004
-2.747418724965840E-004
-6.136653783245986E-005
+2.367172843724211E-005
+1.798929328856470E-003
+1.636518738819142E-003
+2.625114790863140E-003
+1.352481727467260E-003
-1.997580305595963E-004
-1.621261091514401E-003
-1.803512395096075E-003
-2.309002807705464E-003
-9.100719683316213E-004
-1.773391392698725E-003
-1.499810918117807E-003
-1.830966006199815E-003
-8.287100906815691E-005
-9.587911245871743E-004
+3.766842390623610E-004
-5.140970339907175E-004
-8.908557934676367E-004
-1.369703767264488E-003
-2.237605156604681E-003
-2.207639625416216E-003
-1.947321173691571E-003
-6.360898565867609E-004
-1.510196212927263E-003
-3.120445771014530E-004
-1.610477632447994E-003
-5.533318693740423E-004
-9.802970877087411E-004
-4.217573674448050E-004
-2.903643515835837E-003
+3.941975339469634E-004
+1.208984571525919E-003
-1.020677012171359E-003
+3.992968244268641E-004
-3.948278818983712E-003
-5.962104383936879E-003
+3.569212078199868E-004
-6.527374384645256E-004
-2.695053124686352E-003
-7.569584080436391E-004
+1.481660545681073E-004
+2.970994868204125E-003
-1.682877837640217E-003
-8.328014820361304E-004
+1.157554698507742E-003
+1.315559178254941E-003
+1.032972188346483E-003
-2.313035431978374E-004
-5.697705239472997E-006
+6.030847477137700E-003
+2.253580194769654E-003
-6.046672834008726E-003
-5.212054084984688E-003
-4.931731715372827E-004
+1.704515136222410E-003
-1.746480967900925E-003
+1.357130903408632E-003
-2.920916322613413E-003
-2.342533490078523E-003
+1.038037292752893E-003
-3.223680667474299E-003
-2.887209962209919E-003
-2.389416413140827E-003
+4.342389987959523E-003
-8.339392254500003E-004
-2.711109419363545E-003
-2.114728697960764E-003
+5.945285888703400E-005
-9.180910132193965E-004
-7.215378481311059E-004
-4.908996998324724E-005
+5.186938976593037E-004
+1.378934798304907E-003
-3.291756652112402E-003
-1.331068721541112E-003
-1.942748304076962E-003
-6.061149013492988E-003
-8.918353247600671E-003
-2.850947986433919E-004
+5.554954698547930E-003
-7.024637418094329E-005
+2.664408497085530E-004
-5.034078637165967E-003
+3.309381037134167E-003
+7.626473588676105E-005
-2.098670626610299E-003
-1.864946866437105E-004
+3.790274856948381E-003
+5.817237772102316E-003
+8.140742473447311E-004
+4.971169667324300E-003
+7.602764089278224E-004
-2.122529500358489E-004
+8.879819599400299E-003
-1.427615395797514E-003
-8.077481948892786E-003
+5.372306125786099E-003
+8.792463536279958E-003
+2.934391754396766E-004
-1.128402243670189E-003
-2.774594665504458E-003
+3.465579044853027E-002
-6.079510476262516E-003
-5.687903210745670E-003
-2.903612742932684E-003
+2.678793466358587E-004
-3.293633789812521E-002
-3.356666206561024E-002
-1.544825778511495E-002
-3.543288716880232E-002
-2.473362712653210E-002
-3.353968957291167E-002
-7.050730951512901E-003
-2.970026221326590E-002
+2.121713793507942E-002
-1.825928034671148E-004
+1.971868095316710E-002
+3.623442148043764E-002
-1.186546751435188E-002
-4.431335187039993E-002
-5.848482115446448E-003
+1.769592437797776E-002
-3.687604290108064E-003
-5.756145336666934E-002
+4.889539795422860E-004
-7.913530456839016E-004
-1.129449663314568E-002
+1.183140421786111E-002
-2.559541918635435E-002
-3.335806008202767E-002
-3.990993686319175E-002
-7.593949270628679E-003
-5.628201428448779E-004
-3.849559079982524E-002
-1.652652408289239E-002
-3.481136526456755E-003
+3.177889097786831E-003
-1.487751602001971E-002
-9.465496922010413E-003
-2.412012024049374E-002
+6.555040205800893E-003
-1.816084345759002E-002
+1.056392611366330E-004
+3.284246789583065E-003
+1.876740865116622E-002
-2.535396784853733E-002
-7.441497032074459E-003
-5.168809433161282E-002
-5.903402087583795E-002
-5.979305888615619E-002
+9.326766441452436E-003
+1.929699834963783E-002
+4.682251078714603E-002
-1.373138692947849E-002
+6.299744913164204E-003
+3.605026016337591E-004
+2.917274409601401E-002
-8.255521393138362E-003
-3.033631461341222E-002
+3.277614492429781E-002
-1.145095644219780E-002
-2.034205270493537E-002
+6.335982273486608E-002
+2.204836024379673E-002
+3.791304559782228E-002
+2.226650523909377E-002
+9.464287686192549E-003
+1.250809291186356E-002
+4.832093993482869E-003
+2.176439026127585E-002
-1.400074540680282E-002
-1.776334876363484E-002
-2.165093067490668E-002
-3.203294998463568E-002
-2.814473244737019E-002
-2.196267787704086E-002
+2.163339909308575E-002
+3.520082639348295E-002
+5.185409649023303E-002
+2.104463846747190E-002
+2.997972794372576E-002
+3.374781486784521E-002
+2.309537113494188E-002
+2.348381264088779E-002
-3.489471430040048E-002
+3.461686590661114E-002
+6.091954968055465E-003
+6.196934052862525E-002
+2.567773613608428E-002
+2.466680795687461E-002
+2.708869239345843E-002
+1.254716524632308E-002
+3.622076659686614E-003
-2.484343408185078E-002
+5.110147653630505E-003
+4.861047266700478E-003
+6.867396827924856E-002
+5.229882019117642E-003
-6.818187106328526E-004
-1.495414946842014E-002
-7.459116155280283E-003
-1.400855500585454E-002
-2.087296507416994E-002
-1.750243170331304E-002
+1.375325980051227E-002
+3.591798446021371E-002
+7.280457390450666E-002
+5.509002501902278E-002
+3.022672301181771E-002
+1.393800937994028E-002
-1.394895185787030E-002
-9.316128775723112E-003
+1.809026991052193E-002
+3.853967532560356E-002
-1.182818387590842E-002
+1.892448648119760E-002
+1.212704218993613E-003
+4.714527084144721E-002
+2.124689317044182E-002
+6.516702284899942E-002
+2.860871550116826E-002
+9.654311462853688E-003
-3.835992536370470E-003
-2.435266203208081E-002
-5.111759931152859E-002
+1.584611952673694E-003
+1.261438214609732E-002
-5.951159005367011E-002
-6.846941325125978E-002
+7.283590609284195E-002
-4.305221728199637E-002
+1.393955063197369E-002
+4.026706478668543E-003
-1.415500086153663E-002
+3.389860340381590E-002
-3.033895237669463E-002
-1.593174135339315E-002
-3.258144834281992E-002
+1.258159888994222E-002
-7.550489019454350E-003
+1.649104019040919E-002
-6.952021252691053E-002
+7.645871242486868E-003
-3.441618394086435E-002
-2.202294719848055E-002
+1.288494876287369E-004
-8.301398178421821E-004
+3.750973809759685E-003
-5.207887697754738E-003
-1.386120026953673E-003
+3.541540440349358E-003
+5.611704741623786E-003
+9.875449684176910E-004
+1.809533507376113E-003
+2.845758896422269E-003
+2.057264872464914E-003
-1.161909580366105E-003
+3.234208934404357E-003
-2.991212571995168E-003
-2.228524440232047E-003
+8.730309471401593E-003
+7.514788377925463E-003
-1.496653086537703E-003
-2.059181033550988E-003
-3.067381437878840E-003
+5.375718204781325E-003
+9.050137012988226E-004
-3.299236081765222E-003
+3.080608569990294E-003
-5.112396465117488E-003
+3.066857689754152E-003
+2.946341227535992E-003
-1.472603694510842E-003
+4.036916270796202E-004
-2.229988941060260E-003
-1.657378324880872E-003
-1.132280389861321E-003
-1.484497725402188E-003
+2.327280916431855E-003
+4.104381833199906E-003
-2.876362583431471E-003
+2.077599041876386E-003
-1.785060145492376E-004
-5.196707937032263E-003
+3.315357672161214E-003
+3.848728857411165E-003
+9.867218466541620E-004
-3.494443704236908E-003
+1.813632274648011E-003
+3.262858452209412E-003
+4.472574725442232E-003
-7.835356063838108E-004
+7.543485225874460E-003
-2.190590308421319E-003
-1.813040047430930E-003
-5.893487942895558E-003
-3.837494243538196E-003
-1.746362229624382E-004
-5.669456007472432E-003
-6.135749249303119E-003
+7.809541060219914E-005
-7.179036990722729E-004
+3.999322323857864E-003
-3.114764891114452E-004
+1.578916982011897E-003
+6.135191439325707E-004
+1.649749081108054E-003
-4.185977366473224E-003
-4.782511353840773E-004
-2.060944914001745E-003
-3.047475136963884E-004
-5.982543090806183E-005
+2.090450302577789E-003
-5.239247375483214E-004
-9.321134227985743E-003
+2.262143544128650E-003
-3.569152239177372E-004
+7.237885747333027E-004
+5.899265449449602E-004
+1.436946863387326E-003
+5.924037888536565E-004
+1.970216260693299E-004
-8.624889210669053E-004
-1.038718646215972E-003
-8.076494447681582E-004
-4.749563627614967E-004
-1.150349176813910E-003
-1.103633051276545E-003
-7.307358051123605E-004
-2.981168613359100E-004
+6.537152667259919E-004
+4.946720043369167E-004
+4.713675332418853E-004
+1.495794653835866E-004
-5.693152798813125E-004
-7.249718716683512E-004
-2.462000905827843E-004
-2.522592383559607E-004
-1.018810284101671E-003
-1.510283956360050E-003
-1.099005239398988E-003
+1.621442588798083E-004
-5.852054180270464E-005
+5.351708673932770E-004
-5.482090325061234E-004
-5.365750354824986E-004
-7.456223189252268E-004
-5.625044852482901E-004
-5.372116650921504E-004
-8.662561547472282E-004
-1.545698403243232E-003
-1.375506785043876E-003
-1.068796355078003E-003
-1.238601956890335E-003
-6.636405546993371E-004
-4.894372952143865E-004
+4.604407036722584E-005
-5.678553289908953E-004
+6.739476907580605E-004
+1.463336574860489E-004
+4.265872049385091E-004
-9.361899654387973E-004
-1.114862345657459E-003
-1.798298491300112E-003
-1.667978166984372E-003
-8.017064318744722E-004
+1.121142937693166E-003
+7.280633726085181E-004
+2.010062682707818E-003
+1.068505682333380E-003
+1.428740824270447E-003
+1.583889414454851E-003
+1.697754717108061E-003
+1.557307885891451E-005
+2.981898354251213E-004
-6.934013775218625E-004
-3.427390957903750E-004
+8.238651017617705E-004
+1.821590290438088E-003
+2.411115494408349E-003
+1.750946228990654E-003
+1.792961210383680E-003
+2.331667471704336E-004
+1.166247321030614E-003
+4.464723458111271E-004
+1.202620053736689E-003
-3.111461092843773E-004
-2.335434174867240E-004
-7.640771939379512E-006
