# Electrode atom charges in atomic unit
# -------------------------------------
# Charge:   1 au = 1.602176565e-19 C = 1 e
# step        0
-1.363935803956489E-003
-8.167107498853749E-004
-1.180182866317958E-003
+5.229953803102786E-004
+3.356699636462031E-004
+1.845377155308451E-003
+1.906007565968845E-003
+1.571913745310732E-003
+1.122004520899115E-003
+7.079637231810789E-004
+3.103966905086962E-005
-2.666371588941752E-004
+1.188794761895636E-005
+1.688692327584921E-004
+4.675488190579411E-004
+1.076063134769228E-003
+1.427132068086765E-003
+3.508103173554802E-004
+9.066185970062234E-004
+1.725460078338496E-004
+4.884497486286007E-004
+1.223316399565332E-003
+6.911814582706287E-004
+1.006844615208310E-003
+1.005177880941908E-003
+8.047993656451724E-004
+4.200500394800834E-004
+8.176754693695931E-004
+5.855134916634239E-004
+4.464157900760272E-005
-5.140735847128384E-004
+1.958735752505467E-004
+1.544667209135321E-003
+2.944348704627398E-003
+2.285193653907147E-003
+2.471620728255889E-003
+1.535655654204633E-003
-9.801440170728605E-005
+5.643247773780782E-004
-1.042761046535576E-004
+1.055618026404586E-003
-4.601511567269052E-004
-4.020463883228440E-004
-1.306043022513227E-003
+1.122424835103251E-003
+1.146125020290124E-003
+3.237505680177453E-003
+2.119648025082861E-003
+1.641239975190884E-004
-1.939418884306737E-003
-2.186409733078448E-003
-2.945881852703826E-003
-1.431864711496127E-003
-2.812816475287318E-003
-2.905734746691586E-003
-3.392085130530457E-003
-1.722544689666811E-003
-2.101216302082510E-003
+2.405657303710537E-004
-6.562971108462943E-004
-1.346905985278258E-003
-1.526366120176814E-003
-2.359452363400858E-003
-1.803837314177993E-003
-2.258907323038177E-003
-1.640431443776760E-004
-2.035710738892369E-003
+7.164924340412457E-005
-2.526381952163343E-003
-8.761192855369116E-004
-1.636756705136324E-003
-1.075121526459404E-003
-1.735646412099263E-003
+9.640670369214003E-004
+2.319648758742744E-003
-1.225570123346061E-003
-5.297766601351157E-004
-2.589020424994776E-003
-4.484718450973776E-003
+2.040848079001825E-003
+5.156597984253829E-004
-2.491794527248700E-003
+2.232023106544835E-004
+4.361822287683434E-003
+3.454347346651776E-003
-7.570457094699384E-004
+3.841018522102404E-004
+2.234551854883411E-003
+4.415575671464000E-003
+2.408567341242800E-003
-5.270400320129112E-005
+9.236853130685268E-004
+5.922368093292386E-003
+4.895664295207490E-003
-5.298482321341463E-003
-5.041284200526691E-003
+9.508783852732827E-004
+3.406758411053159E-003
-3.705808403632486E-004
+2.443001896752400E-003
-3.544533635229000E-003
-1.786481332515715E-003
+2.901574306701724E-003
-2.969152306346090E-003
-2.060320873156080E-003
-6.386942090677456E-003
+4.181727877692007E-003
-1.005932175421537E-004
-8.706734175706640E-004
-4.230683583272132E-004
+1.207895895246103E-003
-1.959521778743524E-004
-6.556150018893146E-004
-2.619564416620923E-004
+1.626680792268340E-003
+3.007002683996056E-003
-2.573981239163032E-003
+9.583866225854605E-004
-1.890827707116046E-004
-5.398446177811554E-003
-4.337391470993060E-003
-7.942332188647839E-004
+4.552077414861779E-003
+1.887249212477549E-004
+3.384325702333138E-003
-2.293713624908085E-003
+5.427626005446067E-003
+1.823983668744561E-003
-8.270556590352513E-004
+1.217647307484016E-003
+5.135502553964388E-003
+8.341201232208609E-003
+2.055455311970357E-003
+4.854172823402620E-003
+2.552089561811229E-003
+1.364336005319362E-003
+1.146943647901046E-002
-4.195875896205457E-004
-8.737659112453460E-003
+5.461986506634125E-003
+9.571859174079968E-003
+9.727000910481423E-004
+2.424659531543039E-004
-1.484333052329391E-003
+7.341606700499965E-002
+1.912358130097194E-002
+3.322023359154510E-002
+1.374946251488230E-003
-5.699820202190427E-004
-1.159098451733075E-002
-2.076869452308422E-002
+1.993035197924651E-002
+5.784267743769249E-003
+2.810388414270215E-002
+1.567241014370544E-002
+4.122848812078314E-002
-2.928539281508283E-003
+6.231674679302544E-002
+2.901772283675891E-002
+9.128086454620501E-002
+8.572676809239456E-002
+1.844784898915927E-002
-1.255105924825748E-002
+6.657237364571612E-003
+6.279672999452485E-002
-9.582491441604694E-003
-2.378294005326693E-002
+5.988210072984999E-003
+1.793048523576786E-002
+2.122062109201614E-002
+5.702401882022321E-002
-3.197904576911422E-003
+8.583669357945771E-004
-3.729097391193804E-002
+1.060351711557114E-002
+4.941313357437174E-002
-5.879344816259419E-002
-3.280564764876526E-003
-1.844522766991750E-002
-2.849614769350493E-003
+2.218910321758384E-002
+1.800189476979572E-002
+1.253607875777769E-002
+2.552521962471522E-002
-1.598070371300579E-002
+1.044744041026492E-002
+2.778490436686777E-002
+6.805449158224573E-002
+1.856346602768984E-002
+4.299735381634372E-002
-2.566170965727003E-002
-7.235038587905778E-003
-2.516881895825196E-002
+2.650141324542423E-002
+2.108419660907105E-002
+7.129593390619596E-002
+4.250683819905151E-003
+3.820524006757987E-002
+5.060559389123554E-002
+7.509197687781401E-002
+1.936448314610057E-002
-9.045797498729168E-004
+8.916605424695750E-002
+4.216510771214838E-002
+3.145023982955868E-002
+6.799776675570575E-002
+3.011298968496577E-002
+5.960042474184046E-002
+5.961264418952084E-002
+4.354108826106214E-002
+2.298576319318345E-002
-1.350562751758299E-003
+5.679648838234792E-002
+1.182138890941905E-002
+1.559736024171849E-002
+3.645396014649621E-002
-7.631554415046349E-002
-5.718788147082959E-002
-3.855531589125265E-002
+5.143163264231980E-003
-4.796939484229693E-003
+5.130481126456758E-002
+3.832274825688571E-002
+4.786656301194531E-002
+4.246469030984357E-002
+1.152375156600855E-002
+8.244460696056478E-003
-4.311308129244765E-002
-3.753132982700318E-003
-4.592149407943298E-002
+6.883512390831416E-003
+2.972829809709003E-002
+1.409456523136932E-002
-1.267439356643438E-002
-2.918663318601918E-002
-1.011471480485130E-002
-4.021258063658141E-002
-1.214851745235171E-002
-1.933443996172061E-002
+9.207440369384217E-003
-2.091361730898643E-002
-1.920252713367439E-002
-4.094817766463887E-002
-5.698726226984208E-002
-3.623701518253900E-002
-6.541649745319607E-002
-4.376471594939307E-002
-1.439612096765311E-002
+2.035060349473626E-002
+4.836685872349299E-002
+3.424745561440638E-002
+1.608615440222522E-003
-4.913257308281408E-003
-1.969773832922715E-002
-2.435430097465675E-002
-5.285599598839829E-003
+2.860839593130472E-002
-2.456746996067345E-002
-7.370416169641223E-003
-2.202511185901940E-002
-8.361476940896324E-003
-3.235508747097071E-003
+6.508541020787546E-002
+2.645068669969893E-002
-1.102490216047697E-003
-5.789851355832028E-002
-9.997057992279774E-002
-1.026113890487234E-001
-5.295766416094266E-002
-6.475183331655074E-002
-1.314385579365178E-001
-1.153824897904320E-001
-5.665621713762431E-003
-1.184715348295563E-001
-6.568527630367871E-004
-1.291176343672273E-002
-4.775556613979774E-002
-1.584104154021900E-004
-5.639276206510831E-002
-3.946447186099996E-002
-7.471687810512473E-002
+7.597797461667458E-003
-4.396426890492355E-002
-7.292242561475971E-003
-1.077987844652334E-001
-3.467846482767954E-002
-5.499192241048698E-002
-5.929301846165736E-002
-1.859589215868416E-003
-3.120705279928629E-003
+4.096232819369349E-003
-4.658945672273619E-003
-2.797603915681568E-003
+6.142793114495823E-003
+6.454032103830782E-003
+1.070425354927044E-003
+3.412191338767649E-003
+2.924429222761203E-003
+1.966290075130185E-003
-1.872827927767363E-003
+1.501954980616778E-003
-4.565177011348999E-003
-3.402686435043324E-003
+7.639146342439973E-003
+7.297047091925134E-003
-3.397586212199086E-003
-2.132090375674063E-003
-2.498992396590770E-003
+5.194929571502612E-003
-8.340213891965843E-004
-3.813054971518423E-003
+2.358994937276770E-003
-3.974217638444451E-003
+7.702144638332573E-004
+1.377533073632247E-003
-1.388646952917696E-003
-3.485596384892995E-004
-3.233493183488468E-003
-4.306507581878775E-003
-1.171715218112611E-003
-3.414084726878129E-003
+2.585624902190120E-003
+4.559568018421920E-003
-3.911632868247058E-003
+1.345928829176933E-003
+3.219568750650584E-004
-4.340314090889059E-003
+2.046823946390729E-003
+4.011611468971788E-003
+7.769331025678699E-004
-1.036990590675567E-003
+1.010381118594952E-003
+9.485151090469327E-004
+3.713486498496621E-003
-1.265715302013504E-004
+6.192825982023059E-003
-3.592203056546153E-003
-2.352377601787355E-003
-7.999189445198172E-003
-6.116520434703903E-003
-6.591172046161057E-004
-7.768746181835851E-003
-1.137144060422921E-002
+6.542443704561744E-004
-3.641399056183530E-003
-7.688032971714094E-004
-3.695120632163546E-004
+2.184354424177157E-003
-1.567042672810351E-003
+1.442768378224140E-003
-4.247190638387193E-003
-1.420898981023654E-004
-2.830099468401469E-003
-1.119169623778742E-003
-3.241091933034247E-004
+1.546430164599649E-003
-1.904391233336834E-003
-9.920946637866815E-003
+1.017025399776077E-003
-2.148557871471680E-003
+1.667688265914419E-003
+1.070159247752841E-003
+1.185993794584389E-003
+2.811930583199503E-004
-4.801670280681972E-004
-1.413074637335263E-003
-1.672247530191551E-003
-8.190198473530933E-004
-2.609291912567344E-004
-3.449185737708106E-004
+1.024100794741451E-004
+2.996403065596875E-004
+2.076816186986567E-004
+1.400168503922934E-003
+1.072183702166755E-003
+1.033087747801566E-003
+1.028774570724907E-004
-6.003671510395400E-004
-8.491075351851337E-004
-7.634303026447379E-004
-2.066414389886636E-004
-1.761152417411652E-003
-1.204847974022190E-003
-1.359420591198119E-003
+1.570629926177436E-004
+3.644930494210447E-004
+1.338646797534627E-003
-5.930519882297278E-004
-6.367764153937307E-004
-1.490064195111816E-003
-1.103098003043262E-003
-5.584430020739233E-004
-1.713346747395487E-003
-1.912009878724113E-003
-2.464899950073578E-003
-1.525547642853344E-003
-1.054145084590660E-003
-8.644109476658170E-004
-5.441611933978093E-004
-7.375973978803560E-004
-1.561295125881813E-003
+3.200217733393891E-004
+1.700672952847945E-004
+1.684799660168105E-003
+3.571921856750156E-005
+2.214340794724365E-004
-1.458896695638470E-003
-1.072657154222994E-003
-8.028338833955865E-004
+5.755395483718366E-004
+6.958189147668427E-005
+1.486379876302785E-003
+6.837358787277515E-004
+1.907788115637794E-003
+2.527131066859276E-003
+2.540198143130065E-003
+1.472944580557668E-003
+1.232339795877248E-003
+4.483317947616408E-004
+2.602584240197925E-004
+1.081903770402116E-003
+1.802185786416649E-003
+1.797025899608627E-003
+1.281699346418240E-003
+1.711949421774997E-003
-3.071213539046242E-004
+1.272115770550197E-003
+1.298258594619770E-004
+1.460664966329569E-003
+1.563975008738012E-004
+4.936981943433970E-004
+1.055495761605998E-003

# step        1
-1.395579401630856E-003
-8.330137831465681E-004
-1.150023440617965E-003
+5.432337089645136E-004
+3.974373981111341E-004
+1.875936041544849E-003
+1.927270452523627E-003
+1.640127026589733E-003
+1.141006046524042E-003
+7.425913958957113E-004
+2.804586965294927E-006
-3.011684654736999E-004
-5.202391246429368E-005
+9.292726561968339E-005
+4.191579000277800E-004
+1.041500135516713E-003
+1.437509290444530E-003
+4.130309810146694E-004
+9.971209301336654E-004
+2.924723159823948E-004
+5.984120448624929E-004
+1.243652547481123E-003
+6.644306298927393E-004
+9.351864893313701E-004
+9.543487423020097E-004
+7.792599517056894E-004
+3.610601789333938E-004
+7.831484276056906E-004
+5.916677075945160E-004
+6.265566013669714E-005
-4.453361961579213E-004
+1.784127885961550E-004
+1.563967122091392E-003
+2.881745092748535E-003
+2.229469282591916E-003
+2.446149400692600E-003
+1.558532928935652E-003
-5.973447561215091E-005
+5.551180280861159E-004
-9.636919761853125E-005
+1.061973377720384E-003
-4.097587738874746E-004
-3.851017283018819E-004
-1.327047173071296E-003
+1.031073374573934E-003
+1.056083160236907E-003
+3.202994801474297E-003
+2.138166247744397E-003
+1.765035766582223E-004
-1.981686253339116E-003
-2.180617467476856E-003
-2.974573718716783E-003
-1.417564914414265E-003
-2.793207087471291E-003
-2.852651195424254E-003
-3.372408797794232E-003
-1.787039259410618E-003
-2.140281466769923E-003
+2.107677284411340E-004
-6.933247232559475E-004
-1.430773643145428E-003
-1.569488903758547E-003
-2.399138208485053E-003
-1.756944629953442E-003
-2.253160802122634E-003
-1.278844399882505E-004
-2.001887772181150E-003
+1.003270278775179E-004
-2.505137813660157E-003
-8.867384177827257E-004
-1.668444505217044E-003
-1.147025537825723E-003
-1.701327743551544E-003
+9.524842631979948E-004
+2.375282334338370E-003
-1.208198782395675E-003
-5.862626509504316E-004
-2.454833691383290E-003
-4.347625502611549E-003
+2.143737219581823E-003
+5.536077328101868E-004
-2.395681430342533E-003
+2.752637923712594E-004
+4.484558683217311E-003
+3.414975666152289E-003
-6.997249483141694E-004
+5.496436818880154E-004
+2.225116857512831E-003
+4.439589765398985E-003
+2.367086600220288E-003
-6.421442125016289E-005
+8.802293041424991E-004
+5.718014531265445E-003
+4.858588036557833E-003
-5.116669159425213E-003
-4.811879991249497E-003
+1.109189422327770E-003
+3.398368613013754E-003
-3.492964743775768E-004
+2.514759969633685E-003
-3.517784022201232E-003
-1.725790859819646E-003
+2.918956981366990E-003
-2.879688103688932E-003
-1.985253816921872E-003
-6.789846515928682E-003
+3.852124346498225E-003
+4.072443618275447E-005
-6.920874250859160E-004
-3.296567702642984E-004
+1.285945808432504E-003
-1.942344517798199E-004
-6.964697463970108E-004
-3.722492283924313E-004
+1.614187358876532E-003
+3.067712396735968E-003
-2.502800205944519E-003
+1.091643748555536E-003
-2.704635680966433E-005
-5.184850786589193E-003
-3.907407563155052E-003
-8.451048962601607E-004
+4.422953009066817E-003
+1.581390219848904E-004
+3.389157729815761E-003
-2.011768122546102E-003
+5.543514993042896E-003
+1.830162876904314E-003
-7.411998086549422E-004
+1.302160859770347E-003
+5.016874643063887E-003
+8.406244495570259E-003
+2.064211869575892E-003
+4.804878470909254E-003
+2.573759270526122E-003
+1.422486253895953E-003
+1.152840401572513E-002
-4.418352891202571E-004
-8.718191550802315E-003
+5.381065965039661E-003
+9.627704424160088E-003
+9.920735441631559E-004
+3.946019071437665E-004
-1.343562411026086E-003
+7.324262033314530E-002
+1.933020944836479E-002
+3.490506008097726E-002
+2.623141961764568E-003
-9.375978654770195E-004
-1.071694676187211E-002
-1.944575003314201E-002
+2.075083521437240E-002
+9.010959792661368E-003
+2.894996208362204E-002
+1.805455790923189E-002
+4.304570783428090E-002
-1.426094354337904E-003
+6.373540997421401E-002
+3.056410994153815E-002
+9.231092998201723E-002
+8.499139991462626E-002
+1.911727516983351E-002
-1.247293855263892E-002
+5.461719030032645E-003
+6.283759925307172E-002
-9.194751183613849E-003
-1.950085618874365E-002
+8.573185671201687E-003
+1.840573083236286E-002
+2.172534400574800E-002
+5.841064068757468E-002
-2.047020369158747E-003
+3.288235585887506E-003
-3.803149295553514E-002
+1.117245398215865E-002
+5.179883383033940E-002
-5.871969527671645E-002
-5.102093706846630E-003
-1.958632807540167E-002
-1.055254174023461E-003
+2.612914146734622E-002
+2.009856296906411E-002
+1.402159119856395E-002
+2.469409305482020E-002
-1.727517010458160E-002
+9.808856829543100E-003
+2.720510343581130E-002
+6.875476670025998E-002
+2.133553185462327E-002
+4.584691728359816E-002
-2.391876523024978E-002
-1.825369274903385E-003
-2.003884718144052E-002
+2.725973586263801E-002
+2.052818920421085E-002
+7.124527480305398E-002
+3.996192380586926E-003
+4.071075377104985E-002
+5.289359994480164E-002
+7.637227247864746E-002
+1.939048966097478E-002
-4.578550666812739E-004
+8.953629989116677E-002
+4.468649948485321E-002
+3.463174172786815E-002
+6.668732929725162E-002
+2.976373034815516E-002
+5.986575597242824E-002
+6.023885259455444E-002
+4.398760914896868E-002
+2.378708241692627E-002
-3.148244647443539E-003
+5.694017996521675E-002
+1.416012175933101E-002
+1.704927985138951E-002
+3.990177455996536E-002
-7.604184083846169E-002
-5.740706643507328E-002
-3.818862549067472E-002
+4.706508369097906E-003
-5.000292345182560E-003
+4.849923640011559E-002
+3.668458537762679E-002
+4.799927728831016E-002
+4.154379017234924E-002
+1.210690754286187E-002
+7.424954411249548E-003
-4.249970319794941E-002
-6.312046308981481E-003
-4.914460461806085E-002
+3.410256416747959E-003
+2.932446774654927E-002
+1.354503649127997E-002
-1.170124398872639E-002
-2.905115133299349E-002
-7.900606260741100E-003
-3.703208219039950E-002
-1.165659217114803E-002
-1.949612717218229E-002
+5.382669924243893E-003
-2.047980106583948E-002
-1.958670979246737E-002
-4.179086364011349E-002
-6.094075944200955E-002
-3.539186994409048E-002
-6.918052834553239E-002
-4.364918537918814E-002
-1.582159852117288E-002
+1.930949875567920E-002
+4.539701026368825E-002
+3.347027282079248E-002
+1.484993515805728E-003
-4.213178438374248E-003
-1.847909165106137E-002
-2.480664919404053E-002
-6.070280254526667E-003
+2.650132311309024E-002
-2.376777386689842E-002
-9.720512043960381E-003
-2.214477023728807E-002
-1.281166037455137E-002
-4.598090252894836E-003
+6.438857932656283E-002
+2.691632196811063E-002
-1.064873999321283E-003
-5.946864359576483E-002
-1.022702673012485E-001
-1.049966032604395E-001
-5.490353891756395E-002
-6.838763909859411E-002
-1.296149005205627E-001
-1.155971446583318E-001
-1.152482777528203E-002
-1.195952094392935E-001
-1.923541173306262E-003
-1.537609921612751E-002
-5.031097927704639E-002
-2.926056468499740E-003
-5.963638836596776E-002
-3.940546037513132E-002
-7.754129167403931E-002
+6.151343034263851E-003
-4.491894515895965E-002
-8.590267442095487E-003
-1.071272686771684E-001
-3.685475330364551E-002
-5.457287825500363E-002
-6.140002383308556E-002
-1.907010630165316E-003
-3.112330766606168E-003
+3.974366810723854E-003
-4.452219720847144E-003
-2.806913142244719E-003
+6.041354019904886E-003
+6.212454298885778E-003
+9.725342897001425E-004
+3.486368422969716E-003
+2.888780035301042E-003
+1.972414224198845E-003
-1.854447464478946E-003
+1.370602406107808E-003
-4.645820259873884E-003
-3.412883622043922E-003
+7.398024007285207E-003
+7.292243743313644E-003
-3.328209457736380E-003
-2.026451079228460E-003
-2.347076796304006E-003
+5.200534754124599E-003
-8.567557319781680E-004
-3.825544168210324E-003
+2.254602027867785E-003
-3.795476031791360E-003
+6.408025795209923E-004
+1.256348276608919E-003
-1.306804028317320E-003
-3.437373320707385E-004
-3.166980685199218E-003
-4.585665033851184E-003
-1.113272534937644E-003
-3.524219793960729E-003
+2.556746793643614E-003
+4.525890530560271E-003
-3.875980299084622E-003
+1.330266133064562E-003
+3.851020839846339E-004
-4.219524180471797E-003
+1.914276752017484E-003
+3.946063994518460E-003
+6.464062222846259E-004
-6.993935434768685E-004
+9.711319754428077E-004
+6.788823328064786E-004
+3.515273668346765E-003
-4.141145752509999E-005
+6.022359767163305E-003
-3.661619090500506E-003
-2.317126550009700E-003
-8.052935424339587E-003
-6.176257434174533E-003
-7.672902761247615E-004
-7.698740184953449E-003
-1.154867625729185E-002
+6.771664996085585E-004
-3.701658807113225E-003
-1.102534358515350E-003
-3.920154839654179E-004
+2.172647015391555E-003
-1.665736767324021E-003
+1.324346631612230E-003
-4.270888367409053E-003
-1.874375347988991E-004
-2.694168825271967E-003
-1.259852911450436E-003
-3.364940692099366E-004
+1.579396478777431E-003
-1.951054537672655E-003
-9.664241742724898E-003
+9.153505955769692E-004
-2.285458142248916E-003
+1.693145058190316E-003
+1.074510572949603E-003
+1.158570100781592E-003
+2.649006790649219E-004
-5.202585501329690E-004
-1.471217138527419E-003
-1.732506133779565E-003
-8.697205226410554E-004
-2.534541234225444E-004
-2.633543309992132E-004
+2.109123311828558E-004
+3.991873891061691E-004
+2.660559308700033E-004
+1.426666454653214E-003
+1.103905336609738E-003
+1.052734326468649E-003
+8.396053390668312E-005
-6.473276481505409E-004
-9.295553356033759E-004
-8.468188061111555E-004
-2.393201349758583E-004
-1.750903301454046E-003
-1.091727319381783E-003
-1.276859058821060E-003
+1.869729865852229E-004
+3.886907030901176E-004
+1.359891963165839E-003
-6.127098381888027E-004
-6.558642848060800E-004
-1.541441490971320E-003
-1.157290188209505E-003
-5.586984727398648E-004
-1.742429468700615E-003
-1.878700861085015E-003
-2.430578774101543E-003
-1.458795941560034E-003
-9.535843691358757E-004
-8.155382628719512E-004
-5.512360304274656E-004
-8.158918896415022E-004
-1.665677611406033E-003
+2.194781652713587E-004
+1.288616597037406E-004
+1.708055964225511E-003
+1.076562029695558E-004
+3.283149914868031E-004
-1.349110196035621E-003
-9.299450498695930E-004
-7.108189481880782E-004
+5.746573070356742E-004
+3.426654827420635E-005
+1.423375729447405E-003
+6.004235305575973E-004
+1.868419184299292E-003
+2.486204339561470E-003
+2.496077543024737E-003
+1.511175212191338E-003
+1.228040968935492E-003
+5.425379477550631E-004
+3.421085722567761E-004
+1.116194207165004E-003
+1.777085934808783E-003
+1.755562596883636E-003
+1.248397915577218E-003
+1.677151587359469E-003
-3.619265936763106E-004
+1.208407967126292E-003
+6.324753184871184E-005
+1.403934045688953E-003
+1.930667923063206E-004
+5.389559000688356E-004
+1.123029464708281E-003

