# Energy in atomic unit (1 Eh = 2625.499640 kJ/mol)
# -------------------------------------------------
# step         Hamiltonian             Total energy           Kinetic energy         Potential energy        Thermostat energy    External field energy 
       0 -2.982187262331903E+002 -2.982187262331903E+002  5.047579279663731E+000 -3.032663055128540E+002  0.000000000000000E+000  0.000000000000000E+000
