# Electrode atom charges in atomic unit
# -------------------------------------
# Charge:   1 au = 1.602176565e-19 C = 1 e
# step        0
-6.440364731059295E-006
-4.200316143695359E-005
+5.511616841513444E-004
+6.114786267980705E-004
-2.992605459828965E-005
-4.330828258013658E-005
+7.943271310385440E-004
+8.828315922594150E-004
-1.241019285279962E-002
-1.309556763554172E-002
-1.163599987724417E-002
-1.467440093604913E-002
-2.645757683680252E-005
-3.566860818728529E-005
+5.840174160859377E-004
+7.328710632988800E-004
-3.618369521634347E-005
-3.590167753180730E-005
+6.486088804121246E-004
+7.722392174090097E-004
-8.065223775249035E-003
-9.482280899900698E-003
-8.035451015980246E-003
-1.074599179424265E-002
-3.736291772160661E-005
-2.416592442765841E-005
+4.931175674195605E-004
+4.641668474460755E-004
-2.244409551367597E-005
-2.148976420257492E-005
+2.831378486697657E-004
+3.562703806324841E-004
-1.006321809500510E-002
-9.398186044889557E-003
-5.526955924956444E-003
+9.752834323022832E-004
-2.669562955537116E-005
-1.664749780869047E-005
+2.889228044809819E-004
+1.601715340422911E-004
-1.039532083538694E-005
-1.358764133403292E-005
+4.013952148532537E-005
+7.982784085319380E-005
-1.122137266758502E-002
-5.623694721499156E-003
+8.843826628906567E-004
-7.530098307514483E-004
-1.570674897636655E-005
-4.250421712765276E-006
+2.321612543284369E-005
-1.799807042077566E-005
-2.115649929241964E-005
-9.747554431304781E-006
+1.215266016277622E-004
+2.387530931301967E-004
+9.755383921820240E-004
+8.150790006279777E-003
+1.618423964657932E-003
+2.007261766325992E-003
-2.451918094283536E-005
-1.527882539026219E-005
+3.526966405658072E-004
+3.517981478991255E-004
-3.199802943717967E-005
-2.261360085409886E-005
+5.348541051513849E-004
+4.967652792989986E-004
-5.316547648380986E-003
-7.656605879768658E-003
-1.261829040008102E-002
-1.223375441684812E-002
-1.798245876341826E-005
-3.702480332035082E-005
+6.249026682421591E-004
+5.647392488386088E-004
-2.444189696412754E-005
-1.585661840281018E-005
+4.066716981640098E-004
+2.497325772466480E-004
-1.277727088378282E-002
-1.232984933317704E-002
-9.404607319405371E-003
-6.915558874335414E-003
-2.700759183980453E-005
-2.901959683230301E-005
+4.394220227681104E-004
+2.327194468728347E-004
-7.217546477770590E-006
-1.638670667254864E-005
+7.402326383640697E-005
+1.096756024532461E-004
-1.136440829070837E-002
-8.262433101392939E-003
+6.181672558108702E-004
+4.635017213666037E-003
-1.604743618661353E-005
-2.339628150882360E-005
+1.379744358641575E-004
+6.700565843355826E-005
-1.538144732412203E-005
-1.930980123613560E-006
+1.087416406596928E-004
+2.608568904207225E-004
-6.251863084476214E-003
+1.066908933353615E-003
+1.818097669619866E-003
-1.111142709938433E-003
-2.282640773272628E-005
-1.013064313716221E-005
+2.151515590097718E-004
+1.744331700326042E-004
-2.076268989209573E-005
-1.564267209114126E-005
+2.597204895704406E-004
+4.410904558960039E-004
-1.050071783456704E-002
-2.158683846765307E-003
+7.998172059152280E-004
+2.141493312912655E-004
-2.038427764741458E-005
-2.550552788363083E-005
+4.169130798812654E-004
+4.234139297591040E-004
-2.751498732154712E-005
-3.926425601915821E-005
+5.615547581894663E-004
+5.858401087095816E-004
-8.078489015889442E-003
-8.135501115709072E-003
-1.089492163939639E-002
-9.329302230391993E-003
-2.820066064552220E-005
-4.163105978047799E-005
+6.526799186299155E-004
+6.593596659808086E-004
-3.031359116961297E-005
-1.964680962288595E-005
+6.035759381248817E-004
+5.900129173823812E-004
-1.253984086102856E-002
-1.360422594014509E-002
-1.270320818863926E-002
-1.120664961285725E-002
-2.740688451974850E-005
-4.216040466038867E-005
+4.828085382954101E-004
+4.045927599458375E-004
-9.532643542167761E-006
-1.924695389245754E-005
+1.837033400174356E-004
+3.052513454136485E-004
-1.118861161219151E-002
-7.669406279555501E-003
-2.862100044799685E-004
+2.105545357643326E-003
-2.363620932602993E-005
-1.360997361266413E-005
+8.203322783918885E-005
+4.276271641570715E-005
-5.057839815903971E-006
-2.201726127079502E-005
+7.941619106530889E-005
+2.245684748848363E-004
+4.936521704435269E-004
+2.634620154912522E-003
+3.081989569818909E-003
-1.535367669279531E-003
-2.173472016392500E-006
-1.288770741083984E-005
+7.712464362261990E-005
+1.974857667375122E-004
-1.938656750082911E-005
-3.116910596743079E-005
+4.698235184723761E-004
+5.353260239093410E-004
+2.162374946304443E-003
+4.671811310334883E-003
-5.771901172595637E-003
-6.697351923477324E-003
-2.893302892315007E-005
-4.308283526356996E-005
+7.453418178031572E-004
+7.718589702991457E-004
-4.549444950435227E-005
-5.142893192270580E-005
+8.993783483959640E-004
+7.389252009009104E-004
-1.321278021209276E-002
-1.207006876711829E-002
-1.522563307892030E-002
-1.305617531891392E-002
-5.506511105362933E-005
-5.326815965154211E-005
+9.473314567398004E-004
+9.490904195967642E-004
-3.766610002893210E-005
-5.481337018277426E-005
+9.169232585467394E-004
+7.084664585564662E-004
-1.704456795431628E-002
-1.935312621728516E-002
-1.588444116816592E-002
-1.847168824225142E-002
-3.605814837520261E-005
-3.582947528287691E-005
+6.438729684012839E-004
+7.709989597214691E-004
-2.896695623182835E-005
-4.054290465733050E-005
+6.072345999811154E-004
+4.415731825176406E-004
-5.027875369613122E-003
-1.050980772786966E-002
-8.489562959539319E-003
-1.291221781796183E-002
-1.507921189750446E-005
-2.086249771449489E-005
+2.681871343384424E-004
+3.792041424479902E-004
-2.033534598861916E-005
-2.684633216227947E-005
+3.509802442895709E-004
+3.236453440151196E-004
+9.155874375301699E-005
-6.979782128268600E-004
-1.654473067074466E-003
-6.106973430172310E-003
-6.993622360108532E-006
-1.005890947253566E-005
+1.585022934923110E-004
+3.215242795940634E-004
-2.504538249390205E-005
-2.146150755336253E-005
+4.333315067302397E-004
+4.202630168909006E-004
+5.130708217645189E-003
+1.010383868137838E-003
-5.927092376551600E-003
-9.589431574106022E-003
-1.668152848368457E-005
-2.072047079476199E-005
+4.380979708282159E-004
+4.722444535941246E-004
-2.497406109505330E-005
-2.134202504299499E-005
+3.943579929812125E-004
+2.920453983680294E-004
-7.264315105515524E-003
-9.503457909483516E-003
-1.051243941430378E-002
-7.730727466902933E-003
-2.492958715032602E-005
-2.995536186051740E-005
+4.001776786160373E-004
+2.576142146186676E-004
-3.057283457575034E-006
-3.725007716716895E-007
+8.278182601343316E-005
-1.686232627270243E-005
-1.036009045428481E-002
-8.177310997046402E-003
-5.376868295706148E-004
+4.598800236950407E-003
-1.059829248670318E-005
-2.700261301764804E-005
+1.175387416970031E-004
+1.328761648056464E-004
-5.510502001215182E-006
-3.513404209754066E-006
+2.681293214573386E-004
+1.939896042822323E-004
+5.975788888308640E-004
+1.864201184538493E-003
-1.425658267457608E-003
-8.564374467844596E-003
-1.643334870625537E-005
-1.868639559625681E-005
+2.411059071774224E-004
+3.811904091140671E-004
-9.503087578500662E-006
-4.266873818364461E-005
+5.580858419281113E-004
+4.892014091301451E-004
+1.481749680449666E-003
-3.046472794655608E-003
-1.116077591969609E-002
-1.067057032901157E-002
-2.559364398670321E-005
-2.396357419930112E-005
+4.569584352603973E-004
+6.176851590723817E-004
-3.596488969403985E-005
-3.091952752193409E-005
+7.008346560307740E-004
+6.377350957920225E-004
-2.135408528375051E-003
-7.416050572061096E-003
-1.183126078566695E-002
-1.591548569139817E-002
-2.830492324012711E-005
-4.302852758416021E-005
+6.245755809553311E-004
+7.007110459005467E-004
-2.961997439543748E-005
-3.237465190068861E-005
+6.454377901790058E-004
+4.754397361327593E-004
-5.317655055248218E-003
-9.636154706724576E-003
-1.298601075487357E-002
-1.176732825758653E-002
-3.416744584161000E-005
-4.312812996579427E-005
+6.708684126405633E-004
+5.811111968562201E-004
-1.760376777013253E-005
-3.864557765960950E-005
+4.596695236803639E-004
+2.131983098155262E-004
-1.023552241912471E-002
-1.119667798041152E-002
-1.228766817636288E-002
-7.294120479472358E-003
-3.940496890546453E-005
-2.593090641460713E-005
+5.002463453217516E-004
+4.422499413651673E-004
-2.230150160966721E-005
-2.775445034300532E-005
+3.873349443136505E-004
+2.516938534066109E-004
-7.979107014536562E-003
-1.081632715406694E-002
-6.629769810048930E-003
-6.386359958398166E-003
-4.636411296220720E-006
-2.092296895485794E-005
+2.493455401318521E-004
+3.530486347555520E-004
-1.788484694762541E-005
-2.424734689192911E-005
+4.671200086945300E-004
+5.383196840565462E-004
+4.101425326647822E-003
-1.494033346194879E-003
-4.387288496939097E-003
-7.249521647175784E-003
-1.111291217768633E-005
-3.529587834588772E-005
+3.933662123814835E-004
+5.361231577175586E-004
-3.890710863802627E-005
-4.296569654125773E-005
+6.857423294891783E-004
+7.009208734551842E-004
-3.891917974650551E-003
-5.108288454716774E-003
-8.190892922624827E-003
-1.104236276784908E-002
-4.453755847941762E-005
-2.947621022007003E-005
+6.612240493364756E-004
+5.162624122228592E-004
-3.432948887815569E-005
-3.211009657081907E-005
+2.873210697791052E-004
+2.174201105453375E-004
-1.323773509753272E-002
-1.258236045706766E-002
-5.781056383607340E-003
-1.327794760040157E-003
-5.131554018069922E-005
-2.781350858878988E-005
+6.315903310295867E-004
+3.063265411528636E-004
-3.121891215562836E-005
-1.818744993009253E-005
+1.145129995177653E-004
+1.038848154154196E-005
-1.899225971522228E-002
-1.243039894901286E-002
-6.681879325029770E-003
+2.739185157045076E-003
-2.283996745303705E-005
-3.266920984409584E-005
+4.364015428535603E-004
+1.432688327730331E-004
-1.200271554896747E-005
-1.279213868106061E-005
+8.091901657727240E-006
+9.636983765579230E-005
-1.656510782875242E-002
-9.269041653228741E-003
+3.977864386288376E-003
+5.420694131709526E-003
-1.011351468759177E-005
-2.361476231397422E-005
+2.355013399607328E-004
+1.084982201705228E-004
-1.840917238032311E-005
-5.171139520907119E-006
+1.746435239635572E-004
+2.465877730644655E-004
-8.790873059340216E-003
-1.462602068782588E-003
-1.129571411510241E-003
-2.719739390879163E-004
-1.549779939702051E-005
-1.304981151487940E-005
+3.108934581064101E-004
+2.674486094118735E-004
-3.112752465475266E-005
-1.591847153099519E-005
+3.379921337125762E-004
+3.858375948754904E-004
-6.633464971976080E-003
-5.662760847216907E-003
-4.180620756835468E-003
-4.413480539248976E-003
-2.392273984618583E-005
-2.267695626337966E-005
+3.797582766264776E-004
+3.224986639460259E-004
-5.089204100221213E-006
-1.841480103982685E-005
+1.983483731314765E-004
+2.496975980743330E-004
-1.160415417363164E-002
-8.061472048305951E-003
-4.315772135453350E-003
-3.193126529191599E-003
-9.138393156964995E-006
-8.613841425242153E-006
+6.473252766624156E-005
-4.493775696496985E-007
-6.681614737220188E-006
-2.232763348686010E-006
-1.271825567601187E-004
+1.701788710047694E-006
-6.269931597409249E-004
+9.110420464991328E-004
+6.445412890253153E-003
+8.956319636829701E-003
-2.996049536178811E-005
+5.106105208293654E-006
-1.618743363620687E-005
-1.400359122426930E-004
-8.627966847170878E-006
-1.253626596710396E-005
-2.841181254220608E-005
+7.681889731429417E-005
-7.295977371747383E-004
+3.352228608854475E-004
+1.029994364589301E-003
+6.084635749010868E-003
-2.237889970916809E-005
-1.213818126123265E-005
+3.001437572622156E-004
+1.640522344967729E-004
-1.802183300707801E-005
-1.827133367018773E-005
+2.997567356223546E-004
+3.127498989771795E-004
-9.949489403109016E-003
-5.726741128881508E-003
-5.431346898853679E-003
-4.785203426122507E-003
-3.542020273132216E-005
-2.934342982296518E-005
+5.331238936456407E-004
+4.139842289818603E-004
-3.932921185787998E-005
-2.818256717643980E-005
+3.924434882219172E-004
+3.810967030855096E-004
-1.037049006415102E-002
-7.953785753927693E-003
-8.647523050152876E-003
-5.643038571265318E-003
-3.015057651193998E-005
-3.610458320877489E-005
+5.481287848877861E-004
+3.567875956707614E-004
-9.316745912175981E-006
-6.392524071606447E-006
+2.047117443080182E-004
+1.925355604841355E-004
-1.506484273119254E-002
-9.933604801090980E-003
-4.618845035230312E-003
-1.825787211035394E-003
-2.576467611664772E-005
-2.132202227681070E-005
+2.570031747965865E-004
+9.483949458041024E-005
-1.418113951530762E-005
-8.900971047057445E-006
+1.460837200865444E-006
+1.048924188866942E-004
-4.857402668182752E-003
-2.552580238702970E-003
+1.933828153194574E-003
+4.699100582146452E-003
-7.237965524701082E-006
-1.767661891816722E-005
+1.182955757879342E-004
+4.719780474469017E-006
-1.667650963893957E-006
-2.197737861644650E-005
+1.097242002626026E-004
+2.564118980123350E-004
-4.993319173532422E-003
+2.232794649244686E-003
+2.883805851135842E-003
+3.534914672742145E-003
-2.778619219331013E-005
-2.396734883657082E-005
+3.482899102610513E-004
+2.947369110807266E-004
-2.832108900849359E-005
-1.679016220093334E-005
+4.598581906837127E-004
+4.253137265437143E-004
-6.817628110448889E-003
-7.426502509555521E-003
-8.809403614715303E-003
-7.210811281894881E-003
-3.137761017456762E-005
-4.129485881397750E-005
+6.524369590652330E-004
+5.665860336751589E-004
-3.995165780338540E-005
-1.816241728782658E-005
+5.111126877399320E-004
+4.574812047014639E-004
-1.209834945002097E-002
-1.393209095269143E-002
-1.121635323606829E-002
-8.008809290274950E-003
-2.520360720454314E-005
-2.012759055022608E-005
+3.856295657707436E-004
+3.004946381383062E-004
-2.171728204891219E-005
-1.339624875859664E-005
+2.309333286117616E-004
+1.963991876204370E-004
-6.950690628844244E-003
-8.484090338336449E-003
-5.727782778744220E-003
-5.072439735536748E-003
-1.755998619074920E-006
-5.886836435524417E-006
+8.411857941640965E-005
+2.091076622434976E-004
-6.118586295603350E-006
-1.965044746965885E-005
+2.120115678706912E-004
+3.421253730899399E-004
+4.324588781500812E-003
+3.529387746277350E-003
+1.387282567059714E-003
-5.463030150451976E-003
+2.453657271769219E-006
-1.804942691406503E-005
+1.010063529205351E-004
+2.321982553711095E-004
-1.768301580820461E-005
-1.562555730768023E-005
+3.232933700724401E-004
+3.485325933963240E-004
+1.722456692225062E-003
+7.812039366379862E-006
-6.747339652062293E-003
-6.314969298877648E-003
-1.109567534194127E-005
-1.617615940032438E-005
+2.825308904684036E-004
+3.625237604293767E-004
-3.104407974151246E-005
-1.110725047197987E-005
+4.127276385432346E-004
+3.232030098679987E-004
+1.745203064282293E-003
-6.047564395754136E-003
-8.718242375016349E-003
-9.150225114415479E-003
-2.883876420790039E-005
-7.554185082815170E-006
+3.967387252787603E-004
+3.931319917318497E-004
-2.633005473091662E-005
-7.319046034758014E-006
+3.718874842647756E-004
+3.739576713725388E-004
-5.407182940444536E-003
-6.960710757922927E-003
-7.329969045340948E-003
-3.840407671562207E-003
-9.164719216943433E-006
-2.712319572718561E-005
+4.066220565526213E-004
+3.869269570325536E-004
-1.985418889091410E-005
-1.106098788196093E-005
+3.722696619845223E-004
+4.405894901503558E-004
-8.359101018167104E-003
-1.021190646476552E-002
-6.089291431513321E-003
-4.869127956255431E-003
-9.105058354431174E-006
-8.981158984375792E-006
+1.873113989188514E-004
+3.146772861506503E-004
-7.890025274852282E-006
-1.506614406988092E-005
+3.182273178198957E-004
+3.893459151642708E-004
+2.732493070289653E-003
-2.718677186545957E-003
-3.200281084174118E-003
-5.618131588457174E-003
+2.196448863765140E-006
-1.195363130345528E-005
+1.376397665000962E-004
+2.901063087012607E-004
-1.235881063002428E-005
-2.531466548754998E-005
+3.853804055739432E-004
+3.101472720678374E-004
+4.938244059718642E-003
-2.651122415623028E-003
-6.179435612482976E-003
-8.201155201316817E-003
-1.352950402009488E-005
-2.153630201030861E-005
+2.820323587546231E-004
+3.807652007269846E-004
-1.638910428789289E-005
-2.837583381840261E-005
+4.500004265405710E-004
+2.681123159199898E-004
-9.065542926424030E-004
-3.728574037415330E-003
-6.515653678496805E-003
-8.816782961457383E-003
-1.005518417346011E-005
-3.012681909712676E-005
+4.424262098304272E-004
+5.000468506368991E-004
-1.439988712926359E-005
-3.171018177091738E-005
+5.741288512840970E-004
+4.525821309058445E-004
-6.326222746183913E-003
-7.167393685360149E-003
-9.559895635182733E-003
-1.359599192702267E-002
-2.960077247326571E-005
-3.070085916516262E-005
+3.577244521110787E-004
+4.857849162495531E-004
-1.607894399677236E-005
-2.257669145896528E-005
+5.014592970908890E-004
+6.383253224628845E-004
-3.093647812557486E-003
-4.516401680126792E-003
-1.692463251888900E-003
-8.306828528878932E-003
-1.581977300609883E-005
-1.581080451341099E-005
+1.890861654623133E-004
+4.104813343980344E-004
-2.274881037645071E-005
-1.964207721332658E-005
+4.946619701267378E-004
+6.034133201147189E-004
+1.171381666760913E-003
+1.014010328676568E-003
-6.777246293030245E-003
-9.359774285061224E-003
-1.324058588248806E-005
-1.898118912936728E-005
+2.656371039469868E-004
+4.482190606672070E-004
-1.397747266398772E-005
-2.185861105555852E-005
+4.170362812476825E-004
+4.323066367081117E-004
+5.159195925859790E-003
-6.537341127765437E-003
-8.718780986628033E-003
-9.293205638689553E-003
-2.497344282730566E-005
-2.257433114465212E-005
+4.297084531566240E-004
+3.528717124225467E-004
-2.551204590095372E-005
-1.887371466311656E-005
+2.140609233401609E-004
+1.493906471901582E-004
-7.713659812456938E-003
-8.687530961284726E-003
-9.720379023985119E-003
+8.887831424609794E-004
-3.766202206316241E-005
-1.582593516546359E-005
+4.439335968594602E-004
+2.859912621144129E-004
-2.316390284732175E-005
-9.287031263292503E-006
+2.208983049819642E-004
+7.255478720250508E-005
-6.241703001358707E-003
-8.169267849249979E-003
-9.763840853529158E-003
-5.355899614339009E-003
-1.231449726539615E-005
-1.251544212621747E-005
+7.997714316532142E-005
+9.408793080337597E-005
-7.424055811309590E-006
-2.041401340878865E-005
+1.844007906211946E-004
+2.826290886567764E-004
-2.811591796423704E-003
+2.212262334024980E-003
+2.680902614491222E-003
-4.749428271869101E-004
-6.425933766742736E-006
-2.808735915701872E-005
+2.628866827911876E-004
+2.867760173225641E-004
-2.059820614930592E-005
-1.562991703233691E-005
+3.995844527056647E-004
+4.049702365384859E-004
-5.125748062301564E-003
-5.870590504475900E-003
-8.198717439445393E-003
-9.125892805827596E-003
-1.920745704855835E-005
-2.015249657952689E-005
+3.184602054791633E-004
+3.623414550942132E-004
-1.924847127701274E-005
-1.370473531836941E-005
+2.538588282575878E-004
+2.265886104921147E-004
-4.234428676370949E-003
-4.992242120266121E-003
-4.436439755338973E-003
-3.243275542358052E-003
-1.617861514102021E-005
-2.259137567297458E-005
+3.161443837842302E-004
+2.010693625535419E-004
-1.871272684898050E-005
-1.246860407261407E-005
+1.474336020066772E-004
+4.758066764046593E-005
-6.606017864537447E-003
-4.972387521025137E-003
-4.517264887145588E-003
-1.404492280516763E-003
-3.240484836650061E-005
-1.763991656840435E-005
+3.120934702459286E-004
+2.604734033818049E-004
-2.057721764423468E-005
-1.051029237191114E-005
+3.235955866455440E-004
+1.670466572452633E-004
-4.115287396576253E-003
-2.219944998749498E-003
-6.069592760054953E-003
-6.911200081351569E-003
-2.320036306087475E-005
-2.511182739618082E-005
+4.583703249568531E-004
+4.615417586141260E-004
-3.262306335444558E-005
-2.477251754708688E-005
+5.291707883703642E-004
+4.765959346927857E-004
-5.187692399894518E-003
-9.136632199277052E-003
-1.068335072831907E-002
-9.938376642793255E-003
-3.569923583392699E-005
-2.798522039610240E-005
+4.797074464045710E-004
+5.218548447242980E-004
-2.645153629103140E-005
-1.345382282299074E-005
+4.865465461460644E-004
+5.878272528706375E-004
-5.215171608479963E-003
-8.573247120197306E-003
-7.410823075268881E-003
-7.607418602072409E-003
-1.905715497021080E-005
-1.654420547587417E-005
+3.213202940424038E-004
+3.492330578179729E-004
-2.311292163214756E-005
-1.217005116651382E-005
+2.120907144765874E-004
+3.587529638688012E-004
-7.010980703848987E-003
-4.095447005794562E-003
+4.258151876165091E-004
-1.797673888011606E-003
-4.228007123615466E-006
-2.498785095895800E-005
+1.762051077544334E-004
+4.219560082595192E-005
-4.868989663012622E-006
-9.051044264358067E-006
-2.700163230230908E-005
+1.169479706600907E-004
-7.943874323406644E-003
-3.342249674182520E-003
+5.632238759175605E-003
+6.725243125105308E-003
-2.166690564898671E-005
-2.271426917083895E-005
+2.144760880772338E-004
+6.066472292798187E-005
-2.570677127658700E-005
-9.204661928077378E-006
+1.852757893289263E-004
+2.338333605935081E-004
-1.186045044187779E-002
+1.027272694143874E-003
-1.276161507520365E-003
-7.478061065836103E-004
-3.449158570827845E-005
-3.300153101114326E-005
+5.305982815160552E-004
+4.275160083783360E-004
-2.399163124657088E-005
-2.961499037071118E-005
+5.572474036526419E-004
+4.195375037611161E-004
-1.264780313406551E-002
-1.123794984480885E-002
-1.281899261570003E-002
-1.191533185686569E-002
-2.290273278262830E-005
-4.330256261248171E-005
+6.540694391630866E-004
+6.457530031388777E-004
-3.532579769305085E-005
-3.107313594376314E-005
+5.882929061989704E-004
+3.898697683579650E-004
-9.557929339356411E-003
-1.193945671680120E-002
-1.109635221991976E-002
-1.294718630563359E-002
-3.976893312954136E-005
-2.839011418844025E-005
+5.697958702689228E-004
+5.846194825732099E-004
-1.985447646455035E-005
-3.168177028210010E-005
+5.711541158357486E-004
+4.319002649628468E-004
-8.623618157360262E-003
-8.134563612656272E-003
-1.166967138838307E-002
-1.237949531122440E-002
-1.980773477359838E-005
-2.133039148485840E-005
+3.243033230361172E-004
+4.611914270974227E-004
-2.740112634250311E-005
-1.415015091585809E-005
+4.581704863723692E-004
+5.814913747286076E-004
-7.751658284107410E-004
-2.019500721131994E-003
+4.589654824714211E-004
-1.255578935113083E-002
-1.615040799691614E-005
-6.306747578394100E-006
+5.747913050703268E-005
+2.293291590444141E-004
-1.348297219273004E-005
-9.473132895207916E-006
+2.000775524741745E-004
+3.790528136019838E-004
+4.792466743712001E-003
+4.660069362844838E-003
-1.583746922141468E-003
+8.435259937364696E-006
-8.628488111982080E-006
-1.429432872295711E-005
+3.632376855312036E-004
+4.381758032047945E-004
-2.091264382446253E-005
-2.601470444986177E-005
+4.236096494342477E-004
+3.239819715345361E-004
+1.191765797408512E-003
-3.274133359603857E-003
-7.242271906013368E-003
-7.068521794952240E-003
-1.764195783803634E-005
-2.085466647469463E-005
+4.062442780239219E-004
+4.027898035835475E-004
-1.397928130493386E-005
-2.863812121487704E-005
+3.962829957114365E-004
+3.443585472664031E-004
-8.128141861410374E-003
-7.607873162255398E-003
-6.491784141528293E-003
-5.787675455277167E-003
-2.022623050728893E-005
-2.294283509611505E-005
+3.514978000881140E-004
+3.481531861302313E-004
-2.384399978570066E-005
-1.204142588602255E-005
+3.092662964100970E-004
+4.234951573423804E-004
-7.447630039540403E-003
-6.387486151381667E-003
-3.527180449375777E-003
-5.941673697965093E-003
-7.475770214295498E-006
-7.140376062501609E-006
+9.008074205934503E-005
+1.683083904164806E-004
-8.087322709834994E-006
-8.959760774874882E-006
+9.114438744928786E-005
+2.759322793432236E-004
+1.524388275467112E-003
+1.538395524995047E-003
+2.310744103138223E-003
-1.407107726668454E-003
-2.075705934881013E-005
-5.281542794444414E-006
-1.758309282830980E-005
-5.093837849955474E-005
-2.558471381756353E-006
-9.225807397285311E-006
-8.291597253514098E-005
+1.480431201327608E-005
-1.127414014572205E-003
+2.249633679343831E-003
+7.038167555595207E-003
+8.969327920706984E-003
-2.375172035045202E-005
-2.227471192952870E-005
+2.584725379800019E-004
+1.131372524950417E-004
-9.540125952848068E-006
-2.330245330676723E-005
+3.205923629352332E-004
+1.900949069744688E-004
-1.032715187068032E-002
-3.556776734799777E-003
-8.352598032570034E-003
-5.178397791594931E-003
-3.195271155797883E-005
-4.303242370023514E-005
+6.019076413042100E-004
+5.811345213006942E-004
-3.352664511830814E-005
-3.722155843476729E-005
+6.995354091343612E-004
+5.510702772456579E-004
-7.652686317685093E-003
-1.147873971261740E-002
-1.432022430526965E-002
-1.508958803581847E-002
-3.763035096206006E-005
-3.079368227881081E-005
+6.422545790714454E-004
+7.302937079017354E-004
-3.121089304549229E-005
-2.894865974079340E-005
+6.981087334941675E-004
+7.000850386738330E-004
-7.930674424201201E-003
-1.230198498755173E-002
-1.152472918740123E-002
-1.536924526408385E-002
-1.167826301448784E-005
-2.052639759565184E-005
+3.090151015496600E-004
+5.370800906448368E-004
-2.301069398045539E-005
-3.732812783334553E-005
+5.373252878197104E-004
+5.373515809590550E-004
+1.664164474553531E-003
-3.385742909354561E-004
-4.193056436023238E-003
-1.363411488463675E-002
-1.554209785098537E-005
-1.188424683559360E-005
+1.996089397796092E-004
+4.186669638907054E-004
-2.029755709486917E-005
-2.398424367991069E-005
+4.563306092111496E-004
+3.778562665382192E-004
+4.380950334048564E-003
-3.864131959783038E-004
-8.590838490029461E-003
-1.090182612354285E-002
-1.907406041783553E-005
-2.775666851904515E-005
+3.468655475511303E-004
+3.882590476502603E-004
-2.386427595316325E-005
-1.171093988808042E-005
+3.513620075637384E-004
+2.937139025441815E-004
-4.755899723603793E-003
-4.223822696478158E-003
-4.499489125124811E-003
-5.582916080712849E-003
-3.218279545270262E-005
-2.094093301670601E-005
+3.520800784943297E-004
+2.458529561338902E-004
-2.172771944848104E-005
-1.128140763732464E-005
+2.474589756503667E-004
+3.729765948803507E-004
-1.090616890211504E-002
-3.921531685402331E-003
-1.049353441336262E-003
-1.518162082497112E-003
-2.358694112794193E-005
-2.932137724743803E-005
+2.358371771562725E-004
+1.922644695867263E-004
-2.797089749742029E-005
-1.737398240417309E-005
+2.803596012695205E-004
+3.763513351088328E-004
-7.546126981131842E-003
+3.800702436909632E-003
+2.902173921273691E-003
-2.429852209355573E-003
-3.917098093993512E-005
-6.926958337604982E-006
+4.888973063997652E-004
+3.921595779863380E-004
-3.828044115160757E-005
-1.982395250496335E-005
+4.803658871240128E-004
+3.384957937257951E-004
-1.376562163509226E-002
-7.628440264041847E-003
-1.421167556951870E-002
-7.538615107049631E-003
-3.387820720183134E-005
-2.692420653961583E-005
+5.867456855524330E-004
+5.347399285703915E-004
-2.810007361130295E-005
-3.547282570279372E-005
+4.910751404969576E-004
+3.393502752954189E-004
-7.132644752217386E-003
-1.488994367425109E-002
-8.215603942066293E-003
-1.031290213553960E-002
-2.025526671398818E-005
-9.498088404850259E-007
+2.625292326946233E-004
+9.043183998384407E-005
-2.698993141823655E-005
-1.519114963172384E-005
+6.671756703236065E-005
+4.743414005873943E-005
-8.482296067181753E-003
-5.526249211182835E-003
-1.991545935026541E-003
+1.138258240674557E-003
-2.456272627500806E-005
-9.794424654689090E-006
+2.812427057750776E-004
+1.754078661132214E-004
-1.787108499809532E-005
-1.689484296163899E-005
+2.252496351168090E-004
+1.984714537221040E-004
-6.037563317925037E-003
-3.897664815103295E-003
-3.476004480033534E-003
-2.227884286472265E-003
-1.103308409287944E-005
-2.708767235145943E-005
+4.080608721939760E-004
+4.012174896316163E-004
-2.963273517894259E-005
-1.520221330421285E-005
+5.229675262754975E-004
+4.844527227853372E-004
-6.791791935421772E-003
-6.011638260846192E-003
-1.081932588371578E-002
-1.190598171610885E-002
-1.301582504768009E-005
-2.844249248284255E-005
+4.553282931958404E-004
+5.549715395340805E-004
-1.960985960482620E-005
-1.816871886689313E-005
+4.838951533507896E-004
+4.702853970397033E-004
-3.778080115139036E-003
-9.513705487970042E-003
-1.118450735340776E-002
-1.180366431715663E-002
-4.977592726533298E-006
-1.014128815950308E-005
+2.062512281982555E-004
+3.053850876815023E-004
-7.936440129908378E-007
-2.226820489476652E-005
+5.622586469698787E-005
+1.337164751978452E-004
-4.285693688888512E-004
-3.617841497329191E-003
-4.173119200940244E-004
+1.408032474628966E-003
-1.452612383180829E-005
-8.187843650201412E-006
+4.796566476942021E-005
-6.174215419043833E-006
-9.199290986050068E-006
-7.555529461028905E-006
-2.298821372020195E-005
+1.140499966893408E-005
+3.065348678039002E-003
+1.253585401566732E-004
-1.159335762690424E-003
+2.606625187180893E-003
-2.587058478504148E-005
-1.733419081375571E-005
+3.301240508420603E-004
+1.584565087571245E-004
-1.249485232831055E-005
-1.162743036466492E-005
+3.121095012090121E-004
+3.317446150420007E-004
-9.793991161085893E-003
-3.672824712740444E-003
-6.204372252945975E-003
-3.190334736815316E-003
-3.542148011206868E-005
-4.322335205738807E-005
+6.129788446614532E-004
+4.842069880271105E-004
-3.062266347473174E-005
-3.151898935286423E-005
+5.474273447671718E-004
+4.805238323461369E-004
-1.343204107424443E-002
-1.060017804248564E-002
-1.077730787924967E-002
-1.069838950405926E-002
-3.812898461643521E-005
-3.133187459581266E-005
+5.749004832483824E-004
+4.967973080904163E-004
-2.871805155105348E-005
-1.225724775663228E-005
+3.411847647864176E-004
+3.495821310485444E-004
-1.085980067830297E-002
-8.687642304881980E-003
-5.390385819363463E-003
-6.963305942325905E-003
-1.862628650387101E-005
-2.517878499401433E-005
+3.527394049834308E-004
+2.313778654603926E-004
-1.722818411021634E-005
-1.798006840515157E-005
+6.032767505891088E-005
+5.891192649839649E-005
-9.067974116460853E-003
-3.825250459103498E-003
-2.059320847909171E-003
+5.233955873482409E-003
-3.400044329442568E-005
+2.983172775910673E-007
+2.833454305560804E-004
+7.001205445169162E-005
-2.428608342147000E-005
-2.149951809783150E-005
+1.300609476147053E-004
+9.597450269869419E-005
-8.923595788236460E-003
-4.725241875404759E-003
-2.502141907354639E-003
+2.845699686816812E-004
-2.352689351682332E-005
-1.123694728646068E-005
+3.458186579987046E-004
+4.034229248166139E-004
-3.613176745336261E-005
-2.894821319758530E-005
+6.067269834834699E-004
+5.821178522247707E-004
-2.354157781005286E-003
-4.178100421034689E-003
-1.092761418277574E-002
-1.645582035008980E-002
-2.831850551670116E-005
-1.567170137499240E-005
+4.736229360725984E-004
+6.217820542779974E-004
-2.780269501840805E-005
-2.093734865862692E-005
+5.222367284811097E-004
+5.480706702061253E-004
-4.315687909321989E-003
-1.081075806703745E-002
-8.464879843065341E-003
-7.917082474875960E-003
-2.140108983433281E-005
-2.355086433060627E-005
+3.432020108272787E-004
+3.308534020364787E-004
-5.996271058497392E-006
-1.704473193138235E-005
+1.374908163865552E-004
+1.275497682218773E-004
-5.337549552351251E-003
-5.516545040442922E-003
-1.891075083445433E-003
+2.408197064275171E-004
-2.504829599543693E-005
-2.467025216534422E-005
+2.903200590475565E-004
+8.870676089881101E-005
-1.446857706312756E-005
-1.684603064493212E-005
+7.148645481958473E-006
-5.264999254306159E-006
-8.190961941784616E-003
-3.033521763468982E-003
-1.286713390697967E-003
+2.931374758292634E-003
+7.775126412033157E-006
-5.753149321909702E-006
+6.726768578266692E-005
+2.596677919200735E-004
-1.765686560003260E-005
-2.545776196457916E-005
+3.923221305701514E-004
+5.776603230323036E-004
+2.687883436605201E-003
+2.647272239470693E-004
-1.535139645995827E-003
-7.366797451824956E-003
-1.046864981206295E-005
-6.375243085015839E-006
+1.361226867695638E-004
+2.704948105342361E-004
-2.420210665254111E-005
-1.806903718935600E-005
+3.997679359170123E-004
+5.309262906158154E-004
-6.827113985887818E-005
+5.850243551724383E-004
+6.126443960925176E-004
-5.147326882021254E-003
-2.184472956759021E-005
-2.451613819614649E-005
+3.411780247987489E-004
+4.118523088328133E-004
-2.267935942681716E-005
-1.748011595198070E-005
+5.299555506762788E-004
+4.678936011602539E-004
-5.115858686192933E-003
-3.563041683470666E-003
-8.572696269352045E-003
-1.151925535631749E-002
-3.643202505981726E-005
-2.792944653616870E-005
+4.947169263171810E-004
+4.584049597699437E-004
-2.286628547098739E-005
-1.240151938500152E-005
+3.407730631514707E-004
+1.874214431135783E-004
-1.140165243009264E-002
-7.682685643728645E-003
-5.959177820307389E-003
-6.437688602626480E-003
-1.225498551005662E-005
-2.462009812034920E-005
+3.044993345102751E-004
+2.246530388373728E-004
-1.899211762415130E-005
-8.461822289685955E-006
+2.064568331210388E-004
+1.565032036077231E-004
-6.433597801429886E-003
-5.832974905237860E-003
-3.398422882867840E-003
-2.055958569896588E-003
-3.484048362744244E-006
-1.078397791962363E-005
+3.189673769828892E-005
+2.213048293600758E-004
-1.180045398837510E-005
-2.488279270755507E-005
+4.048762349235846E-004
+5.493973593952196E-004
+8.263517426330977E-003
+3.365167225826947E-003
-1.517269201966138E-003
-9.726619863916319E-003
-1.755998424968544E-005
-2.036329789410545E-005
+2.303129463303506E-004
+4.472264317099571E-004
-2.015971336609447E-005
-2.718225458302827E-005
+6.070960445903868E-004
+5.987714376631343E-004
+3.634605861949465E-003
+2.997628993238572E-004
-1.061942021702547E-002
-1.299568012781251E-002
-3.159562266289188E-005
-3.119140042468351E-005
+5.023347964852662E-004
+5.336471279490408E-004
-2.670341547138253E-005
-3.443857167945598E-005
+4.981219880071702E-004
+3.559312959944315E-004
-8.024954586053089E-003
-1.018944752679158E-002
-7.294493726194353E-003
-8.127497159534048E-003
-2.347493570584012E-005
-2.426799996738685E-005
+4.238843791052067E-004
+4.216838394772576E-004
-3.210394079062158E-005
-1.997042531425219E-005
+4.016831805072744E-004
+2.723426302862012E-004
-8.727739030929901E-003
-3.574597682305312E-003
-5.812435983634795E-003
-8.956438853068257E-003
-6.776606400088424E-006
-1.136443674318763E-005
+2.620278638185799E-004
+3.441071988292234E-004
-1.489357895185688E-005
-1.864936250975017E-005
+3.529843986479511E-004
+3.659528473732900E-004
-1.544182502723208E-003
-5.194062014545755E-003
-3.064055297393804E-003
-6.699967179203905E-003
-1.528413964743279E-005
-3.955143347978546E-006
+4.614266035411648E-005
+2.517066409979998E-004
-2.735965417634363E-005
-2.775573316468760E-005
+4.157596947885022E-004
+5.806059198700397E-004
+8.091740799865056E-003
+4.343056241972023E-003
+2.972502660616939E-003
-7.570993623187210E-003
-8.906973829871159E-006
-3.168556329404310E-005
+3.385850488937544E-004
+4.818262073416099E-004
-2.109201509136057E-005
-3.385043957914862E-005
+6.511745610557619E-004
+6.469353695762909E-004
-5.536507695261171E-003
-4.155767169009137E-005
-1.216345573902805E-002
-1.355422328596146E-002
-3.876915587175822E-005
-2.994703126363615E-005
+6.983799160837876E-004
+6.201433045981583E-004
-3.293314374258234E-005
-1.956732755169385E-005
+4.429861535208862E-004
+2.974390844846095E-004
-1.723251880016511E-002
-1.626366644912872E-002
-1.147162522838666E-002
-8.227716701238974E-003
-2.609573247359457E-005
-1.130538921546496E-005
+3.133268798323694E-004
+2.650233348822693E-004
-1.354282280479313E-005
-9.034401761106288E-006
+7.530559037251309E-005
+9.984204120094455E-006
-2.845470156647557E-003
-3.763779798057560E-003
-7.318059684131960E-004
+5.309995670695522E-004
-4.943690825569235E-006
-1.321116710445232E-005
+4.322450558321509E-005
+8.308246348082946E-005
-8.329435438279325E-006
-2.315136460989743E-005
+2.089517167231938E-004
+3.080501660408139E-004
+2.338924039749103E-003
+1.410817369675896E-003
-1.176828608218332E-003
-4.829253849283602E-003
+5.770061981894431E-003
+7.532802124876669E-003
-4.505404919866547E-004
-4.150142158085412E-004
+5.290636665863973E-003
+5.866858553393136E-003
-3.249168684899793E-004
-3.991342220349079E-004
+1.491906248873059E-005
+2.601620588904048E-005
+2.373410501235582E-005
+2.884861842754090E-005
-1.634665583013882E-005
+2.812233256367094E-003
-1.986428413105009E-004
-2.224340274653735E-004
+1.334874807070333E-004
+4.966570142772836E-004
-2.338402667736091E-004
-4.627717397242207E-004
+1.759104036282625E-005
+5.005547448633943E-006
+2.089045311586247E-005
+2.201235578589291E-005
+3.122034689223738E-003
-1.354034903796422E-004
-2.219745741090185E-004
-2.674096035860668E-004
+7.042878492957096E-003
+6.226790018116647E-003
-3.778825983013721E-004
-3.936845146405108E-004
+1.624327889618072E-005
+1.191118115842560E-005
+1.841889898257760E-005
+2.433208936158773E-005
+6.748494830107014E-003
+1.326092879693451E-002
-4.540400344240517E-004
-4.602477352532348E-004
+1.163019796596033E-002
+1.128370079789577E-002
-4.049375900307489E-004
-2.604781243339981E-004
+1.561657519186213E-005
+2.018109444515829E-005
+1.867492537364718E-005
+1.893256485244894E-005
+4.402554690963878E-003
+5.396333682038648E-003
-4.213691098814631E-004
-3.736229088447991E-004
+5.368844441879015E-003
-1.089903478399341E-004
-2.685521731522678E-004
-1.546460322860052E-004
+1.391657364012460E-005
+2.804227200840981E-005
+2.281177680155027E-005
+2.756729833966052E-005
+1.097413955771806E-002
+1.510830701631810E-002
-6.340258341050660E-004
-4.737913006356172E-004
+1.913978225437687E-002
+7.319880722951057E-003
-5.272813187204990E-004
-3.509783283594931E-004
+2.726109130164018E-005
+2.234531110042062E-005
+3.922550492812635E-005
+2.112300172628416E-005
+1.121958817243847E-002
+1.583625745511045E-002
-6.885199358988796E-004
-6.289038095291002E-004
+1.144175005064541E-002
+1.084230539818088E-002
-4.678948688240576E-004
-3.754304629922978E-004
+3.916190280735811E-005
+2.740419403400803E-005
+4.471183354011985E-005
+1.107329460324069E-005
+2.534584791967365E-003
+3.424868554655869E-003
-2.972933857045177E-004
-3.025432453288070E-004
-2.389263245601693E-003
-3.399858719322104E-003
-6.683807753772789E-005
-1.219707360134625E-004
+2.598838635149048E-005
+1.260073144051866E-005
+1.476898391631917E-006
+1.891689221160010E-005
+3.013122165193404E-003
+4.290571276347299E-004
-1.187918210261188E-004
-6.344166404386858E-005
+9.576572381741566E-004
+2.122477215994691E-003
-1.668345826075315E-004
-1.298743575915065E-004
+6.298674431228295E-006
+8.376621185311149E-006
+9.863687354313383E-006
-1.378009196348112E-006
+2.863479913755930E-003
+4.962162397380788E-003
-3.113083674544638E-004
-3.242641460132022E-004
+8.089442907335726E-003
+1.016747747458619E-002
-4.564296900754616E-004
-4.277821746453797E-004
+1.300163030205662E-005
+2.009978871201078E-005
+2.269459270641706E-005
+2.300605351647784E-005
+1.043189935324064E-002
+1.175739999688741E-002
-5.282629700782035E-004
-5.062310780663591E-004
+1.215372203644061E-002
+3.772750630533185E-003
-3.868655621255516E-004
-3.137437629578681E-004
+2.603338790151747E-005
+2.380167473458636E-005
+1.788055676504565E-005
+1.844518120649747E-005
+7.083023099535422E-003
+1.113899646783158E-002
-3.838485364431576E-004
-3.103981786321757E-004
+2.181843692411797E-003
+6.193995342447841E-004
-1.503658705931717E-004
-1.720070997645409E-004
+2.364440744023078E-005
+1.749376248308113E-005
+2.333931682967215E-005
+1.432291368436230E-005
-1.474027846095205E-003
+1.136752200615458E-003
-1.573938980932017E-004
-1.822273117415383E-004
+3.094370374948029E-003
+2.126297419143450E-003
-2.428095340913311E-004
-3.672638660646626E-004
+1.139251421777824E-005
-1.007789507049885E-006
+2.532612065552659E-005
+1.882924075411556E-005
+3.976750940841182E-003
+6.614731019101656E-003
-3.662920128789758E-004
-3.595713531822398E-004
+7.797622263545131E-003
+7.357888359316560E-003
-4.589411447485107E-004
-5.217464597324466E-004
+2.675869892099878E-005
+1.668712715792681E-005
+2.878240299604252E-005
+3.405360008244631E-005
+1.739766545383367E-002
+9.818445598430797E-003
-6.196759048919948E-004
-5.119047697879176E-004
+1.058573129646012E-002
+6.765402773881014E-003
-4.549424390417462E-004
-4.729374936766362E-004
+3.278718695167652E-005
+2.471911996267590E-005
+2.945313672751868E-005
+3.085207434067762E-005
+3.561677766469683E-003
+1.992653847519730E-003
-4.586732206831929E-004
-7.034000210240490E-004
+4.751155969562606E-003
+1.412635424869872E-002
-8.231613283131834E-004
-8.012970877366040E-004
+2.557966593185604E-005
+3.009093432186652E-005
+4.296488354239036E-005
+4.836848815615789E-005
+3.606853156336631E-003
+4.641328857819997E-003
-5.103020340744090E-004
-7.427777675370869E-004
+1.824158386611372E-002
+1.962834374075248E-002
-8.530515867578609E-004
-7.644458396425519E-004
+2.302144616544497E-005
+3.059484126109267E-005
+3.292203779301645E-005
+4.289517570386441E-005
+1.710692952390426E-004
+1.181999663729544E-002
-5.488731244598478E-004
-6.728082700653480E-004
+8.412101582250694E-003
+8.281660452634676E-003
-5.014155780208375E-004
-5.529395104121458E-004
+2.532462475177186E-005
+3.084106165671330E-005
+2.369084164535382E-005
+2.754553888242246E-005
+9.372607397597132E-003
+7.796797745089454E-004
-3.211854144126811E-004
-2.713403429652690E-004
+2.826448593262811E-004
-1.182952700382729E-003
-1.247704430766440E-004
-1.936697518472726E-004
+2.232766473640292E-005
+2.712295115634527E-005
+1.816887039088525E-006
+2.273013354051829E-005
-1.183408122531654E-003
+2.753272724865481E-004
-1.268151420915888E-004
-6.356080135263997E-005
+1.652095043035878E-003
+5.308409009962911E-004
-1.340451124062649E-004
-1.149559310382056E-004
+2.186238711770653E-005
+1.583698507794282E-005
+1.094385090807070E-005
+1.482700282757451E-005
+1.211252108597889E-003
+6.135707810032388E-004
-2.152609692864027E-004
-2.111078744747516E-004
+3.970883285344319E-003
+9.487517174546531E-003
-3.490661545164630E-004
-3.217586026083192E-004
+2.374828834848811E-005
+4.397798352561387E-006
+2.812226525191472E-005
+1.726318034988687E-005
+7.753741237808255E-003
+6.373295165622630E-003
-3.947982262955551E-004
-3.814913659460230E-004
+7.432885244006896E-003
+5.504202927882004E-003
-3.622389138200218E-004
-3.120837407540787E-004
+2.924431806836365E-005
+1.701905873245431E-005
+2.321450825297008E-005
+2.034317302021652E-005
+3.858221840563105E-003
+5.344794576109806E-003
-2.652541663833923E-004
-2.577502468158693E-004
+1.716676687725450E-003
+2.331568626598722E-003
-9.156721722858809E-005
-5.288014764175533E-005
+1.871004710312779E-005
+8.963143908935125E-006
+1.154723453944608E-006
+1.498366852492533E-005
-2.674878444481990E-003
-1.285648581272891E-003
-3.644407573009043E-006
+2.017613805664668E-005
-3.521833278140957E-003
-6.514369235126033E-003
+5.183546963747690E-005
-1.401292846654733E-005
+2.026331654193190E-005
+2.424278815905466E-006
+9.767426447594751E-006
+1.692695361454060E-005
+9.572555834905815E-003
+3.144666574410834E-003
-2.406064256550607E-004
-1.336288782394618E-004
+9.066152275823108E-003
+5.747736286483270E-003
-3.005967879644645E-004
-3.048799446816494E-004
+2.691647591953705E-005
+7.067603074505495E-007
+2.169324688191052E-005
+1.638293462892113E-005
+7.972475108942256E-003
+1.198642618199571E-002
-4.270341965789857E-004
-3.710450317468159E-004
+3.478584985669255E-003
+2.304495229146503E-003
-2.765408173818036E-004
-3.650577109073178E-004
+3.018939582900448E-005
+1.532023590878370E-005
+1.829630956178348E-005
+1.146549216205655E-005
-6.459735739093119E-004
-1.051225043165170E-004
-1.922065220087786E-004
-2.318714257748476E-004
+3.397634585604576E-003
+2.292019418533556E-003
-2.443631580414886E-004
-3.601306992811482E-004
+1.554576519527048E-005
+2.298238849731873E-005
+1.507377365001800E-005
+1.576664260267756E-005
-6.852633880462760E-004
+2.003968176889503E-003
-2.764545490075686E-004
-3.677662007668505E-004
+1.188642131447261E-002
+1.214712405518570E-002
-5.748318605760672E-004
-6.209532835059229E-004
+2.167951549637432E-005
+8.732490771129882E-006
+2.792911809696207E-005
+4.084646947613960E-005
+4.931351348965054E-003
+9.721806718120797E-003
-5.273077780065769E-004
-6.395322787272644E-004
+1.112546384316118E-002
+1.397651820550677E-002
-7.607790987872792E-004
-7.432946462319630E-004
+2.676139590399450E-005
+2.797196466326487E-005
+4.923205724687816E-005
+4.187376891965090E-005
+7.062723589088575E-003
+7.368545547490517E-003
-5.803247300006606E-004
-7.330349884805030E-004
+8.083858600191122E-003
+1.873121262382095E-002
-8.666976864722896E-004
-8.060481232892558E-004
+2.053618125221758E-005
+3.035472546824349E-005
+4.604954307117967E-005
+3.727560737302913E-005
+2.200300012091461E-002
+1.507024141041381E-002
-7.525832983929460E-004
-5.124327898455003E-004
+5.715927830563142E-003
+2.677523857382362E-003
-4.055424224149325E-004
-3.532119013690273E-004
+4.322069971330512E-005
+3.126509226957721E-005
+3.751267804103275E-005
+2.617210209524536E-005
+1.663302441784543E-002
+1.055225707027758E-002
-6.985749209284270E-004
-5.289928343446439E-004
+7.095271621615539E-003
+8.139916909464943E-003
-5.630221900985871E-004
-5.092177975855652E-004
+3.615113526775027E-005
+4.354382840196910E-005
+4.248075062003394E-005
+3.480419353668756E-005
+1.337541587471080E-002
+1.035366289282419E-002
-6.700759518981270E-004
-6.708904348620565E-004
+1.265252324246922E-002
+1.268962588038808E-002
-6.708007562652843E-004
-6.519213533089466E-004
+5.241233732658362E-005
+3.475056668467743E-005
+3.467596420746646E-005
+3.037393212856598E-005
+2.935809625787256E-004
+7.574751821697392E-003
-4.095283420506442E-004
-5.486765028601200E-004
+4.678806079155821E-003
+8.034221574066908E-003
-4.502841859930171E-004
-5.161449289015226E-004
+2.537016826141189E-005
+1.843038271457208E-005
+2.799987184171208E-005
+2.081586007242642E-005
-1.192906628189043E-003
-2.527272554660055E-003
-1.300201936287211E-004
-2.493599770372583E-004
-1.057425736653810E-003
+3.447180626828607E-003
-2.759261058664388E-004
-3.723798828478007E-004
+2.910703196539356E-006
+2.209046905900391E-005
+3.873702891516463E-006
+2.044717784351173E-005
+3.722327789487044E-003
+2.447532892610935E-003
-2.019650049240993E-004
-2.452860121067472E-004
+5.232051666238365E-003
+5.959894588066011E-003
-2.567088391996082E-004
-2.908016950725413E-004
+7.193546681235038E-006
+1.913420357465222E-005
+1.616758056150130E-005
+1.555288776968081E-005
+9.692590626633876E-003
+5.455272364330512E-003
-3.099502521571956E-004
-2.461500931661861E-004
+4.222809770421082E-003
+1.643102262202566E-003
-1.078770468827097E-004
-3.259520831754438E-005
+1.368863073330457E-005
+1.526804081037263E-005
+7.475373458771075E-006
+9.023691260974222E-006
+5.133246504489084E-003
+4.891917468749902E-003
-1.701534353069586E-004
-6.054804724135277E-005
+8.361051287116347E-005
-3.114608954922492E-003
-3.805712364820446E-005
-3.064808159275828E-005
+6.284767325372237E-006
+9.404974665761226E-006
+5.446021276053010E-006
+2.192074890410318E-007
-3.913596134941540E-003
-5.940738919015759E-003
+2.453798875472613E-005
-9.690037534696421E-005
-1.026026920485700E-003
+1.121770469902976E-002
-3.678161266694647E-004
-4.072020764961942E-004
+9.144981793026643E-007
+7.417595954128434E-006
+7.092349931835324E-006
+1.381773681220141E-005
-2.392532548192816E-003
+3.064070419187842E-003
-2.125942061127421E-004
-4.248504648996784E-004
+7.919001299285340E-003
+9.748101048749559E-003
-6.022747282992518E-004
-6.845303522117590E-004
+1.397976410687831E-006
+2.185747553233897E-005
+2.597718673545195E-005
+2.541257634397660E-005
+8.497690567988880E-003
+9.526276787049391E-003
-4.868784798221046E-004
-5.599187307997148E-004
+9.613113622318571E-003
+1.117715539571572E-002
-5.819386245425360E-004
-5.066977951579706E-004
+2.891899317334675E-005
+1.643620976802903E-005
+2.852443413143188E-005
+3.131276127965496E-005
+5.686696253238343E-004
+1.526606834242740E-003
-3.702035075572894E-004
-4.889689875075382E-004
+5.824240544625671E-003
+1.172878715158709E-002
-5.774286421755614E-004
-5.311376315857893E-004
+3.131102133963796E-005
+2.816977416073969E-005
+3.126115531124030E-005
+2.412223425759836E-005
+2.542357458592720E-003
+6.736994369624856E-003
-5.195019188872336E-004
-6.495090913075112E-004
+1.555259878257971E-002
+1.796833892439157E-002
-8.032230949463986E-004
-7.528239339843749E-004
+2.631917598248095E-005
+3.207831334320594E-005
+3.277565534770153E-005
+3.838872597399145E-005
+1.140152369362904E-002
+9.326436591917538E-003
-7.187833743570030E-004
-7.472811021698246E-004
+9.070544715285619E-003
+1.146008919269118E-002
-6.430557579211217E-004
-5.557179749366657E-004
+2.921618225313958E-005
+4.914625357952982E-005
+4.104404475377093E-005
+3.820293305351811E-005
+1.575277891272183E-002
+1.081980163084188E-002
-7.285776838969134E-004
-5.748694873292321E-004
+9.020245449217252E-003
+2.942419884163014E-003
-4.578865597473648E-004
-3.392131593661547E-004
+4.450028255989235E-005
+3.982812757747847E-005
+5.666792208048857E-005
+2.426188508553536E-005
+4.770713930443900E-003
+6.590341133439244E-003
-3.149200613569734E-004
-3.078612242846131E-004
+4.526924912409943E-003
+4.003729729100034E-003
-3.918225545245115E-004
-5.358182284190687E-004
+3.210222807386607E-005
+2.555341867753873E-005
+2.659006420957207E-005
+2.586199500004030E-005
+4.468763145253483E-003
+4.718052062353115E-003
-3.625859974336174E-004
-4.350876910161322E-004
+5.447159811271360E-003
+5.648039413710070E-003
-4.242836710353949E-004
-4.076730726113452E-004
+3.376710633483423E-005
+2.224645197850610E-005
+2.299832621890106E-005
+2.802907749880132E-005
+1.439532796132888E-002
+1.108195085404742E-002
-5.926365219248442E-004
-4.138080778343498E-004
+1.176220085164268E-002
+3.929406038361954E-003
-3.131975067587383E-004
-1.297772979938145E-004
+3.746340065323200E-005
+2.209470309095052E-005
+3.475553946612026E-005
+2.667580458543770E-005
+1.060579771726440E-002
+1.248416201672142E-002
-5.947230751301476E-004
-3.826735321452540E-004
+9.664698063928770E-003
+2.648079248571462E-003
-2.900825820389165E-004
-1.233276608212355E-004
+3.839014005375749E-005
+3.352284205108393E-005
+2.326990893630445E-005
+2.053980516194347E-005
+5.300635738036906E-003
+7.105304707232925E-003
-4.523998197430771E-004
-4.165687385037337E-004
+7.181351563749641E-003
+1.096350455623387E-002
-4.748501113905547E-004
-3.990498557755649E-004
+2.473692496161792E-005
+1.327948739590749E-005
+4.048797148697481E-005
+2.164952337034847E-005
+5.376671349513609E-003
+6.199178950654846E-003
-3.932169376921420E-004
-5.144129861970512E-004
+6.088484874265286E-003
+1.113885497672995E-002
-5.481011892769815E-004
-6.134106142462396E-004
+2.452384878850174E-005
+1.535669541970273E-005
+2.459820108175199E-005
+2.481269576035833E-005
+2.598644036078912E-003
-6.574701944882422E-004
-1.501024724112100E-004
-3.184828508705382E-004
-4.862563352000290E-003
+4.834298823068761E-003
-2.597149277218308E-004
-4.089892635886623E-004
+6.646825480685452E-006
+1.466043459587873E-005
+2.999494988587845E-006
+1.389309814022261E-005
-4.272441628057162E-003
-5.408522644580432E-003
+3.355253803252512E-005
-7.255562239796289E-005
-7.401398855111784E-004
+2.682297325343191E-003
-1.520684534831534E-004
-1.490389749943746E-004
+1.611941666747300E-005
+1.198891024275235E-005
+1.240592662915752E-005
-1.423963763753596E-006
+3.828816704177212E-003
+1.779742258306706E-003
-2.104955677404771E-004
-2.058404926708804E-004
+5.763165977075160E-003
+2.511054659073793E-003
-4.011337116621873E-004
-4.292087660015992E-004
+1.254646455550711E-005
+1.499903733003577E-005
+2.422529778858075E-005
+2.350061970526425E-005
+1.325647395919828E-002
+1.401142869832575E-002
-6.160618794855713E-004
-5.596016015749376E-004
+1.386491432964542E-002
+1.107341861272026E-002
-6.129181891679687E-004
-5.929680708791399E-004
+3.958583645177646E-005
+2.920321223066418E-005
+2.996303818416168E-005
+3.448029208389668E-005
+1.404473638583211E-002
+1.261475342365545E-002
-5.794183190637887E-004
-5.177945897451009E-004
+5.289959392018793E-004
+1.128190626544067E-003
-3.202988522155784E-004
-3.061293120002227E-004
+2.974231539137762E-005
+3.157140785556796E-005
+3.327376891480409E-005
+1.705993261364613E-005
+5.952935504155652E-003
+5.391596257705708E-004
-3.677353932646514E-004
-2.795297287029760E-004
+4.497978935125448E-003
+5.926565923199601E-003
-3.519560618142327E-004
-2.347916701043776E-004
+4.755042138459953E-005
+2.454937122213614E-005
+2.337049791646813E-005
+6.848153431139438E-006
+1.489111344320076E-002
+8.405902924235304E-003
-5.982707376154793E-004
-4.672024153440070E-004
+1.073125476851456E-002
+1.161120751077607E-002
-5.090279211251791E-004
-2.757992851108050E-004
+4.234536103461201E-005
+4.184897366672752E-005
+2.598612030143695E-005
+2.772455054368077E-005
+1.296186579418683E-002
+1.252582104183701E-002
-6.380146780844999E-004
-5.243232213570134E-004
+8.175163055148824E-003
+7.427524674962485E-003
-3.940953284916900E-004
-3.026214678615724E-004
+5.209135620954301E-005
+3.039287262112690E-005
+2.843199930863927E-005
+1.880210136063713E-005
+5.739339545697346E-003
+1.940967563432101E-003
-3.735484108214738E-004
-3.281872164416326E-004
+2.621114555795251E-003
+1.739306855575790E-003
-2.829317480308366E-004
-3.522057225783085E-004
+2.946581536588905E-005
+3.165935261795285E-005
+7.564759670840617E-006
+3.427225082856179E-005
+3.259607260602118E-003
+8.326779494814062E-003
-4.833694185526504E-004
-5.835608701289303E-004
+1.459102677052890E-002
+9.298327435987519E-003
-5.792639604206415E-004
-3.933980811707651E-004
+1.222777165587316E-005
+4.132213844574628E-005
+3.378862199688866E-005
+1.344996104654273E-005
+1.078641951450829E-002
+1.942917738690266E-002
-6.032484990345921E-004
-4.742207034287632E-004
+6.814542570080127E-003
+9.069730014566601E-004
-2.040631419863749E-004
-1.302455737325390E-004
+2.211297280092470E-005
+2.780059786358981E-005
+1.888782315816436E-005
+2.253047759418699E-005
+1.748868166846395E-003
+1.649654485378085E-005
-1.991167162481714E-004
-1.117409623673623E-004
+4.334683184929986E-004
-5.218231154458546E-004
+2.557311846923199E-005
+1.368257720556755E-006
+1.231251757610545E-005
+2.277612956093863E-005
+2.136365370250418E-006
+2.094978777129643E-006
-6.098124277422320E-004
-2.825844380527859E-003
-7.464577718886098E-006
+1.486946938593345E-005
-3.333959151321542E-003
-1.543131519864429E-003
-5.227844742795760E-006
-1.537923431830069E-004
+1.174075096698180E-005
+1.647356104893771E-005
-1.164099553994568E-005
+9.633954629856297E-006
+2.630207639083277E-003
-9.365337635841492E-004
-1.511133864544057E-004
-1.513053094209434E-004
+5.577298834340202E-003
+4.440383833630777E-003
-3.046023569316668E-004
-3.595824003281844E-004
+1.710792371445220E-005
+2.000846789512559E-005
+2.112865424350818E-005
+2.389501790422814E-005
+1.349725014198023E-002
+9.775215247429104E-003
-5.312001472492855E-004
-4.232540129850098E-004
+9.403387874803102E-003
+7.306228733370751E-003
-4.092675536367921E-004
-3.476935674400608E-004
+2.755607181582099E-005
+2.856644197836717E-005
+2.124621852954342E-005
+2.847075301617441E-005
+1.353609188147192E-002
+1.328117353458052E-002
-5.511188139407628E-004
-4.167683567694458E-004
+9.340597299147997E-003
+5.031649960670390E-003
-2.805636603702912E-004
-1.788751102507867E-004
+3.146133234517615E-005
+2.305137444841563E-005
+1.941130297174536E-005
+1.037691099370385E-005
+2.401651524445836E-003
+1.670108523704005E-003
-2.141336502167126E-004
-1.750573952353687E-004
-2.376224908992992E-003
-1.900071610744170E-003
-1.510469824665329E-004
-1.765695902877868E-004
+1.547847120099318E-005
+1.445841639832098E-005
+2.183184426722948E-005
+1.730171190993232E-005
+2.049240840106027E-003
+6.269038019745152E-004
-2.738430780691125E-004
-3.198264623041745E-004
+9.352198312143477E-003
+1.520566661081654E-002
-5.822436975040332E-004
-5.148770198889977E-004
+3.046171727631681E-005
+1.692011807772797E-005
+2.240563550492772E-005
+3.328957847135640E-005
+1.110205279513649E-002
+1.411988842592412E-002
-6.291003672370281E-004
-6.897665248190024E-004
+1.156271535177019E-002
+1.183618211634493E-002
-6.745319296423773E-004
-6.799839668553256E-004
+2.537927242034719E-005
+3.600870284909599E-005
+3.445227761097262E-005
+3.077761195517250E-005
+8.596728226604110E-003
+8.061826868737611E-003
-4.794031887730064E-004
-4.514418533427315E-004
+3.450320937456374E-003
+1.467568445445202E-003
-2.503138161294030E-004
-2.603035703863932E-004
+2.243183463345370E-005
+3.039106079800685E-005
+1.814444132424872E-005
+1.488383899295082E-005
+5.983615049439398E-004
+1.906761558871757E-003
-1.791593995534400E-004
-9.850593755639101E-005
+8.686336762137931E-004
-1.131534216575229E-004
-7.313857207292341E-006
+4.354583048531666E-005
+3.223860273130061E-005
+1.735594469477789E-005
+1.527701741126619E-005
-1.042371666218347E-006
+9.542596763376973E-003
+1.797125318440057E-003
-1.439522258400770E-004
+3.219568235243538E-005
-3.406682619336935E-003
-6.609168386674961E-003
+1.879577159420461E-005
-1.183756604638173E-004
+2.581009565566740E-005
-1.019056764565571E-006
+1.771571274434628E-005
-3.984266421841410E-006
+8.647116208078556E-003
-6.114794555637118E-004
-1.869498472247356E-004
-1.061247094700470E-004
+2.002095739092745E-003
+3.156868806953715E-003
-3.216668283249137E-004
-4.935079181278337E-004
+2.230023144420831E-005
+1.069472205940487E-005
+1.937834357582923E-005
+2.612479571022682E-005
+2.051765019568737E-003
+3.848514493804035E-003
-2.830684881688569E-004
-3.971786938886985E-004
+5.479763651689320E-003
+1.047370812276672E-002
-5.549051956397651E-004
-5.921992859956842E-004
+2.381851488484307E-005
+1.331506213374689E-005
+2.879011350828079E-005
+4.109170978748055E-005
+1.330780570703262E-002
+1.133224322691289E-002
-5.093731799459587E-004
-2.979200670077204E-004
+1.786282162455698E-003
-2.320764820311964E-003
-1.322374114439310E-004
-1.211446360633016E-004
+2.626201586194069E-005
+3.528641484513572E-005
+1.883463820260573E-005
+1.471431882375111E-005
+5.387111837621220E-003
+1.096079733563741E-003
-2.443608197574759E-004
-2.088129350906637E-004
+2.496533476395533E-003
+9.233551169096427E-003
-3.149718014516141E-004
-3.847049929122015E-004
+2.034801696910532E-005
+1.067714274426763E-005
+8.305890269167344E-006
+2.039960321554073E-005
-5.798002848007454E-003
-3.861680696815599E-003
-5.542489084137386E-005
-2.713181677619660E-004
+5.107526842045636E-004
+1.048415351226448E-002
-4.284651183875599E-004
-5.291472343777811E-004
+8.606425074617925E-006
+1.388288063715113E-005
+1.842398817946978E-005
+2.468791374737798E-005
-2.231192746815698E-003
-1.751327609761223E-003
-1.265280450256458E-004
-3.366881039916347E-004
+5.375416769256298E-003
+7.117068182821991E-003
-4.462961546430370E-004
-4.394702964623074E-004
+1.155316543100156E-005
+2.304013330613277E-006
+2.438775300606296E-005
+3.476363213138822E-005
+1.394020251809218E-003
+7.089454498697073E-003
-3.595945387132825E-004
-4.487739743142940E-004
+9.947465898777765E-003
+1.122725963987171E-002
-5.772723779978557E-004
-4.969331214681546E-004
+1.244727250557718E-005
+2.425767910365876E-005
+2.120152413362718E-005
+2.053878650966117E-005
+5.041498118003956E-003
+6.486607642062318E-003
-4.344806116335935E-004
-5.660980917652943E-004
+6.632016899437926E-003
+1.041572083493570E-002
-5.000027316046850E-004
-4.590860828263714E-004
+1.886987022634932E-005
+2.499025979912612E-005
+2.495570958252714E-005
+2.669555025974990E-005
+3.986559050595735E-003
-4.356563063521051E-004
-2.537151442069221E-004
-2.940558972856039E-004
+9.667091870353457E-004
+3.180769187467140E-003
-1.999098181111437E-004
-1.920734587868366E-004
+2.032189838886238E-005
+1.991820978922207E-005
+1.067482439947062E-005
+1.920005225647909E-005
-1.385902294238335E-003
+9.837171475751262E-004
-1.421575102924589E-004
-1.536917186770376E-004
+3.368792113709002E-003
+2.124267027231422E-003
-1.619447469680774E-004
-1.359617670185681E-004
+1.584103707267420E-005
+7.946081270618922E-006
+2.501915280438034E-005
+3.444060628249685E-006
+3.080685493510666E-003
+2.006701449062692E-003
-2.989388052086137E-004
-2.728024381198541E-004
+4.310650698801992E-003
+5.296269493754069E-003
-4.328186185823318E-004
-4.383091271009014E-004
+1.760782697177281E-005
+1.009772488298670E-005
+3.743145842007997E-005
+1.793589137120549E-005
+1.740967150819440E-002
+1.285680293205636E-002
-6.758594106208960E-004
-6.469342435249626E-004
+1.502356121935865E-002
+1.440586628528887E-002
-7.706688753096914E-004
-7.081070043289141E-004
+3.721934222678163E-005
+2.935264571103097E-005
+3.547888462164577E-005
+5.281185986218220E-005
+7.610291654853872E-003
+1.037554633929306E-002
-5.411765394627215E-004
-6.436528425616106E-004
+6.315627806573599E-004
+7.780836624309475E-003
-5.505056916857350E-004
-5.867126126226868E-004
+2.598706411111816E-005
+3.194207025128175E-005
+3.312423943224963E-005
+3.379176282345455E-005
-1.485202745550827E-003
-4.491179355173729E-003
-9.483712031110450E-005
-3.159212030326637E-004
-3.033863790527054E-003
+8.226664670434040E-003
-4.165384340691043E-004
-5.375761321923945E-004
+1.359666142167319E-005
+7.772941301028798E-006
+1.428358032522394E-005
+3.144863331675892E-005
-5.015216506001451E-003
-5.171501295594089E-003
-6.392148116096426E-005
-3.168130972522754E-004
+5.446392045908699E-003
+7.397407328572873E-003
-5.460128545264002E-004
-5.994985554252819E-004
+1.624119042048698E-005
+1.394446679957409E-005
+1.809610509389755E-005
+2.807386312265360E-005
+2.980090161548512E-004
+1.263846589925050E-002
-4.582210096718285E-004
-5.838743339420634E-004
+1.325457541016150E-002
+1.548172752178430E-002
-6.481172670001126E-004
-4.766976032365378E-004
+1.386387179703897E-005
+2.869200320146136E-005
+3.461242890663710E-005
+3.551622871884190E-005
+1.037797413775939E-002
+1.365031367452346E-002
-6.281112514963556E-004
-5.998273317710905E-004
+1.129901346942910E-002
+1.890030025475689E-003
-3.500869474086122E-004
-1.733560846477109E-004
+2.507431345346845E-005
+2.240809115781159E-005
+2.034576049340814E-005
+2.892778754069339E-005
-3.292667622373341E-003
-2.397715189318922E-003
-6.514343570301796E-005
-1.684131768179514E-005
+2.191013239040661E-003
+6.543032629361002E-003
-1.969865740343598E-004
-1.494679088226217E-004
+5.238136895074551E-006
+6.059011253990995E-006
+2.121602743430492E-005
-5.618395610464990E-006
+1.110186510303684E-003
+3.925017430527721E-003
-2.458542820501875E-004
-3.411247616395887E-004
+5.392686837743440E-003
+1.071005531811048E-002
-4.702189900721959E-004
-3.894878524202515E-004
+1.547666143666141E-005
+1.244608432729950E-005
+4.266047048983887E-005
+9.831192954541137E-006
+1.191757141313561E-002
+6.269324566688167E-003
-4.912879939213976E-004
-4.849614892186593E-004
+1.076962140440013E-002
+8.216442419418001E-003
-4.028300877213939E-004
-2.286603599898364E-004
+2.699816017850494E-005
+8.387328012473699E-006
+2.877393740781698E-005
+2.500183938607728E-005
+1.080150092865230E-002
+1.173619911318205E-002
-4.838900558427393E-004
-3.355867370894695E-004
+2.175118565479152E-003
-1.759548621796152E-004
-1.298637477012229E-004
-4.282466067816419E-005
+8.175456839606735E-006
+2.567529547273704E-005
+1.541846381268013E-005
+2.512918905871701E-005
+8.310551195575279E-003
+4.094263395815656E-003
-3.627682656662336E-004
-2.049624428293657E-004
+3.770850248386844E-003
-1.690829758051640E-004
-1.106186186530306E-004
-1.095530709668691E-005
+2.455570235703785E-005
+1.876855273111096E-005
+2.818337379723672E-005
+7.756039193721665E-007
+1.674204134564197E-002
+1.380107076764690E-002
-4.789340447508470E-004
-2.056704361582789E-004
+3.979119647200163E-003
-2.465725866046654E-003
-1.394595607164996E-004
-1.796870564805905E-004
+3.053058058889991E-005
+1.132845244082966E-005
+2.262182443820442E-005
+6.526323209827017E-006
+6.272447153961428E-003
+3.834018027918486E-003
-2.349069716546244E-004
-1.983132164176946E-004
-4.323519007233227E-004
+2.684179035740665E-003
-1.551943827135717E-004
-2.650901022986655E-004
+1.520043347585325E-005
+1.302110799795444E-005
+1.978544950786636E-005
+1.582145168897304E-005
+1.505764915791636E-003
-1.066440521701579E-003
-8.842715973794908E-005
-1.096952865291536E-004
-1.968794811038640E-004
+4.156481565180916E-004
-1.378578176009791E-004
-1.272256864764243E-004
+1.556311857971987E-005
+9.846668134839320E-007
+1.545878346697493E-005
+1.122643140359506E-005
+6.096040424354227E-004
+1.968463439760192E-003
-2.524418756546739E-004
-2.579185154547728E-004
+9.032494312106270E-003
+9.763641031755418E-003
-4.495904909903440E-004
-3.252274289128201E-004
+2.631199792655853E-005
+2.608753847245953E-005
+1.512736530332071E-005
+1.271619467070694E-005
+1.371390324922558E-002
+1.154057242088686E-002
-6.225998844416476E-004
-5.747733152319154E-004
+8.526377440443721E-003
+8.840128706450939E-003
-5.312314567317369E-004
-4.544392989766594E-004
+3.293996212910420E-005
+3.814565387343491E-005
+2.565475497087524E-005
+2.336640596779019E-005
+1.835429443771317E-002
+1.357859671631354E-002
-6.558472924632116E-004
-4.523407446023808E-004
+2.957941671628932E-003
-2.071510740261738E-004
-2.833197775271181E-004
-2.525962237325136E-004
+2.771082436771905E-005
+3.630103133849103E-005
+2.476233416224219E-005
+3.252811167710876E-005
+1.050468353326938E-002
+1.060801370035418E-002
-5.196173821401958E-004
-3.404915633941774E-004
+1.018255020062011E-002
+6.937549088883173E-004
-2.419910719111654E-004
-8.979249108031554E-005
+1.968370815924005E-005
+3.507294050967191E-005
+2.414706000968037E-005
+1.739205811178186E-005
+1.335767525479549E-002
+1.449005257247888E-002
-5.777827676041773E-004
-3.622410934777106E-004
+8.195380645861214E-003
+3.784431783476398E-003
-2.254841155391642E-004
-4.975113668421923E-005
+1.936414675289850E-005
+2.862128225747253E-005
+1.967689351102225E-005
+1.658449812976304E-005
+1.200025333850607E-002
+1.036697187624697E-002
-4.822162788314267E-004
-2.496117824999900E-004
+4.238823828315773E-003
-4.454963768076241E-003
-4.106441200635570E-005
-1.027300719776546E-004
+2.574016754879583E-005
+2.310459021385036E-005
+1.954124563548368E-005
+7.378081681815473E-007
+1.068050666883490E-002
+4.555919103586770E-003
-2.421913700276261E-004
-3.273649483642396E-005
-1.501812625256088E-003
-5.239487409559293E-003
+5.198487287704771E-005
-4.106343608818226E-005
+2.422128649144263E-005
+8.771594032054903E-006
+1.655142925813283E-005
+6.836876132082360E-006
-5.302965385348165E-003
-5.826306395936809E-003
-1.090544778345118E-004
-2.855459115312488E-004
+2.132430063039048E-004
+5.318705595185367E-004
-2.013739552574708E-004
-2.912709423840775E-004
+6.723200170061257E-006
+2.187019624975385E-006
+1.662870417194382E-005
+2.251648207092250E-005
+1.251932603383162E-002
+4.508915479459898E-003
-2.720956864651819E-004
-1.617959350538236E-004
+3.160594110960693E-003
-3.693375040336581E-004
-1.493323112858137E-004
-1.138349231206182E-004
+2.708353730959490E-005
+8.187563389597723E-006
+1.940073612056239E-005
+1.106284038260066E-005
+1.096774140591406E-002
+5.073663989916717E-003
-2.756044116269407E-004
-1.702671712253553E-004
-1.502988721349310E-003
+3.650491864876951E-003
-2.043548195732364E-004
-2.716168678301997E-004
+1.954570640827297E-005
+1.702501286752724E-005
-4.896646067531912E-006
+2.470860066845351E-005
-2.887549298579402E-004
-3.418364465933520E-003
-3.730760329972462E-005
-1.160682804008979E-004
-3.572380875110458E-003
-2.084227134968092E-004
-1.698616768031301E-004
-3.744943422917707E-004
+4.598856981762107E-006
+9.005887421010443E-006
+1.167119127800124E-005
+9.405376737064373E-006
+1.488060041271088E-003
-1.822292400331246E-003
+1.111951017393602E-005
-9.356321524599736E-005
-1.597160290463644E-003
+3.006362338655645E-003
-2.878975628748272E-004
-4.167170009992717E-004
+7.487832935308950E-006
+4.513428317576254E-006
+4.882665862108804E-006
+2.380141568425465E-005
-3.999839725071635E-003
-2.881230203745212E-003
-9.795009047548388E-005
-2.889004971867582E-004
+4.254771030307654E-003
+9.938542026251234E-003
-5.138309604095676E-004
-6.805342260198954E-004
+1.642336557898179E-005
+2.045164369194531E-005
+2.218824332265348E-005
+1.835959126186047E-005
+3.729522779336158E-003
+1.128238529986478E-002
-3.569754131465664E-004
-4.821361760910369E-004
+1.135886953732476E-002
+7.195093138976840E-003
-4.598689200624717E-004
-4.962189723421263E-004
+1.319737373196999E-005
+1.685836399759758E-005
+1.947928469148207E-005
+9.035056216032068E-006
+7.547434405985138E-004
+1.430646145536142E-003
-1.935370050768292E-004
-2.463370805337639E-004
-2.823826284100001E-003
+6.400815328362688E-004
-1.370824139565848E-004
-1.266860501460831E-004
+6.492200581787765E-006
+9.842525375720579E-006
+1.506196932647423E-005
+1.535603504518243E-005
+3.799664222487367E-003
-2.150318502097591E-003
-1.242020186276196E-004
-9.159986342513712E-005
+4.514809261026594E-004
-4.831906238848142E-004
-1.667064820179539E-004
-1.636504485689414E-004
+2.291999652027320E-005
+9.326930596738647E-006
+1.086709639151827E-005
+3.318264789783383E-005
+1.309740195078075E-002
+1.128174495113928E-002
-4.500002861469873E-004
-3.019671035498691E-004
+7.824859593818609E-003
+5.220724118523087E-003
-4.085251424242562E-004
-4.000570013307864E-004
+3.720189008252289E-005
+2.002356778544297E-005
+1.643303520354232E-005
+2.191589452056033E-005
+5.061566361998172E-003
+5.509288718747729E-003
-3.350638663666541E-004
-3.743975915914182E-004
+1.427689121863349E-003
+5.721955567947998E-003
-3.552919649586576E-004
-4.724620476259274E-004
+3.288569590962660E-005
+1.760835587008530E-005
+8.760411574444404E-006
+1.696432548921026E-005
+8.170892007626071E-004
+1.873596900149284E-003
-1.136463752173137E-004
-1.956457517951918E-004
-1.491722099280890E-003
-1.486298299475143E-003
-1.137194970060098E-004
-2.114604401405810E-004
+3.164560909597246E-006
+2.219953947927235E-005
+9.040956138838558E-006
+1.480951356794178E-005
+1.633039305047929E-004
-2.815957669146330E-003
-3.323624704476089E-005
-2.173400967847598E-005
-1.480215942950210E-003
-9.140138880166243E-004
-1.041536743044214E-004
-1.902099928190486E-004
+1.779038557836583E-005
+2.876944116204104E-006
+2.447675576479519E-006
+1.663639211950507E-005
-5.655220994047388E-004
+7.841883792438782E-008
-1.237686239988537E-004
-2.455036717190978E-004
+8.758348008116697E-003
+1.144898543726178E-002
-4.895893036291916E-004
-5.174584485404013E-004
+8.316415478556674E-006
+1.452853487983733E-005
+2.185724874611567E-005
+1.276498553506093E-005
-7.175578638878167E-003
+4.408430336351574E-003
-1.943766499020928E-004
-4.729883969484555E-004
+6.667935607096156E-003
+1.835252352929235E-002
-5.522208674321475E-004
-5.808149274605085E-004
+1.957498905533049E-005
+4.375507068428615E-006
+2.396428237425014E-005
+2.086715028792416E-005
