# Energy in atomic unit (1 Eh = 2625.499640 kJ/mol)
# -------------------------------------------------
# step         Hamiltonian             Kinetic energy          Potential energy          Coulomb energy       Intramolecular energy    van_der_Waals energy         Total energy          Thermostat energy        Coulomb LR energy       Coulomb keq0 energy       Coulomb SR energy       Coulomb self energy     Coulomb molecule energy   Harmonic bond energy     Lennard-Jones energy       L-J cutoff energy
      0   2.346030178611744E-002   9.405427229321789E-004   0.000000000000000E+000   0.000000000000000E+000   0.000000000000000E+000   0.000000000000000E+000   9.405427229321789E-004   0.000000000000000E+000   0.000000000000000E+000   0.000000000000000E+000   0.000000000000000E+000   0.000000000000000E+000   0.000000000000000E+000   0.000000000000000E+000   0.000000000000000E+000   0.000000000000000E+000
      1   2.346063057936892E-002   6.902483380949618E-004   0.000000000000000E+000   0.000000000000000E+000   0.000000000000000E+000   0.000000000000000E+000   6.902483380949618E-004   4.763240387620010E-009   0.000000000000000E+000   0.000000000000000E+000   0.000000000000000E+000   0.000000000000000E+000   0.000000000000000E+000   0.000000000000000E+000   0.000000000000000E+000   0.000000000000000E+000
      2   2.346067577978804E-002   6.745959267389363E-004   0.000000000000000E+000   0.000000000000000E+000   0.000000000000000E+000   0.000000000000000E+000   6.745959267389363E-004  -9.375229731992553E-008   0.000000000000000E+000   0.000000000000000E+000   0.000000000000000E+000   0.000000000000000E+000   0.000000000000000E+000   0.000000000000000E+000   0.000000000000000E+000   0.000000000000000E+000
      3   2.346039774483111E-002   8.939263980898820E-004   0.000000000000000E+000   0.000000000000000E+000   0.000000000000000E+000   0.000000000000000E+000   8.939263980898820E-004  -3.342599564452407E-007   0.000000000000000E+000   0.000000000000000E+000   0.000000000000000E+000   0.000000000000000E+000   0.000000000000000E+000   0.000000000000000E+000   0.000000000000000E+000   0.000000000000000E+000
      4   2.345978785074391E-002   1.343715654446990E-003   0.000000000000000E+000   0.000000000000000E+000   0.000000000000000E+000   0.000000000000000E+000   1.343715654446990E-003  -6.892834645803493E-007   0.000000000000000E+000   0.000000000000000E+000   0.000000000000000E+000   0.000000000000000E+000   0.000000000000000E+000   0.000000000000000E+000   0.000000000000000E+000   0.000000000000000E+000
      5   2.345882077357828E-002   2.014263908795797E-003   0.000000000000000E+000   0.000000000000000E+000   0.000000000000000E+000   0.000000000000000E+000   2.014263908795797E-003  -7.745110728762593E-007   0.000000000000000E+000   0.000000000000000E+000   0.000000000000000E+000   0.000000000000000E+000   0.000000000000000E+000   0.000000000000000E+000   0.000000000000000E+000   0.000000000000000E+000
      6   2.345737095738783E-002   2.890122178571865E-003   0.000000000000000E+000   0.000000000000000E+000   0.000000000000000E+000   0.000000000000000E+000   2.890122178571865E-003   7.198718464095635E-007   0.000000000000000E+000   0.000000000000000E+000   0.000000000000000E+000   0.000000000000000E+000   0.000000000000000E+000   0.000000000000000E+000   0.000000000000000E+000   0.000000000000000E+000
      7   2.345545908857084E-002   3.949698187680594E-003   0.000000000000000E+000   0.000000000000000E+000   0.000000000000000E+000   0.000000000000000E+000   3.949698187680594E-003   6.800605891712472E-006   0.000000000000000E+000   0.000000000000000E+000   0.000000000000000E+000   0.000000000000000E+000   0.000000000000000E+000   0.000000000000000E+000   0.000000000000000E+000   0.000000000000000E+000
      8   2.345304598631363E-002   5.164460999831187E-003   0.000000000000000E+000   0.000000000000000E+000   0.000000000000000E+000   0.000000000000000E+000   5.164460999831187E-003   2.302901917287080E-005   0.000000000000000E+000   0.000000000000000E+000   0.000000000000000E+000   0.000000000000000E+000   0.000000000000000E+000   0.000000000000000E+000   0.000000000000000E+000   0.000000000000000E+000
      9   2.345010783215514E-002   6.498582359729506E-003   0.000000000000000E+000   0.000000000000000E+000   0.000000000000000E+000   0.000000000000000E+000   6.498582359729506E-003   5.830913871880664E-005   0.000000000000000E+000   0.000000000000000E+000   0.000000000000000E+000   0.000000000000000E+000   0.000000000000000E+000   0.000000000000000E+000   0.000000000000000E+000   0.000000000000000E+000
     10   2.344664654148305E-002   7.908945073229937E-003   0.000000000000000E+000   0.000000000000000E+000   0.000000000000000E+000   0.000000000000000E+000   7.908945073229937E-003   1.254156614893736E-004   0.000000000000000E+000   0.000000000000000E+000   0.000000000000000E+000   0.000000000000000E+000   0.000000000000000E+000   0.000000000000000E+000   0.000000000000000E+000   0.000000000000000E+000
     11   2.344269902297442E-002   9.345796710416113E-003   0.000000000000000E+000   0.000000000000000E+000   0.000000000000000E+000   0.000000000000000E+000   9.345796710416113E-003   2.410600501798143E-004   0.000000000000000E+000   0.000000000000000E+000   0.000000000000000E+000   0.000000000000000E+000   0.000000000000000E+000   0.000000000000000E+000   0.000000000000000E+000   0.000000000000000E+000
     12   2.343834335698079E-002   1.075423821222941E-002   0.000000000000000E+000   0.000000000000000E+000   0.000000000000000E+000   0.000000000000000E+000   1.075423821222941E-002   4.253147932512366E-004   0.000000000000000E+000   0.000000000000000E+000   0.000000000000000E+000   0.000000000000000E+000   0.000000000000000E+000   0.000000000000000E+000   0.000000000000000E+000   0.000000000000000E+000
     13   2.343369987344837E-002   1.207664762788264E-002   0.000000000000000E+000   0.000000000000000E+000   0.000000000000000E+000   0.000000000000000E+000   1.207664762788264E-002   7.002840714108495E-004   0.000000000000000E+000   0.000000000000000E+000   0.000000000000000E+000   0.000000000000000E+000   0.000000000000000E+000   0.000000000000000E+000   0.000000000000000E+000   0.000000000000000E+000
     14   2.342892550078757E-002   1.325599487677910E-002   0.000000000000000E+000   0.000000000000000E+000   0.000000000000000E+000   0.000000000000000E+000   1.325599487677910E-002   1.088027051451729E-003   0.000000000000000E+000   0.000000000000000E+000   0.000000000000000E+000   0.000000000000000E+000   0.000000000000000E+000   0.000000000000000E+000   0.000000000000000E+000   0.000000000000000E+000
     15   2.342420080345878E-002   1.423981821990499E-002   0.000000000000000E+000   0.000000000000000E+000   0.000000000000000E+000   0.000000000000000E+000   1.423981821990499E-002   1.607897237676985E-003   0.000000000000000E+000   0.000000000000000E+000   0.000000000000000E+000   0.000000000000000E+000   0.000000000000000E+000   0.000000000000000E+000   0.000000000000000E+000   0.000000000000000E+000
     16   2.341971079129888E-002   1.498444010778197E-002   0.000000000000000E+000   0.000000000000000E+000   0.000000000000000E+000   0.000000000000000E+000   1.498444010778197E-002   2.273629663691501E-003   0.000000000000000E+000   0.000000000000000E+000   0.000000000000000E+000   0.000000000000000E+000   0.000000000000000E+000   0.000000000000000E+000   0.000000000000000E+000   0.000000000000000E+000
     17   2.341563387075452E-002   1.545885912976952E-002   0.000000000000000E+000   0.000000000000000E+000   0.000000000000000E+000   0.000000000000000E+000   1.545885912976952E-002   3.090644218008207E-003   0.000000000000000E+000   0.000000000000000E+000   0.000000000000000E+000   0.000000000000000E+000   0.000000000000000E+000   0.000000000000000E+000   0.000000000000000E+000   0.000000000000000E+000
     18   2.341208645992441E-002   1.564762946033503E-002   0.000000000000000E+000   0.000000000000000E+000   0.000000000000000E+000   0.000000000000000E+000   1.564762946033503E-002   4.054088713718843E-003   0.000000000000000E+000   0.000000000000000E+000   0.000000000000000E+000   0.000000000000000E+000   0.000000000000000E+000   0.000000000000000E+000   0.000000000000000E+000   0.000000000000000E+000
     19   2.340914217192737E-002   1.555228549152981E-002   0.000000000000000E+000   0.000000000000000E+000   0.000000000000000E+000   0.000000000000000E+000   1.555228549152981E-002   5.148082499341068E-003   0.000000000000000E+000   0.000000000000000E+000   0.000000000000000E+000   0.000000000000000E+000   0.000000000000000E+000   0.000000000000000E+000   0.000000000000000E+000   0.000000000000000E+000
     20   2.340681926125506E-002   1.519086820618645E-002   0.000000000000000E+000   0.000000000000000E+000   0.000000000000000E+000   0.000000000000000E+000   1.519086820618645E-002   6.346433964464964E-003   0.000000000000000E+000   0.000000000000000E+000   0.000000000000000E+000   0.000000000000000E+000   0.000000000000000E+000   0.000000000000000E+000   0.000000000000000E+000   0.000000000000000E+000
     21   2.340509091855558E-002   1.459559626753441E-002   0.000000000000000E+000   0.000000000000000E+000   0.000000000000000E+000   0.000000000000000E+000   1.459559626753441E-002   7.614820775516310E-003   0.000000000000000E+000   0.000000000000000E+000   0.000000000000000E+000   0.000000000000000E+000   0.000000000000000E+000   0.000000000000000E+000   0.000000000000000E+000   0.000000000000000E+000
     22   2.340390339016883E-002   1.380902022664886E-002   0.000000000000000E+000   0.000000000000000E+000   0.000000000000000E+000   0.000000000000000E+000   1.380902022664886E-002   8.914110819969300E-003   0.000000000000000E+000   0.000000000000000E+000   0.000000000000000E+000   0.000000000000000E+000   0.000000000000000E+000   0.000000000000000E+000   0.000000000000000E+000   0.000000000000000E+000
     23   2.340323658958274E-002   1.287933150821795E-002   0.000000000000000E+000   0.000000000000000E+000   0.000000000000000E+000   0.000000000000000E+000   1.287933150821795E-002   1.020426530250590E-002   0.000000000000000E+000   0.000000000000000E+000   0.000000000000000E+000   0.000000000000000E+000   0.000000000000000E+000   0.000000000000000E+000   0.000000000000000E+000   0.000000000000000E+000
     24   2.340300760042814E-002   1.185544465638485E-002   0.000000000000000E+000   0.000000000000000E+000   0.000000000000000E+000   0.000000000000000E+000   1.185544465638485E-002   1.144811824475764E-002   0.000000000000000E+000   0.000000000000000E+000   0.000000000000000E+000   0.000000000000000E+000   0.000000000000000E+000   0.000000000000000E+000   0.000000000000000E+000   0.000000000000000E+000
     25   2.340314950742685E-002   1.078289994057991E-002   0.000000000000000E+000   0.000000000000000E+000   0.000000000000000E+000   0.000000000000000E+000   1.078289994057991E-002   1.261444199637258E-002   0.000000000000000E+000   0.000000000000000E+000   0.000000000000000E+000   0.000000000000000E+000   0.000000000000000E+000   0.000000000000000E+000   0.000000000000000E+000   0.000000000000000E+000
     26   2.340358889221823E-002   9.700813370491264E-003   0.000000000000000E+000   0.000000000000000E+000   0.000000000000000E+000   0.000000000000000E+000   9.700813370491264E-003   1.367991459657866E-002   0.000000000000000E+000   0.000000000000000E+000   0.000000000000000E+000   0.000000000000000E+000   0.000000000000000E+000   0.000000000000000E+000   0.000000000000000E+000   0.000000000000000E+000
     27   2.340423585368531E-002   8.640232036037294E-003   0.000000000000000E+000   0.000000000000000E+000   0.000000000000000E+000   0.000000000000000E+000   8.640232036037294E-003   1.462983363955437E-002   0.000000000000000E+000   0.000000000000000E+000   0.000000000000000E+000   0.000000000000000E+000   0.000000000000000E+000   0.000000000000000E+000   0.000000000000000E+000   0.000000000000000E+000
     28   2.340498873868909E-002   7.623796446540074E-003   0.000000000000000E+000   0.000000000000000E+000   0.000000000000000E+000   0.000000000000000E+000   7.623796446540074E-003   1.545773175387725E-002   0.000000000000000E+000   0.000000000000000E+000   0.000000000000000E+000   0.000000000000000E+000   0.000000000000000E+000   0.000000000000000E+000   0.000000000000000E+000   0.000000000000000E+000
     29   2.340575205262318E-002   6.666422476296367E-003   0.000000000000000E+000   0.000000000000000E+000   0.000000000000000E+000   0.000000000000000E+000   6.666422476296367E-003   1.616419599776109E-002   0.000000000000000E+000   0.000000000000000E+000   0.000000000000000E+000   0.000000000000000E+000   0.000000000000000E+000   0.000000000000000E+000   0.000000000000000E+000   0.000000000000000E+000
     30   2.340646034282689E-002   5.776618511995190E-003   0.000000000000000E+000   0.000000000000000E+000   0.000000000000000E+000   0.000000000000000E+000   5.776618511995190E-003   1.675525358422764E-002   0.000000000000000E+000   0.000000000000000E+000   0.000000000000000E+000   0.000000000000000E+000   0.000000000000000E+000   0.000000000000000E+000   0.000000000000000E+000   0.000000000000000E+000
     31   2.340709515900063E-002   4.958063303372080E-003   0.000000000000000E+000   0.000000000000000E+000   0.000000000000000E+000   0.000000000000000E+000   4.958063303372080E-003   1.724065028745545E-002   0.000000000000000E+000   0.000000000000000E+000   0.000000000000000E+000   0.000000000000000E+000   0.000000000000000E+000   0.000000000000000E+000   0.000000000000000E+000   0.000000000000000E+000
     32   2.340768435294219E-002   4.211150126423489E-003   0.000000000000000E+000   0.000000000000000E+000   0.000000000000000E+000   0.000000000000000E+000   4.211150126423489E-003   1.763226098401982E-002   0.000000000000000E+000   0.000000000000000E+000   0.000000000000000E+000   0.000000000000000E+000   0.000000000000000E+000   0.000000000000000E+000   0.000000000000000E+000   0.000000000000000E+000
     33   2.340828208381069E-002   3.534310065035290E-003   0.000000000000000E+000   0.000000000000000E+000   0.000000000000000E+000   0.000000000000000E+000   3.534310065035290E-003   1.794277431682608E-002   0.000000000000000E+000   0.000000000000000E+000   0.000000000000000E+000   0.000000000000000E+000   0.000000000000000E+000   0.000000000000000E+000   0.000000000000000E+000   0.000000000000000E+000
     34   2.340893844369773E-002   2.925027961294632E-003   0.000000000000000E+000   0.000000000000000E+000   0.000000000000000E+000   0.000000000000000E+000   2.925027961294632E-003   1.818471017819246E-002   0.000000000000000E+000   0.000000000000000E+000   0.000000000000000E+000   0.000000000000000E+000   0.000000000000000E+000   0.000000000000000E+000   0.000000000000000E+000   0.000000000000000E+000
     35   2.340967326734841E-002   2.380540818686598E-003   0.000000000000000E+000   0.000000000000000E+000   0.000000000000000E+000   0.000000000000000E+000   2.380540818686598E-003   1.836976792365546E-002   0.000000000000000E+000   0.000000000000000E+000   0.000000000000000E+000   0.000000000000000E+000   0.000000000000000E+000   0.000000000000000E+000   0.000000000000000E+000   0.000000000000000E+000
     36   2.341046633157455E-002   1.898255698964761E-003   0.000000000000000E+000   0.000000000000000E+000   0.000000000000000E+000   0.000000000000000E+000   1.898255698964761E-003   1.850846362570013E-002   0.000000000000000E+000   0.000000000000000E+000   0.000000000000000E+000   0.000000000000000E+000   0.000000000000000E+000   0.000000000000000E+000   0.000000000000000E+000   0.000000000000000E+000
     37   2.341126749954887E-002   1.475946316776693E-003   0.000000000000000E+000   0.000000000000000E+000   0.000000000000000E+000   0.000000000000000E+000   1.475946316776693E-003   1.860999241028143E-002   0.000000000000000E+000   0.000000000000000E+000   0.000000000000000E+000   0.000000000000000E+000   0.000000000000000E+000   0.000000000000000E+000   0.000000000000000E+000   0.000000000000000E+000
     38   2.341202045204034E-002   1.111791804180947E-003   0.000000000000000E+000   0.000000000000000E+000   0.000000000000000E+000   0.000000000000000E+000   1.111791804180947E-003   1.868224407723932E-002   0.000000000000000E+000   0.000000000000000E+000   0.000000000000000E+000   0.000000000000000E+000   0.000000000000000E+000   0.000000000000000E+000   0.000000000000000E+000   0.000000000000000E+000
     39   2.341268766389238E-002   8.043147099650356E-004   0.000000000000000E+000   0.000000000000000E+000   0.000000000000000E+000   0.000000000000000E+000   8.043147099650356E-004   1.873190469786561E-002   0.000000000000000E+000   0.000000000000000E+000   0.000000000000000E+000   0.000000000000000E+000   0.000000000000000E+000   0.000000000000000E+000   0.000000000000000E+000   0.000000000000000E+000
     40   2.341326482965023E-002   5.522639340681898E-004   0.000000000000000E+000   0.000000000000000E+000   0.000000000000000E+000   0.000000000000000E+000   5.522639340681898E-004   1.876459093688308E-002   0.000000000000000E+000   0.000000000000000E+000   0.000000000000000E+000   0.000000000000000E+000   0.000000000000000E+000   0.000000000000000E+000   0.000000000000000E+000   0.000000000000000E+000
     41   2.341377905362898E-002   3.544758435573937E-004   0.000000000000000E+000   0.000000000000000E+000   0.000000000000000E+000   0.000000000000000E+000   3.544758435573937E-004   1.878498313434193E-002   0.000000000000000E+000   0.000000000000000E+000   0.000000000000000E+000   0.000000000000000E+000   0.000000000000000E+000   0.000000000000000E+000   0.000000000000000E+000   0.000000000000000E+000
     42   2.341427322014644E-002   2.097355239586608E-004   0.000000000000000E+000   0.000000000000000E+000   0.000000000000000E+000   0.000000000000000E+000   2.097355239586608E-004   1.879694238918675E-002   0.000000000000000E+000   0.000000000000000E+000   0.000000000000000E+000   0.000000000000000E+000   0.000000000000000E+000   0.000000000000000E+000   0.000000000000000E+000   0.000000000000000E+000
     43   2.341478498508587E-002   1.166510426635732E-004   0.000000000000000E+000   0.000000000000000E+000   0.000000000000000E+000   0.000000000000000E+000   1.166510426635732E-004   1.880361131860554E-002   0.000000000000000E+000   0.000000000000000E+000   0.000000000000000E+000   0.000000000000000E+000   0.000000000000000E+000   0.000000000000000E+000   0.000000000000000E+000   0.000000000000000E+000
     44   2.341533027948196E-002   7.354701101297309E-005   0.000000000000000E+000   0.000000000000000E+000   0.000000000000000E+000   0.000000000000000E+000   7.354701101297309E-005   1.880750535561408E-002   0.000000000000000E+000   0.000000000000000E+000   0.000000000000000E+000   0.000000000000000E+000   0.000000000000000E+000   0.000000000000000E+000   0.000000000000000E+000   0.000000000000000E+000
     45   2.341589807139661E-002   7.837944594265928E-005   0.000000000000000E+000   0.000000000000000E+000   0.000000000000000E+000   0.000000000000000E+000   7.837944594265928E-005   1.881060176071352E-002   0.000000000000000E+000   0.000000000000000E+000   0.000000000000000E+000   0.000000000000000E+000   0.000000000000000E+000   0.000000000000000E+000   0.000000000000000E+000   0.000000000000000E+000
     46   2.341645746722035E-002   1.286715452979404E-004   0.000000000000000E+000   0.000000000000000E+000   0.000000000000000E+000   0.000000000000000E+000   1.286715452979404E-004   1.881442953202150E-002   0.000000000000000E+000   0.000000000000000E+000   0.000000000000000E+000   0.000000000000000E+000   0.000000000000000E+000   0.000000000000000E+000   0.000000000000000E+000   0.000000000000000E+000
     47   2.341697287374673E-002   2.214690224397512E-004   0.000000000000000E+000   0.000000000000000E+000   0.000000000000000E+000   0.000000000000000E+000   2.214690224397512E-004   1.882015844817318E-002   0.000000000000000E+000   0.000000000000000E+000   0.000000000000000E+000   0.000000000000000E+000   0.000000000000000E+000   0.000000000000000E+000   0.000000000000000E+000   0.000000000000000E+000
     48   2.341742011965694E-002   3.533136260908302E-004   0.000000000000000E+000   0.000000000000000E+000   0.000000000000000E+000   0.000000000000000E+000   3.533136260908302E-004   1.882868225831379E-002   0.000000000000000E+000   0.000000000000000E+000   0.000000000000000E+000   0.000000000000000E+000   0.000000000000000E+000   0.000000000000000E+000   0.000000000000000E+000   0.000000000000000E+000
     49   2.341779695830687E-002   5.202339873949383E-004   0.000000000000000E+000   0.000000000000000E+000   0.000000000000000E+000   0.000000000000000E+000   5.202339873949383E-004   1.884069072093845E-002   0.000000000000000E+000   0.000000000000000E+000   0.000000000000000E+000   0.000000000000000E+000   0.000000000000000E+000   0.000000000000000E+000   0.000000000000000E+000   0.000000000000000E+000
     50   2.341812451117911E-002   7.177536504060427E-004   0.000000000000000E+000   0.000000000000000E+000   0.000000000000000E+000   0.000000000000000E+000   7.177536504060427E-004   1.885672736222565E-002   0.000000000000000E+000   0.000000000000000E+000   0.000000000000000E+000   0.000000000000000E+000   0.000000000000000E+000   0.000000000000000E+000   0.000000000000000E+000   0.000000000000000E+000
     51   2.341844027385197E-002   9.409167964512550E-004   0.000000000000000E+000   0.000000000000000E+000   0.000000000000000E+000   0.000000000000000E+000   9.409167964512550E-004   1.887723297928848E-002   0.000000000000000E+000   0.000000000000000E+000   0.000000000000000E+000   0.000000000000000E+000   0.000000000000000E+000   0.000000000000000E+000   0.000000000000000E+000   0.000000000000000E+000
     52   2.341878643051853E-002   1.184332583441755E-003   0.000000000000000E+000   0.000000000000000E+000   0.000000000000000E+000   0.000000000000000E+000   1.184332583441755E-003   1.890257735597028E-002   0.000000000000000E+000   0.000000000000000E+000   0.000000000000000E+000   0.000000000000000E+000   0.000000000000000E+000   0.000000000000000E+000   0.000000000000000E+000   0.000000000000000E+000
     53   2.341919826937083E-002   1.442239071585369E-003   0.000000000000000E+000   0.000000000000000E+000   0.000000000000000E+000   0.000000000000000E+000   1.442239071585369E-003   1.893308232732802E-002   0.000000000000000E+000   0.000000000000000E+000   0.000000000000000E+000   0.000000000000000E+000   0.000000000000000E+000   0.000000000000000E+000   0.000000000000000E+000   0.000000000000000E+000
     54   2.341969643218637E-002   1.708587340485637E-003   0.000000000000000E+000   0.000000000000000E+000   0.000000000000000E+000   0.000000000000000E+000   1.708587340485637E-003   1.896903824620337E-002   0.000000000000000E+000   0.000000000000000E+000   0.000000000000000E+000   0.000000000000000E+000   0.000000000000000E+000   0.000000000000000E+000   0.000000000000000E+000   0.000000000000000E+000
     55   2.342028449656173E-002   1.977145617631822E-003   0.000000000000000E+000   0.000000000000000E+000   0.000000000000000E+000   0.000000000000000E+000   1.977145617631822E-003   1.901071401180692E-002   0.000000000000000E+000   0.000000000000000E+000   0.000000000000000E+000   0.000000000000000E+000   0.000000000000000E+000   0.000000000000000E+000   0.000000000000000E+000   0.000000000000000E+000
     56   2.342095122585583E-002   2.241622085112831E-003   0.000000000000000E+000   0.000000000000000E+000   0.000000000000000E+000   0.000000000000000E+000   2.241622085112831E-003   1.905835932420218E-002   0.000000000000000E+000   0.000000000000000E+000   0.000000000000000E+000   0.000000000000000E+000   0.000000000000000E+000   0.000000000000000E+000   0.000000000000000E+000   0.000000000000000E+000
     57   2.342167557888485E-002   2.495803609569512E-003   0.000000000000000E+000   0.000000000000000E+000   0.000000000000000E+000   0.000000000000000E+000   2.495803609569512E-003   1.911219751416368E-002   0.000000000000000E+000   0.000000000000000E+000   0.000000000000000E+000   0.000000000000000E+000   0.000000000000000E+000   0.000000000000000E+000   0.000000000000000E+000   0.000000000000000E+000
     58   2.342243240776211E-002   2.733706093155120E-003   0.000000000000000E+000   0.000000000000000E+000   0.000000000000000E+000   0.000000000000000E+000   2.733706093155120E-003   1.917240822387505E-002   0.000000000000000E+000   0.000000000000000E+000   0.000000000000000E+000   0.000000000000000E+000   0.000000000000000E+000   0.000000000000000E+000   0.000000000000000E+000   0.000000000000000E+000
     59   2.342319732926965E-002   2.949730647398962E-003   0.000000000000000E+000   0.000000000000000E+000   0.000000000000000E+000   0.000000000000000E+000   2.949730647398962E-003   1.923910088816322E-002   0.000000000000000E+000   0.000000000000000E+000   0.000000000000000E+000   0.000000000000000E+000   0.000000000000000E+000   0.000000000000000E+000   0.000000000000000E+000   0.000000000000000E+000
     60   2.342395003119575E-002   3.138818541383128E-003   0.000000000000000E+000   0.000000000000000E+000   0.000000000000000E+000   0.000000000000000E+000   3.138818541383128E-003   1.931228173982642E-002   0.000000000000000E+000   0.000000000000000E+000   0.000000000000000E+000   0.000000000000000E+000   0.000000000000000E+000   0.000000000000000E+000   0.000000000000000E+000   0.000000000000000E+000
     61   2.342467591659392E-002   3.296597059120348E-003   0.000000000000000E+000   0.000000000000000E+000   0.000000000000000E+000   0.000000000000000E+000   3.296597059120348E-003   1.939181843716756E-002   0.000000000000000E+000   0.000000000000000E+000   0.000000000000000E+000   0.000000000000000E+000   0.000000000000000E+000   0.000000000000000E+000   0.000000000000000E+000   0.000000000000000E+000
     62   2.342536636835960E-002   3.419508175047381E-003   0.000000000000000E+000   0.000000000000000E+000   0.000000000000000E+000   0.000000000000000E+000   3.419508175047381E-003   1.947740713388804E-002   0.000000000000000E+000   0.000000000000000E+000   0.000000000000000E+000   0.000000000000000E+000   0.000000000000000E+000   0.000000000000000E+000   0.000000000000000E+000   0.000000000000000E+000
     63   2.342601806500515E-002   3.504912419720305E-003   0.000000000000000E+000   0.000000000000000E+000   0.000000000000000E+000   0.000000000000000E+000   3.504912419720305E-003   1.956854682436522E-002   0.000000000000000E+000   0.000000000000000E+000   0.000000000000000E+000   0.000000000000000E+000   0.000000000000000E+000   0.000000000000000E+000   0.000000000000000E+000   0.000000000000000E+000
     64   2.342663177307461E-002   3.551161479449845E-003   0.000000000000000E+000   0.000000000000000E+000   0.000000000000000E+000   0.000000000000000E+000   3.551161479449845E-003   1.966452515957352E-002   0.000000000000000E+000   0.000000000000000E+000   0.000000000000000E+000   0.000000000000000E+000   0.000000000000000E+000   0.000000000000000E+000   0.000000000000000E+000   0.000000000000000E+000
     65   2.342721096448633E-002   3.557634883159183E-003   0.000000000000000E+000   0.000000000000000E+000   0.000000000000000E+000   0.000000000000000E+000   3.557634883159183E-003   1.976441876203286E-002   0.000000000000000E+000   0.000000000000000E+000   0.000000000000000E+000   0.000000000000000E+000   0.000000000000000E+000   0.000000000000000E+000   0.000000000000000E+000   0.000000000000000E+000
     66   2.342776050484713E-002   3.524738419861014E-003   0.000000000000000E+000   0.000000000000000E+000   0.000000000000000E+000   0.000000000000000E+000   3.524738419861014E-003   1.986710953540401E-002   0.000000000000000E+000   0.000000000000000E+000   0.000000000000000E+000   0.000000000000000E+000   0.000000000000000E+000   0.000000000000000E+000   0.000000000000000E+000   0.000000000000000E+000
     67   2.342828556132703E-002   3.453864474460618E-003   0.000000000000000E+000   0.000000000000000E+000   0.000000000000000E+000   0.000000000000000E+000   3.453864474460618E-003   1.997131675954295E-002   0.000000000000000E+000   0.000000000000000E+000   0.000000000000000E+000   0.000000000000000E+000   0.000000000000000E+000   0.000000000000000E+000   0.000000000000000E+000   0.000000000000000E+000
     68   2.342879079812787E-002   3.347317003461616E-003   0.000000000000000E+000   0.000000000000000E+000   0.000000000000000E+000   0.000000000000000E+000   3.347317003461616E-003   2.007564309336977E-002   0.000000000000000E+000   0.000000000000000E+000   0.000000000000000E+000   0.000000000000000E+000   0.000000000000000E+000   0.000000000000000E+000   0.000000000000000E+000   0.000000000000000E+000
     69   2.342927986772598E-002   3.208206130432123E-003   0.000000000000000E+000   0.000000000000000E+000   0.000000000000000E+000   0.000000000000000E+000   3.208206130432123E-003   2.017863117488435E-002   0.000000000000000E+000   0.000000000000000E+000   0.000000000000000E+000   0.000000000000000E+000   0.000000000000000E+000   0.000000000000000E+000   0.000000000000000E+000   0.000000000000000E+000
     70   2.342975516707304E-002   3.040319096711924E-003   0.000000000000000E+000   0.000000000000000E+000   0.000000000000000E+000   0.000000000000000E+000   3.040319096711924E-003   2.027882647320185E-002   0.000000000000000E+000   0.000000000000000E+000   0.000000000000000E+000   0.000000000000000E+000   0.000000000000000E+000   0.000000000000000E+000   0.000000000000000E+000   0.000000000000000E+000
     71   2.343021780602690E-002   2.847975398515814E-003   0.000000000000000E+000   0.000000000000000E+000   0.000000000000000E+000   0.000000000000000E+000   2.847975398515814E-003   2.037484151627240E-002   0.000000000000000E+000   0.000000000000000E+000   0.000000000000000E+000   0.000000000000000E+000   0.000000000000000E+000   0.000000000000000E+000   0.000000000000000E+000   0.000000000000000E+000
     72   2.343066772767517E-002   2.635874308650388E-003   0.000000000000000E+000   0.000000000000000E+000   0.000000000000000E+000   0.000000000000000E+000   2.635874308650388E-003   2.046541662341090E-002   0.000000000000000E+000   0.000000000000000E+000   0.000000000000000E+000   0.000000000000000E+000   0.000000000000000E+000   0.000000000000000E+000   0.000000000000000E+000   0.000000000000000E+000
     73   2.343110392167934E-002   2.408942643569936E-003   0.000000000000000E+000   0.000000000000000E+000   0.000000000000000E+000   0.000000000000000E+000   2.408942643569936E-003   2.054947277553331E-002   0.000000000000000E+000   0.000000000000000E+000   0.000000000000000E+000   0.000000000000000E+000   0.000000000000000E+000   0.000000000000000E+000   0.000000000000000E+000   0.000000000000000E+000
     74   2.343152467988516E-002   2.172189699504278E-003   0.000000000000000E+000   0.000000000000000E+000   0.000000000000000E+000   0.000000000000000E+000   2.172189699504278E-003   2.062615315930215E-002   0.000000000000000E+000   0.000000000000000E+000   0.000000000000000E+000   0.000000000000000E+000   0.000000000000000E+000   0.000000000000000E+000   0.000000000000000E+000   0.000000000000000E+000
     75   2.343192785428724E-002   1.930574907909304E-003   0.000000000000000E+000   0.000000000000000E+000   0.000000000000000E+000   0.000000000000000E+000   1.930574907909304E-003   2.069485108525403E-002   0.000000000000000E+000   0.000000000000000E+000   0.000000000000000E+000   0.000000000000000E+000   0.000000000000000E+000   0.000000000000000E+000   0.000000000000000E+000   0.000000000000000E+000
     76   2.343231108978415E-002   1.688892142500068E-003   0.000000000000000E+000   0.000000000000000E+000   0.000000000000000E+000   0.000000000000000E+000   1.688892142500068E-003   2.075522324967802E-002   0.000000000000000E+000   0.000000000000000E+000   0.000000000000000E+000   0.000000000000000E+000   0.000000000000000E+000   0.000000000000000E+000   0.000000000000000E+000   0.000000000000000E+000
     77   2.343267201490981E-002   1.451672938945566E-003   0.000000000000000E+000   0.000000000000000E+000   0.000000000000000E+000   0.000000000000000E+000   1.451672938945566E-003   2.080718853871968E-002   0.000000000000000E+000   0.000000000000000E+000   0.000000000000000E+000   0.000000000000000E+000   0.000000000000000E+000   0.000000000000000E+000   0.000000000000000E+000   0.000000000000000E+000
     78   2.343300838383086E-002   1.223109330005924E-003   0.000000000000000E+000   0.000000000000000E+000   0.000000000000000E+000   0.000000000000000E+000   1.223109330005924E-003   2.085091364083791E-002   0.000000000000000E+000   0.000000000000000E+000   0.000000000000000E+000   0.000000000000000E+000   0.000000000000000E+000   0.000000000000000E+000   0.000000000000000E+000   0.000000000000000E+000
     79   2.343331817000024E-002   1.006995677832611E-003   0.000000000000000E+000   0.000000000000000E+000   0.000000000000000E+000   0.000000000000000E+000   1.006995677832611E-003   2.088678755848947E-002   0.000000000000000E+000   0.000000000000000E+000   0.000000000000000E+000   0.000000000000000E+000   0.000000000000000E+000   0.000000000000000E+000   0.000000000000000E+000   0.000000000000000E+000
     80   2.343359961745441E-002   8.066878768095268E-004   0.000000000000000E+000   0.000000000000000E+000   0.000000000000000E+000   0.000000000000000E+000   8.066878768095268E-004   2.091538765162885E-002   0.000000000000000E+000   0.000000000000000E+000   0.000000000000000E+000   0.000000000000000E+000   0.000000000000000E+000   0.000000000000000E+000   0.000000000000000E+000   0.000000000000000E+000
     81   2.343385125798412E-002   6.250776325089532E-004   0.000000000000000E+000   0.000000000000000E+000   0.000000000000000E+000   0.000000000000000E+000   6.250776325089532E-004   2.093744010246804E-002   0.000000000000000E+000   0.000000000000000E+000   0.000000000000000E+000   0.000000000000000E+000   0.000000000000000E+000   0.000000000000000E+000   0.000000000000000E+000   0.000000000000000E+000
     82   2.343407190546393E-002   4.645791827632677E-004   0.000000000000000E+000   0.000000000000000E+000   0.000000000000000E+000   0.000000000000000E+000   4.645791827632677E-004   2.095377769120706E-002   0.000000000000000E+000   0.000000000000000E+000   0.000000000000000E+000   0.000000000000000E+000   0.000000000000000E+000   0.000000000000000E+000   0.000000000000000E+000   0.000000000000000E+000
     83   2.343426063613116E-002   3.271257743103155E-004   0.000000000000000E+000   0.000000000000000E+000   0.000000000000000E+000   0.000000000000000E+000   3.271257743103155E-004   2.096529756393856E-002   0.000000000000000E+000   0.000000000000000E+000   0.000000000000000E+000   0.000000000000000E+000   0.000000000000000E+000   0.000000000000000E+000   0.000000000000000E+000   0.000000000000000E+000
     84   2.343441676491138E-002   2.141733846947647E-004   0.000000000000000E+000   0.000000000000000E+000   0.000000000000000E+000   0.000000000000000E+000   2.141733846947647E-004   2.097292131345790E-002   0.000000000000000E+000   0.000000000000000E+000   0.000000000000000E+000   0.000000000000000E+000   0.000000000000000E+000   0.000000000000000E+000   0.000000000000000E+000   0.000000000000000E+000
     85   2.343453982458397E-002   1.267095196837525E-004   0.000000000000000E+000   0.000000000000000E+000   0.000000000000000E+000   0.000000000000000E+000   1.267095196837525E-004   2.097755923814758E-002   0.000000000000000E+000   0.000000000000000E+000   0.000000000000000E+000   0.000000000000000E+000   0.000000000000000E+000   0.000000000000000E+000   0.000000000000000E+000   0.000000000000000E+000
     86   2.343462955353644E-002   6.526535919243501E-005   0.000000000000000E+000   0.000000000000000E+000   0.000000000000000E+000   0.000000000000000E+000   6.526535919243501E-005   2.098008014405513E-002   0.000000000000000E+000   0.000000000000000E+000   0.000000000000000E+000   0.000000000000000E+000   0.000000000000000E+000   0.000000000000000E+000   0.000000000000000E+000   0.000000000000000E+000
     87   2.343468589500986E-002   2.993001494521142E-005   0.000000000000000E+000   0.000000000000000E+000   0.000000000000000E+000   0.000000000000000E+000   2.993001494521142E-005   2.098128755152550E-002   0.000000000000000E+000   0.000000000000000E+000   0.000000000000000E+000   0.000000000000000E+000   0.000000000000000E+000   0.000000000000000E+000   0.000000000000000E+000   0.000000000000000E+000
     88   2.343470900978542E-002   2.036615635519885E-005   0.000000000000000E+000   0.000000000000000E+000   0.000000000000000E+000   0.000000000000000E+000   2.036615635519885E-005   2.098190269019572E-002   0.000000000000000E+000   0.000000000000000E+000   0.000000000000000E+000   0.000000000000000E+000   0.000000000000000E+000   0.000000000000000E+000   0.000000000000000E+000   0.000000000000000E+000
     89   2.343469930167222E-002   3.582672342591178E-005   0.000000000000000E+000   0.000000000000000E+000   0.000000000000000E+000   0.000000000000000E+000   3.582672342591178E-005   2.098255423468257E-002   0.000000000000000E+000   0.000000000000000E+000   0.000000000000000E+000   0.000000000000000E+000   0.000000000000000E+000   0.000000000000000E+000   0.000000000000000E+000   0.000000000000000E+000
     90   2.343465745339870E-002   7.517285221618249E-005   0.000000000000000E+000   0.000000000000000E+000   0.000000000000000E+000   0.000000000000000E+000   7.517285221618249E-005   2.098377435972570E-002   0.000000000000000E+000   0.000000000000000E+000   0.000000000000000E+000   0.000000000000000E+000   0.000000000000000E+000   0.000000000000000E+000   0.000000000000000E+000   0.000000000000000E+000
     91   2.343458447043396E-002   1.368934722725261E-004   0.000000000000000E+000   0.000000000000000E+000   0.000000000000000E+000   0.000000000000000E+000   1.368934722725261E-004   2.098600038413515E-002   0.000000000000000E+000   0.000000000000000E+000   0.000000000000000E+000   0.000000000000000E+000   0.000000000000000E+000   0.000000000000000E+000   0.000000000000000E+000   0.000000000000000E+000
     92   2.343448172814079E-002   2.191272844533183E-004   0.000000000000000E+000   0.000000000000000E+000   0.000000000000000E+000   0.000000000000000E+000   2.191272844533183E-004   2.098958103067315E-002   0.000000000000000E+000   0.000000000000000E+000   0.000000000000000E+000   0.000000000000000E+000   0.000000000000000E+000   0.000000000000000E+000   0.000000000000000E+000   0.000000000000000E+000
     93   2.343435101737832E-002   3.196879833373332E-004   0.000000000000000E+000   0.000000000000000E+000   0.000000000000000E+000   0.000000000000000E+000   3.196879833373332E-004   2.099478615568855E-002   0.000000000000000E+000   0.000000000000000E+000   0.000000000000000E+000   0.000000000000000E+000   0.000000000000000E+000   0.000000000000000E+000   0.000000000000000E+000   0.000000000000000E+000
     94   2.343419458359241E-002   4.360936450727950E-004   0.000000000000000E+000   0.000000000000000E+000   0.000000000000000E+000   0.000000000000000E+000   4.360936450727950E-004   2.100181869945607E-002   0.000000000000000E+000   0.000000000000000E+000   0.000000000000000E+000   0.000000000000000E+000   0.000000000000000E+000   0.000000000000000E+000   0.000000000000000E+000   0.000000000000000E+000
     95   2.343401515400189E-002   5.656011555266788E-004   0.000000000000000E+000   0.000000000000000E+000   0.000000000000000E+000   0.000000000000000E+000   5.656011555266788E-004   2.101082757746196E-002   0.000000000000000E+000   0.000000000000000E+000   0.000000000000000E+000   0.000000000000000E+000   0.000000000000000E+000   0.000000000000000E+000   0.000000000000000E+000   0.000000000000000E+000
     96   2.343381594801292E-002   7.052464041934355E-004   0.000000000000000E+000   0.000000000000000E+000   0.000000000000000E+000   0.000000000000000E+000   7.052464041934355E-004   2.102192027576600E-002   0.000000000000000E+000   0.000000000000000E+000   0.000000000000000E+000   0.000000000000000E+000   0.000000000000000E+000   0.000000000000000E+000   0.000000000000000E+000   0.000000000000000E+000
     97   2.343360066666097E-002   8.518907197211127E-004   0.000000000000000E+000   0.000000000000000E+000   0.000000000000000E+000   0.000000000000000E+000   8.518907197211127E-004   2.103517403018156E-002   0.000000000000000E+000   0.000000000000000E+000   0.000000000000000E+000   0.000000000000000E+000   0.000000000000000E+000   0.000000000000000E+000   0.000000000000000E+000   0.000000000000000E+000
     98   2.343337345748699E-002   1.002273681673809E-003   0.000000000000000E+000   0.000000000000000E+000   0.000000000000000E+000   0.000000000000000E+000   1.002273681673809E-003   2.105064465672030E-002   0.000000000000000E+000   0.000000000000000E+000   0.000000000000000E+000   0.000000000000000E+000   0.000000000000000E+000   0.000000000000000E+000   0.000000000000000E+000   0.000000000000000E+000
     99   2.343313885373882E-002   1.153072025637011E-003   0.000000000000000E+000   0.000000000000000E+000   0.000000000000000E+000   0.000000000000000E+000   1.153072025637011E-003   2.106837235264815E-002   0.000000000000000E+000   0.000000000000000E+000   0.000000000000000E+000   0.000000000000000E+000   0.000000000000000E+000   0.000000000000000E+000   0.000000000000000E+000   0.000000000000000E+000
    100   2.343290168690835E-002   1.300963888009271E-003   0.000000000000000E+000   0.000000000000000E+000   0.000000000000000E+000   0.000000000000000E+000   1.300963888009271E-003   2.108838409121164E-002   0.000000000000000E+000   0.000000000000000E+000   0.000000000000000E+000   0.000000000000000E+000   0.000000000000000E+000   0.000000000000000E+000   0.000000000000000E+000   0.000000000000000E+000
