# Energy in atomic unit (1 Eh = 2625.499640 kJ/mol)
# -------------------------------------------------
# step         Total energy           Kinetic energy         Potential energy         Coulomb energy        van_der_Waals energy       Coulomb LR energy      Coulomb keq0 energy      Coulomb SR energy      Coulomb self energy   Coulomb molecule energy        Fumi-Tosi energy    Fumi-Tosi molecule ener   
       0 -6.199890162190444E+001  3.836627222748656E+000 -6.583552884465310E+001 -7.611031565802766E+001  1.027478681337456E+001   4.387260981913627E-002  3.184395088841675E-002 -4.347735106442423E+001 -3.350816792261540E+001  0.000000000000000E+000    1.027478681337456E+001  0.000000000000000E+000  
       1 -6.199498443304674E+001  3.864519894334451E+000 -6.585950432738119E+001 -7.610473045368380E+001  1.024522612630261E+001   4.409772522742055E-002  2.993005854280647E-002 -4.347076342155210E+001 -3.350818717624278E+001  0.000000000000000E+000    1.024522612630261E+001  0.000000000000000E+000  
