# Energy in atomic unit (1 Eh = 2625.499640 kJ/mol)
# -------------------------------------------------
# step         Hamiltonian             Kinetic energy          Potential energy          Coulomb energy       van_der_Waals energy      Coulomb LR energy       Coulomb keq0 energy       Coulomb SR energy       Coulomb self energy     Coulomb molecule energy     Fumi-Tosi energy     Fumi-Tosi molecule energy
      0 -1.382049957653531E+002   8.914974225043002E+000  -1.471199699903962E+002  -1.664964702110288E+002   1.937650022063270E+001   3.180284985496408E-001   2.581833020150270E-002  -9.785072890288748E+001  -6.898958813689252E+001   0.000000000000000E+000   1.937650022063270E+001   0.000000000000000E+000 
      1 -1.382050776539461E+002   9.100782228560369E+000  -1.473058598825065E+002  -1.665725906862236E+002   1.926673080371714E+001   3.077697716577528E-001   2.290731708473004E-002  -9.791323909518522E+001  -6.899002867978086E+001   0.000000000000000E+000   1.926673080371714E+001   0.000000000000000E+000 
