  1.27952380242398E+01   7.18680089691613E+00   1.73953333079721E+01
  2.19645352094670E+01   1.99009992741956E+01   2.07648325260472E+01
  1.59690425644800E+00   1.03179792864419E+00   4.33162219903722E+01
  9.96572732850970E+00   1.30910701976747E+00   3.38377323669339E+01
  8.60539318819929E+00   1.00391783645081E+01   3.56413863360746E+01
  1.85299590618720E+01   4.47733634347981E+00   1.94197744783867E+01
  6.43750669702305E+00   1.28768082232281E+01   2.88955748260554E+01
  3.27846089650740E+00   1.74988570508269E+01   4.37452921410530E+01
  1.31304038457738E+01   3.35102213328530E-01   1.62412239896162E+01
  3.80332675605387E+00   7.22452714748827E+00   3.21763586027438E+01
  1.96495953562047E+00   1.26053930313916E+01   3.67885996671831E+01
  1.06588658636929E+01   5.73633318277893E+00   4.91325589071658E+01
  5.50601889042035E+00   6.56466452024616E+00   1.82785307936235E+01
  6.52952350831183E+00   1.18894833266553E+01   1.33904377599145E+01
  2.05592727752167E+01   1.11196038233151E+01   3.16059384497793E+01
  1.23849446602129E+01   1.79027722732339E+01   4.44517246489875E+01
  1.65166818095892E+01   2.08981868186060E+01   2.12256092454558E+01
  4.05754789596020E+00   1.64227160766163E+01   1.92331721250061E+01
  1.27728773998045E+01   5.33712314359848E+00   3.87894466758467E+01
  1.81378468120876E+01   1.77480782276043E+01   3.82591026129659E+01
  1.71525679057668E+01   1.50374765069744E+01   2.59553819276113E+01
  2.26309818086477E+01   1.08961130242059E+01   1.94665927418567E+01
  1.62535963018763E+01   3.31987318486671E+00   3.26204943090961E+01
  1.87672727016527E+01   1.99110424753022E+01   4.47674627451778E+01
  5.39912515340424E+00   7.18028907550860E+00   4.75039656895838E+01
  1.52981789753618E+01   1.88856777496813E+01   3.34502973534108E+01
  2.03392734768526E+01   2.10673273916280E+01   2.63301722939436E+01
  1.64359006104990E+01   2.48813801378835E+00   4.69393886098964E+01
  2.27403676305291E+01   1.10926058565327E+01   2.57638023550553E+01
  1.25443790271122E+01   1.42047191554507E+01   3.05620975864917E+01
  2.11440593506137E+01   1.53057756222290E+00   3.46830008524799E+01
  1.71807760034002E+01   1.69846823470260E+00   4.04619845873942E+01
  1.17901534043782E+01   2.24394807143441E+01   4.99251548129086E+01
  6.83209601068713E+00   2.17466530756847E+01   2.02237309272792E+01
  7.03094002019837E+00   1.21340143049476E+01   4.23612612948798E+01
  2.06121370794990E+01   8.36733245052268E+00   1.29227161153588E+01
  9.95958990461503E+00   6.97408574288397E+00   3.00325330971302E+01
  1.67338020851627E+01   1.20013633034959E+01   2.06749233576704E+01
  1.05118914741475E+01   2.24950120224828E+00   4.36681829511921E+01
  1.24473312739882E+00   1.45664837279056E+01   4.88324076707380E+01
  2.05711954767478E+01   1.68926938418757E+01   1.48805489797949E+01
  4.99583455880133E+00   6.14286444080639E+00   3.86475755365409E+01
  2.27474961445180E+01   1.74470354012423E+01   3.21190400323768E+01
  2.11758088676516E+01   7.67278101785039E+00   3.82773151422187E+01
  1.98650803963527E+01   3.27199546838830E-01   1.26468296913478E+01
  1.64465684338730E+01   7.73222893743227E+00   2.80608881988569E+01
  1.16871277119652E+01   2.11974316735574E+01   2.74013865096579E+01
  1.44955273605982E+01   8.25802209348319E+00   4.40521518779193E+01
  2.19359908287546E+01   6.82065492461295E+00   4.71830312150922E+01
  8.74184563101858E+00   1.11281027171660E+01   2.01385311330126E+01
  4.97246535854687E+00   1.83810359130738E+01   2.64084907740913E+01
  2.24313273837102E+01   3.80829049822467E+00   2.48965135296941E+01
  1.59197556691190E+00   2.78362132190621E+00   5.18146663009621E+01
  1.11579208178326E+01   1.73869486398525E+01   1.64856893720974E+01
  1.53700696055092E+01   9.37991636676562E+00   3.61038709359498E+01
  6.23795116597236E+00   2.15025090541161E+01   4.70210128734606E+01
  4.26756952489844E+00   2.17242083098686E+01   1.36160804102972E+01
  1.13474541345323E+01   1.69933899540477E+01   2.30253725696459E+01
  1.14452475460341E+01   1.59259553972016E+01   3.84703297562477E+01
  1.97786998021385E+01   1.26412522862432E+01   4.35734828642220E+01
  1.65349603219955E+01   6.54817288326587E+00   5.13305243679194E+01
  1.11543774868312E+01   3.92364921191384E+00   2.30605260075265E+01
  7.01387671345024E+00   1.64945716925719E+01   3.40622391359422E+01
  4.67556814505419E+00   2.16526022024545E+01   3.77677978523398E+01
  1.65344983037122E+01   9.49277653047479E+00   3.20607111746147E+01
  7.21813979928072E+00   1.89069837579703E+01   1.70715462730567E+01
  8.78155334190704E+00   3.70376424619348E+00   4.00436433360148E+01
  2.14221846381616E+01   1.66532591487893E+01   4.52369237571710E+01
  1.50058832882103E+01   1.88071996502594E+01   4.10240130877954E+01
  4.47524821948211E+00   1.12573551020289E+01   1.65974372700506E+01
  1.22316200510388E+01   1.56436386837325E+01   3.42055967457787E+01
  9.81324535638654E+00   1.08980168802285E+01   3.17576867011663E+01
  1.40477050903599E+01   4.41882600090180E+00   4.25128577854944E+01
  1.42772169566892E+01   2.05520939961141E+01   4.66632438704277E+01
  1.79896650940005E+01   5.23966349742939E+00   3.70143235247568E+01
  3.78236535368727E+00   1.07669379854800E+01   4.64717006581369E+01
  1.86880207664840E-01   1.99171796608906E+01   1.29199269415030E+01
  1.43910338169350E+01   3.19672085322010E+00   1.90701835828482E+01
  9.66217761437580E+00   7.05805866646492E+00   4.49969808953237E+01
  8.38913284213926E+00   2.53230553294199E+00   4.88339051593672E+01
  6.28121056971292E+00   2.35789165685682E+00   1.68198415287930E+01
  8.62248111290712E+00   1.96520652494440E+01   2.46491205449185E+01
  1.26327301486017E+01   4.02582210919852E+00   2.78518170839613E+01
  3.30282147310357E+00   1.84522114519955E+01   4.86767128875199E+01
  1.99469861582098E+01   1.29559962251377E+01   2.33258232449495E+01
  7.86220164957974E+00   2.05770667392216E+01   3.51254813797036E+01
  9.71287924212485E+00   6.77586680026771E+00   1.99150090027716E+01
  1.51067376684327E+01   1.84966868652188E+01   2.43358885800156E+01
  1.76221861236138E+01   2.19243032100379E+01   3.63122963388489E+01
  8.46578946700200E-02   1.55978704619965E+01   1.80019348487442E+01
  1.99358416493523E+00   2.53450768254112E+00   3.95100203430524E+01
  2.59314944400725E+00   6.37791836375184E+00   5.23589288190931E+01
  2.10571449264306E+01   2.24026788791677E+01   3.07392768433694E+01
  1.28788923038286E+01   2.18389531107781E+01   3.13135985556370E+01
  1.34872213210507E+01   3.45184960159620E+00   5.09497511132755E+01
  1.22673616742782E+01   1.46108625976024E+01   1.96137853104796E+01
  1.85604336980915E+01   1.80676289286262E+01   1.94946759356857E+01
  2.04366304784190E+01   7.69956950043925E+00   2.80671458644345E+01
  2.88309411794578E+00   2.13845523434773E+01   2.01956316350033E+01
  5.46663882621354E+00   2.13483671999495E+01   4.25431287498875E+01
  2.00680750834529E+01   1.69413260825954E+00   2.23185758611054E+01
  1.92020727540989E+01   1.17638401609710E+00   4.46950385507396E+01
  5.22565349635838E+00   9.79158737524170E+00   3.91414491451720E+01
  6.99788367827806E+00   5.53100891397637E+00   3.37148248651002E+01
  1.54547224743768E+01   9.80406215097909E+00   2.42133853690721E+01
  2.02518954762956E+01   1.53544541510632E+01   2.80819570296613E+01
  6.05938410408023E+00   7.98243991916884E+00   2.84746933319247E+01
  2.65787642607841E+00   3.69647025875916E+00   4.72872259744060E+01
  8.08368598933200E-02   8.01784018957078E+00   2.25820924634520E+01
  2.12059103324638E+01   1.26514389808213E+01   3.97444911857075E+01
  2.08402619076680E+01   2.04375892987907E+01   4.04211055495224E+01
  1.21906514997493E+01   1.12918709937918E+01   3.77380799244559E+01
  2.05493817052809E+01   4.58382490016038E+00   5.02184254529502E+01
  5.01820826367319E+00   1.54270580915883E+01   2.33423842095722E+01
  1.20221784414804E+01   2.01815900943213E+01   1.92247143356342E+01
  2.01628433149269E+01   7.86786405737417E+00   1.69224902655174E+01
  9.73722376245936E+00   1.58156737839315E+01   4.26833720730202E+01
  2.11724999029077E+01   1.42731378955653E+01   3.43348528902382E+01
  8.86446096876633E+00   1.60923104586734E+01   2.95701707943586E+01
  1.90300886350088E+01   7.94550926756249E+00   4.29779841364632E+01
  1.05443216254651E+01   1.07094849743120E+01   1.59533007308185E+01
  1.78517827474251E+01   4.72854463544612E+00   1.29142809965577E+01
  1.26410513712439E+01   4.93807289069511E+00   3.48556485457604E+01
  1.53033225061233E+01   7.19903912086322E+00   4.77905421819521E+01
  1.70840622609136E+01   2.10906318496402E+01   1.49928320154808E+01
  2.89529825905950E+00   1.76323385781392E+01   3.53476913438964E+01
  6.01998061378810E-01   8.97334946974362E+00   3.46972079040581E+01
  3.03250216687796E+00   1.45363853634824E+01   3.08397573511765E+01
  0.00000000000000E+00   0.00000000000000E+00   0.00000000000000E+00   0.00000000000000E+00
  3.80245410000000E+00   3.80245410000000E+00   0.00000000000000E+00   0.00000000000000E+00
  0.00000000000000E+00   7.60490820000000E+00   0.00000000000000E+00   0.00000000000000E+00
  3.80245410000000E+00   1.14073623000000E+01   0.00000000000000E+00   0.00000000000000E+00
  0.00000000000000E+00   1.52098164000000E+01   0.00000000000000E+00   0.00000000000000E+00
  3.80245410000000E+00   1.90122705000000E+01   0.00000000000000E+00   0.00000000000000E+00
  7.60490820000000E+00   0.00000000000000E+00   0.00000000000000E+00   0.00000000000000E+00
  1.14073623000000E+01   3.80245410000000E+00   0.00000000000000E+00   0.00000000000000E+00
  7.60490820000000E+00   7.60490820000000E+00   0.00000000000000E+00   0.00000000000000E+00
  1.14073623000000E+01   1.14073623000000E+01   0.00000000000000E+00   0.00000000000000E+00
  7.60490820000000E+00   1.52098164000000E+01   0.00000000000000E+00   0.00000000000000E+00
  1.14073623000000E+01   1.90122705000000E+01   0.00000000000000E+00   0.00000000000000E+00
  1.52098164000000E+01   0.00000000000000E+00   0.00000000000000E+00   0.00000000000000E+00
  1.90122705000000E+01   3.80245410000000E+00   0.00000000000000E+00   0.00000000000000E+00
  1.52098164000000E+01   7.60490820000000E+00   0.00000000000000E+00   0.00000000000000E+00
  1.90122705000000E+01   1.14073623000000E+01   0.00000000000000E+00   0.00000000000000E+00
  1.52098164000000E+01   1.52098164000000E+01   0.00000000000000E+00   0.00000000000000E+00
  1.90122705000000E+01   1.90122705000000E+01   0.00000000000000E+00   0.00000000000000E+00
  3.80245410000000E+00   0.00000000000000E+00   3.80245410000000E+00   0.00000000000000E+00
  0.00000000000000E+00   3.80245410000000E+00   3.80245410000000E+00   0.00000000000000E+00
  3.80245410000000E+00   7.60490820000000E+00   3.80245410000000E+00   0.00000000000000E+00
  0.00000000000000E+00   1.14073623000000E+01   3.80245410000000E+00   0.00000000000000E+00
  3.80245410000000E+00   1.52098164000000E+01   3.80245410000000E+00   0.00000000000000E+00
  0.00000000000000E+00   1.90122705000000E+01   3.80245410000000E+00   0.00000000000000E+00
  1.14073623000000E+01   0.00000000000000E+00   3.80245410000000E+00   0.00000000000000E+00
  7.60490820000000E+00   3.80245410000000E+00   3.80245410000000E+00   0.00000000000000E+00
  1.14073623000000E+01   7.60490820000000E+00   3.80245410000000E+00   0.00000000000000E+00
  7.60490820000000E+00   1.14073623000000E+01   3.80245410000000E+00   0.00000000000000E+00
  1.14073623000000E+01   1.52098164000000E+01   3.80245410000000E+00   0.00000000000000E+00
  7.60490820000000E+00   1.90122705000000E+01   3.80245410000000E+00   0.00000000000000E+00
  1.90122705000000E+01   0.00000000000000E+00   3.80245410000000E+00   0.00000000000000E+00
  1.52098164000000E+01   3.80245410000000E+00   3.80245410000000E+00   0.00000000000000E+00
  1.90122705000000E+01   7.60490820000000E+00   3.80245410000000E+00   0.00000000000000E+00
  1.52098164000000E+01   1.14073623000000E+01   3.80245410000000E+00   0.00000000000000E+00
  1.90122705000000E+01   1.52098164000000E+01   3.80245410000000E+00   0.00000000000000E+00
  1.52098164000000E+01   1.90122705000000E+01   3.80245410000000E+00   0.00000000000000E+00
  0.00000000000000E+00   0.00000000000000E+00   7.60490820000000E+00   0.00000000000000E+00
  3.80245410000000E+00   3.80245410000000E+00   7.60490820000000E+00   0.00000000000000E+00
  0.00000000000000E+00   7.60490820000000E+00   7.60490820000000E+00   0.00000000000000E+00
  3.80245410000000E+00   1.14073623000000E+01   7.60490820000000E+00   0.00000000000000E+00
  0.00000000000000E+00   1.52098164000000E+01   7.60490820000000E+00   0.00000000000000E+00
  3.80245410000000E+00   1.90122705000000E+01   7.60490820000000E+00   0.00000000000000E+00
  7.60490820000000E+00   0.00000000000000E+00   7.60490820000000E+00   0.00000000000000E+00
  1.14073623000000E+01   3.80245410000000E+00   7.60490820000000E+00   0.00000000000000E+00
  7.60490820000000E+00   7.60490820000000E+00   7.60490820000000E+00   0.00000000000000E+00
  1.14073623000000E+01   1.14073623000000E+01   7.60490820000000E+00   0.00000000000000E+00
  7.60490820000000E+00   1.52098164000000E+01   7.60490820000000E+00   0.00000000000000E+00
  1.14073623000000E+01   1.90122705000000E+01   7.60490820000000E+00   0.00000000000000E+00
  1.52098164000000E+01   0.00000000000000E+00   7.60490820000000E+00   0.00000000000000E+00
  1.90122705000000E+01   3.80245410000000E+00   7.60490820000000E+00   0.00000000000000E+00
  1.52098164000000E+01   7.60490820000000E+00   7.60490820000000E+00   0.00000000000000E+00
  1.90122705000000E+01   1.14073623000000E+01   7.60490820000000E+00   0.00000000000000E+00
  1.52098164000000E+01   1.52098164000000E+01   7.60490820000000E+00   0.00000000000000E+00
  1.90122705000000E+01   1.90122705000000E+01   7.60490820000000E+00   0.00000000000000E+00
  3.80245410000000E+00   0.00000000000000E+00   5.72961637657315E+01   0.00000000000000E+00
  0.00000000000000E+00   3.80245410000000E+00   5.72961637657315E+01   0.00000000000000E+00
  3.80245410000000E+00   7.60490820000000E+00   5.72961637657315E+01   0.00000000000000E+00
  0.00000000000000E+00   1.14073623000000E+01   5.72961637657315E+01   0.00000000000000E+00
  3.80245410000000E+00   1.52098164000000E+01   5.72961637657315E+01   0.00000000000000E+00
  0.00000000000000E+00   1.90122705000000E+01   5.72961637657315E+01   0.00000000000000E+00
  1.14073623000000E+01   0.00000000000000E+00   5.72961637657315E+01   0.00000000000000E+00
  7.60490820000000E+00   3.80245410000000E+00   5.72961637657315E+01   0.00000000000000E+00
  1.14073623000000E+01   7.60490820000000E+00   5.72961637657315E+01   0.00000000000000E+00
  7.60490820000000E+00   1.14073623000000E+01   5.72961637657315E+01   0.00000000000000E+00
  1.14073623000000E+01   1.52098164000000E+01   5.72961637657315E+01   0.00000000000000E+00
  7.60490820000000E+00   1.90122705000000E+01   5.72961637657315E+01   0.00000000000000E+00
  1.90122705000000E+01   0.00000000000000E+00   5.72961637657315E+01   0.00000000000000E+00
  1.52098164000000E+01   3.80245410000000E+00   5.72961637657315E+01   0.00000000000000E+00
  1.90122705000000E+01   7.60490820000000E+00   5.72961637657315E+01   0.00000000000000E+00
  1.52098164000000E+01   1.14073623000000E+01   5.72961637657315E+01   0.00000000000000E+00
  1.90122705000000E+01   1.52098164000000E+01   5.72961637657315E+01   0.00000000000000E+00
  1.52098164000000E+01   1.90122705000000E+01   5.72961637657315E+01   0.00000000000000E+00
  7.60490820000000E+00   0.00000000000000E+00   6.10986178657315E+01   0.00000000000000E+00
  1.90122705000000E+01   3.80245410000000E+00   6.10986178657315E+01   0.00000000000000E+00
  7.60490820000000E+00   7.60490820000000E+00   6.10986178657315E+01   0.00000000000000E+00
  1.90122705000000E+01   1.14073623000000E+01   6.10986178657315E+01   0.00000000000000E+00
  7.60490820000000E+00   1.52098164000000E+01   6.10986178657315E+01   0.00000000000000E+00
  1.90122705000000E+01   1.90122705000000E+01   6.10986178657315E+01   0.00000000000000E+00
  1.52098164000000E+01   0.00000000000000E+00   6.10986178657315E+01   0.00000000000000E+00
  3.80245410000000E+00   3.80245410000000E+00   6.10986178657315E+01   0.00000000000000E+00
  1.52098164000000E+01   7.60490820000000E+00   6.10986178657315E+01   0.00000000000000E+00
  3.80245410000000E+00   1.14073623000000E+01   6.10986178657315E+01   0.00000000000000E+00
  1.52098164000000E+01   1.52098164000000E+01   6.10986178657315E+01   0.00000000000000E+00
  3.80245410000000E+00   1.90122705000000E+01   6.10986178657315E+01   0.00000000000000E+00
  0.00000000000000E+00   0.00000000000000E+00   6.10986178657315E+01   0.00000000000000E+00
  1.14073623000000E+01   3.80245410000000E+00   6.10986178657315E+01   0.00000000000000E+00
  0.00000000000000E+00   7.60490820000000E+00   6.10986178657315E+01   0.00000000000000E+00
  1.14073623000000E+01   1.14073623000000E+01   6.10986178657315E+01   0.00000000000000E+00
  0.00000000000000E+00   1.52098164000000E+01   6.10986178657315E+01   0.00000000000000E+00
  1.14073623000000E+01   1.90122705000000E+01   6.10986178657315E+01   0.00000000000000E+00
  3.80245410000000E+00   0.00000000000000E+00   6.49010719657315E+01   0.00000000000000E+00
  0.00000000000000E+00   3.80245410000000E+00   6.49010719657315E+01   0.00000000000000E+00
  3.80245410000000E+00   7.60490820000000E+00   6.49010719657315E+01   0.00000000000000E+00
  0.00000000000000E+00   1.14073623000000E+01   6.49010719657315E+01   0.00000000000000E+00
  3.80245410000000E+00   1.52098164000000E+01   6.49010719657315E+01   0.00000000000000E+00
  0.00000000000000E+00   1.90122705000000E+01   6.49010719657315E+01   0.00000000000000E+00
  1.14073623000000E+01   0.00000000000000E+00   6.49010719657315E+01   0.00000000000000E+00
  7.60490820000000E+00   3.80245410000000E+00   6.49010719657315E+01   0.00000000000000E+00
  1.14073623000000E+01   7.60490820000000E+00   6.49010719657315E+01   0.00000000000000E+00
  7.60490820000000E+00   1.14073623000000E+01   6.49010719657315E+01   0.00000000000000E+00
  1.14073623000000E+01   1.52098164000000E+01   6.49010719657315E+01   0.00000000000000E+00
  7.60490820000000E+00   1.90122705000000E+01   6.49010719657315E+01   0.00000000000000E+00
  1.90122705000000E+01   0.00000000000000E+00   6.49010719657315E+01   0.00000000000000E+00
  1.52098164000000E+01   3.80245410000000E+00   6.49010719657315E+01   0.00000000000000E+00
  1.90122705000000E+01   7.60490820000000E+00   6.49010719657315E+01   0.00000000000000E+00
  1.52098164000000E+01   1.14073623000000E+01   6.49010719657315E+01   0.00000000000000E+00
  1.90122705000000E+01   1.52098164000000E+01   6.49010719657315E+01   0.00000000000000E+00
  1.52098164000000E+01   1.90122705000000E+01   6.49010719657315E+01   0.00000000000000E+00
  7.98995060537377E-04  -1.30242526293866E-01   0.00000000000000E+00   0.00000000000000E+00
  1.44624071526328E-03  -1.30242526293866E-01   0.00000000000000E+00   0.00000000000000E+00
  8.04958043010001E-04  -1.30242526293866E-01   0.00000000000000E+00   0.00000000000000E+00
 -1.38559142678334E-03  -1.30242526293866E-01   0.00000000000000E+00   0.00000000000000E+00
 -1.77390517635626E-03  -1.30242526293866E-01   0.00000000000000E+00   0.00000000000000E+00
 -1.53673453180246E-03  -1.30242526293866E-01   0.00000000000000E+00   0.00000000000000E+00
  3.34133536689886E-05  -1.30242526293866E-01   0.00000000000000E+00   0.00000000000000E+00
  2.42273786997500E-03  -1.30242526293866E-01   0.00000000000000E+00   0.00000000000000E+00
  8.93725548193743E-04  -1.30242526293866E-01   0.00000000000000E+00   0.00000000000000E+00
 -1.17136174991332E-03  -1.30242526293866E-01   0.00000000000000E+00   0.00000000000000E+00
 -2.72949283174036E-03  -1.30242526293866E-01   0.00000000000000E+00   0.00000000000000E+00
 -9.76847736993961E-04  -1.30242526293866E-01   0.00000000000000E+00   0.00000000000000E+00
  1.97608819176519E-03  -1.30242526293866E-01   0.00000000000000E+00   0.00000000000000E+00
  2.49224619251039E-03  -1.30242526293866E-01   0.00000000000000E+00   0.00000000000000E+00
  1.35367715049355E-03  -1.30242526293866E-01   0.00000000000000E+00   0.00000000000000E+00
 -1.18944859613333E-03  -1.30242526293866E-01   0.00000000000000E+00   0.00000000000000E+00
 -1.50898350260130E-03  -1.30242526293866E-01   0.00000000000000E+00   0.00000000000000E+00
  7.36415807452986E-05  -1.30242526293866E-01   0.00000000000000E+00   0.00000000000000E+00
 -1.87790435177883E-03  -1.30222673152062E-01  -3.07512526240997E-05   0.00000000000000E+00
 -1.47145454264011E-03  -1.30222673152062E-01  -4.47191699963111E-05   0.00000000000000E+00
 -8.03260237943763E-03  -1.30222673152062E-01  -2.89597173182327E-05   0.00000000000000E+00
 -8.54192068256149E-03  -1.30222673152062E-01  -6.34325682632555E-05   0.00000000000000E+00
 -6.72325488966932E-03  -1.30222673152062E-01  -1.05302303238584E-05   0.00000000000000E+00
  1.90627431549363E-03  -1.30222673152062E-01   9.83859857808950E-05   0.00000000000000E+00
  5.39233489278612E-03  -1.30222673152062E-01   0.00000000000000E+00   0.00000000000000E+00
  2.62052291191509E-04  -1.30222673152062E-01  -7.58791085638383E-06   0.00000000000000E+00
  4.70818225464444E-03  -1.30222673152062E-01   0.00000000000000E+00   0.00000000000000E+00
 -7.43931177443792E-03  -1.30222673152062E-01  -8.20216315682995E-05   0.00000000000000E+00
 -1.05506742385372E-03  -1.30222673152062E-01  -8.17953392465695E-06   0.00000000000000E+00
 -2.72333800646703E-03  -1.30222673152062E-01  -1.84708233232564E-05   0.00000000000000E+00
  5.97389661747009E-03  -1.30222673152062E-01  -1.57494632973535E-04   0.00000000000000E+00
  1.15123385183847E-02  -1.30222673152062E-01   7.50896005075984E-05   0.00000000000000E+00
  1.12632788923016E-03  -1.30222673152062E-01  -4.85569374271599E-05   0.00000000000000E+00
  2.40503986724053E-03  -1.30222673152062E-01  -1.16007818807431E-05   0.00000000000000E+00
  1.08277344348080E-04  -1.30222673152062E-01   4.84390730266736E-06   0.00000000000000E+00
  5.19499789534632E-03  -1.30222673152062E-01  -1.95255683016026E-05   0.00000000000000E+00
  3.60033408934749E-03  -1.28969183121288E-01  -1.58457598016510E-03   0.00000000000000E+00
 -1.18288535423601E-02  -1.28969183121288E-01  -1.24336935778460E-03   0.00000000000000E+00
 -2.40430961920312E-02  -1.28969183121288E-01  -6.94730713127699E-03   0.00000000000000E+00
 -3.13404302855308E-02  -1.28969183121288E-01  -4.17675734160330E-03   0.00000000000000E+00
 -4.51721601393958E-03  -1.28969183121288E-01   5.83307952317849E-04   0.00000000000000E+00
 -2.53582041985407E-03  -1.28969183121288E-01   1.67953277257280E-04   0.00000000000000E+00
 -4.53236922138082E-03  -1.28969183121288E-01  -2.17748576436139E-03   0.00000000000000E+00
  2.04292617385138E-02  -1.28969183121288E-01   2.72168927716054E-04   0.00000000000000E+00
 -9.15081184429474E-03  -1.28969183121288E-01  -1.44675524279069E-03   0.00000000000000E+00
  2.03747665359624E-03  -1.28969183121288E-01  -7.25797383757165E-04   0.00000000000000E+00
 -1.84119773290680E-02  -1.28969183121288E-01  -2.80838104939701E-03   0.00000000000000E+00
  4.31909233699360E-03  -1.28969183121288E-01  -2.82849060648299E-04   0.00000000000000E+00
  2.40090194090481E-02  -1.28969183121288E-01  -6.31112453105078E-04   0.00000000000000E+00
  2.02397607381006E-02  -1.28969183121288E-01   3.51427638276122E-03   0.00000000000000E+00
  2.58021571321292E-02  -1.28969183121288E-01   2.24482537662189E-03   0.00000000000000E+00
 -1.20324042866587E-02  -1.28969183121288E-01  -4.15703239683745E-03   0.00000000000000E+00
  7.12494940808966E-03  -1.28969183121288E-01  -1.59735387458205E-04   0.00000000000000E+00
  1.28370742328672E-02  -1.28969183121288E-01  -1.40699181726622E-03   0.00000000000000E+00
 -2.01648001032643E-03   1.29896451424065E-01  -2.82521802684259E-03   0.00000000000000E+00
  1.93143978663541E-02   1.29896451424065E-01  -1.11570592718723E-03   0.00000000000000E+00
  4.33007701872268E-02   1.29896451424065E-01   1.22184276105638E-02   0.00000000000000E+00
  1.06895967269526E-02   1.29896451424065E-01   9.87233233789493E-04   0.00000000000000E+00
 -1.01785437125039E-03   1.29896451424065E-01  -4.74973382909154E-05   0.00000000000000E+00
 -6.33416077913592E-03   1.29896451424065E-01  -3.21827795407889E-04   0.00000000000000E+00
 -8.24504002819734E-03   1.29896451424065E-01  -1.54687246608700E-04   0.00000000000000E+00
  1.34695910083468E-02   1.29896451424065E-01   9.53270433721639E-04   0.00000000000000E+00
 -5.17242760576589E-03   1.29896451424065E-01  -2.63977727860470E-04   0.00000000000000E+00
  5.62245002828761E-03   1.29896451424065E-01   2.53507351272353E-04   0.00000000000000E+00
 -1.39641668812620E-02   1.29896451424065E-01  -3.21581169243777E-05   0.00000000000000E+00
 -9.67652730898701E-03   1.29896451424065E-01  -9.59090412010292E-05   0.00000000000000E+00
 -1.23848083045830E-03   1.29896451424065E-01  -2.28428271305967E-04   0.00000000000000E+00
 -3.08196704277548E-03   1.29896451424065E-01   3.25212112448822E-04   0.00000000000000E+00
 -6.51796404204246E-04   1.29896451424065E-01  -2.15844392393349E-03   0.00000000000000E+00
 -1.84228479046570E-02   1.29896451424065E-01  -7.99080865218771E-04   0.00000000000000E+00
 -1.21436167566110E-02   1.29896451424065E-01  -8.01811195248916E-05   0.00000000000000E+00
 -1.26942478409481E-02   1.29896451424065E-01  -1.32039275280384E-04   0.00000000000000E+00
 -6.06733961945295E-04   1.30232930946512E-01   0.00000000000000E+00   0.00000000000000E+00
  1.99617468529818E-03   1.30232930946512E-01  -2.25153061471074E-05   0.00000000000000E+00
  6.58388320929391E-03   1.30232930946512E-01   4.16760185149751E-05   0.00000000000000E+00
 -2.57408451515111E-03   1.30232930946512E-01  -9.10710802429816E-06   0.00000000000000E+00
 -2.77511446857386E-03   1.30232930946512E-01   0.00000000000000E+00   0.00000000000000E+00
 -3.55298362488132E-03   1.30232930946512E-01   0.00000000000000E+00   0.00000000000000E+00
 -2.03954619972419E-03   1.30232930946512E-01   1.49570094935244E-05   0.00000000000000E+00
  8.60152652056790E-03   1.30232930946512E-01   6.41592098060106E-05   0.00000000000000E+00
 -3.51908136997458E-03   1.30232930946512E-01  -4.74915498947257E-05   0.00000000000000E+00
  6.19077725779635E-03   1.30232930946512E-01   4.12885397171240E-05   0.00000000000000E+00
 -6.52403167852797E-03   1.30232930946512E-01   0.00000000000000E+00   0.00000000000000E+00
 -2.32612236898095E-03   1.30232930946512E-01  -6.71846091110215E-06   0.00000000000000E+00
  2.31928144275907E-04   1.30232930946512E-01  -5.57180370382975E-05   0.00000000000000E+00
  7.57591410302902E-04   1.30232930946512E-01   2.37297483006683E-05   0.00000000000000E+00
  9.62751827157802E-03   1.30232930946512E-01   1.29532375507335E-04   0.00000000000000E+00
 -3.73921701785246E-03   1.30232930946512E-01   0.00000000000000E+00   0.00000000000000E+00
 -1.80814370417021E-03   1.30232930946512E-01   0.00000000000000E+00   0.00000000000000E+00
 -5.29012778385521E-03   1.30232930946512E-01   0.00000000000000E+00   0.00000000000000E+00
 -1.88282035654464E-05   1.30242543518810E-01   0.00000000000000E+00   0.00000000000000E+00
  1.77217521400011E-03   1.30242543518810E-01   0.00000000000000E+00   0.00000000000000E+00
  8.76951787174858E-04   1.30242543518810E-01   0.00000000000000E+00   0.00000000000000E+00
 -1.27408915149949E-03   1.30242543518810E-01   0.00000000000000E+00   0.00000000000000E+00
 -2.41858395500642E-03   1.30242543518810E-01   0.00000000000000E+00   0.00000000000000E+00
 -5.77788168198433E-04   1.30242543518810E-01   0.00000000000000E+00   0.00000000000000E+00
  1.07144223643556E-03   1.30242543518810E-01   0.00000000000000E+00   0.00000000000000E+00
  1.64015698138016E-03   1.30242543518810E-01   0.00000000000000E+00   0.00000000000000E+00
  1.22265549416940E-03   1.30242543518810E-01   0.00000000000000E+00   0.00000000000000E+00
 -1.51066443443843E-03   1.30242543518810E-01   0.00000000000000E+00   0.00000000000000E+00
 -2.15810105594972E-03   1.30242543518810E-01   0.00000000000000E+00   0.00000000000000E+00
 -1.82022652813436E-03   1.30242543518810E-01   0.00000000000000E+00   0.00000000000000E+00
  1.73046729778027E-03   1.30242543518810E-01   0.00000000000000E+00   0.00000000000000E+00
  2.95535570904103E-03   1.30242543518810E-01   0.00000000000000E+00   0.00000000000000E+00
  9.62128092997610E-04   1.30242543518810E-01   0.00000000000000E+00   0.00000000000000E+00
 -9.68339926023064E-04   1.30242543518810E-01   0.00000000000000E+00   0.00000000000000E+00
 -1.44185935907682E-03   1.30242543518810E-01   0.00000000000000E+00   0.00000000000000E+00
 -1.94468731592653E-05   1.30242543518810E-01   0.00000000000000E+00   0.00000000000000E+00
